<?xml version="1.0" encoding="utf-8" standalone="no"?>
<!DOCTYPE svg PUBLIC "-//W3C//DTD SVG 1.1//EN"
  "http://www.w3.org/Graphics/SVG/1.1/DTD/svg11.dtd">
<svg xmlns:xlink="http://www.w3.org/1999/xlink" width="602.36289pt" height="585.478125pt" viewBox="0 0 602.36289 585.478125" xmlns="http://www.w3.org/2000/svg" version="1.1">
 <metadata>
  <rdf:RDF xmlns:dc="http://purl.org/dc/elements/1.1/" xmlns:cc="http://creativecommons.org/ns#" xmlns:rdf="http://www.w3.org/1999/02/22-rdf-syntax-ns#">
   <cc:Work>
    <dc:type rdf:resource="http://purl.org/dc/dcmitype/StillImage"/>
    <dc:date>2024-05-09T12:55:40.845868</dc:date>
    <dc:format>image/svg+xml</dc:format>
    <dc:creator>
     <cc:Agent>
      <dc:title>Matplotlib v3.8.0, https://matplotlib.org/</dc:title>
     </cc:Agent>
    </dc:creator>
   </cc:Work>
  </rdf:RDF>
 </metadata>
 <defs>
  <style type="text/css">*{stroke-linejoin: round; stroke-linecap: butt}</style>
 </defs>
 <g id="figure_1">
  <g id="patch_1">
   <path d="M 0 585.478125 
L 602.36289 585.478125 
L 602.36289 0 
L 0 0 
z
" style="fill: #ffffff"/>
  </g>
  <g id="axes_1">
   <g id="patch_2">
    <path d="M 35.304688 561.6 
L 593.304688 561.6 
L 593.304688 7.2 
L 35.304688 7.2 
z
" style="fill: #ffffff"/>
   </g>
   <g id="matplotlib.axis_1">
    <g id="xtick_1">
     <g id="line2d_1">
      <defs>
       <path id="mbe506e4023" d="M 0 0 
L 0 3.5 
" style="stroke: #000000; stroke-width: 0.8"/>
      </defs>
      <g>
       <use xlink:href="#mbe506e4023" x="42.990235" y="561.6" style="stroke: #000000; stroke-width: 0.8"/>
      </g>
     </g>
     <g id="text_1">
      <!-- 60 -->
      <g transform="translate(36.627735 576.198438) scale(0.1 -0.1)">
       <defs>
        <path id="DejaVuSans-36" d="M 2113 2584 
Q 1688 2584 1439 2293 
Q 1191 2003 1191 1497 
Q 1191 994 1439 701 
Q 1688 409 2113 409 
Q 2538 409 2786 701 
Q 3034 994 3034 1497 
Q 3034 2003 2786 2293 
Q 2538 2584 2113 2584 
z
M 3366 4563 
L 3366 3988 
Q 3128 4100 2886 4159 
Q 2644 4219 2406 4219 
Q 1781 4219 1451 3797 
Q 1122 3375 1075 2522 
Q 1259 2794 1537 2939 
Q 1816 3084 2150 3084 
Q 2853 3084 3261 2657 
Q 3669 2231 3669 1497 
Q 3669 778 3244 343 
Q 2819 -91 2113 -91 
Q 1303 -91 875 529 
Q 447 1150 447 2328 
Q 447 3434 972 4092 
Q 1497 4750 2381 4750 
Q 2619 4750 2861 4703 
Q 3103 4656 3366 4563 
z
" transform="scale(0.015625)"/>
        <path id="DejaVuSans-30" d="M 2034 4250 
Q 1547 4250 1301 3770 
Q 1056 3291 1056 2328 
Q 1056 1369 1301 889 
Q 1547 409 2034 409 
Q 2525 409 2770 889 
Q 3016 1369 3016 2328 
Q 3016 3291 2770 3770 
Q 2525 4250 2034 4250 
z
M 2034 4750 
Q 2819 4750 3233 4129 
Q 3647 3509 3647 2328 
Q 3647 1150 3233 529 
Q 2819 -91 2034 -91 
Q 1250 -91 836 529 
Q 422 1150 422 2328 
Q 422 3509 836 4129 
Q 1250 4750 2034 4750 
z
" transform="scale(0.015625)"/>
       </defs>
       <use xlink:href="#DejaVuSans-36"/>
       <use xlink:href="#DejaVuSans-30" x="63.623047"/>
      </g>
     </g>
    </g>
    <g id="xtick_2">
     <g id="line2d_2">
      <g>
       <use xlink:href="#mbe506e4023" x="110.818848" y="561.6" style="stroke: #000000; stroke-width: 0.8"/>
      </g>
     </g>
     <g id="text_2">
      <!-- 70 -->
      <g transform="translate(104.456348 576.198438) scale(0.1 -0.1)">
       <defs>
        <path id="DejaVuSans-37" d="M 525 4666 
L 3525 4666 
L 3525 4397 
L 1831 0 
L 1172 0 
L 2766 4134 
L 525 4134 
L 525 4666 
z
" transform="scale(0.015625)"/>
       </defs>
       <use xlink:href="#DejaVuSans-37"/>
       <use xlink:href="#DejaVuSans-30" x="63.623047"/>
      </g>
     </g>
    </g>
    <g id="xtick_3">
     <g id="line2d_3">
      <g>
       <use xlink:href="#mbe506e4023" x="178.647461" y="561.6" style="stroke: #000000; stroke-width: 0.8"/>
      </g>
     </g>
     <g id="text_3">
      <!-- 80 -->
      <g transform="translate(172.284961 576.198438) scale(0.1 -0.1)">
       <defs>
        <path id="DejaVuSans-38" d="M 2034 2216 
Q 1584 2216 1326 1975 
Q 1069 1734 1069 1313 
Q 1069 891 1326 650 
Q 1584 409 2034 409 
Q 2484 409 2743 651 
Q 3003 894 3003 1313 
Q 3003 1734 2745 1975 
Q 2488 2216 2034 2216 
z
M 1403 2484 
Q 997 2584 770 2862 
Q 544 3141 544 3541 
Q 544 4100 942 4425 
Q 1341 4750 2034 4750 
Q 2731 4750 3128 4425 
Q 3525 4100 3525 3541 
Q 3525 3141 3298 2862 
Q 3072 2584 2669 2484 
Q 3125 2378 3379 2068 
Q 3634 1759 3634 1313 
Q 3634 634 3220 271 
Q 2806 -91 2034 -91 
Q 1263 -91 848 271 
Q 434 634 434 1313 
Q 434 1759 690 2068 
Q 947 2378 1403 2484 
z
M 1172 3481 
Q 1172 3119 1398 2916 
Q 1625 2713 2034 2713 
Q 2441 2713 2670 2916 
Q 2900 3119 2900 3481 
Q 2900 3844 2670 4047 
Q 2441 4250 2034 4250 
Q 1625 4250 1398 4047 
Q 1172 3844 1172 3481 
z
" transform="scale(0.015625)"/>
       </defs>
       <use xlink:href="#DejaVuSans-38"/>
       <use xlink:href="#DejaVuSans-30" x="63.623047"/>
      </g>
     </g>
    </g>
    <g id="xtick_4">
     <g id="line2d_4">
      <g>
       <use xlink:href="#mbe506e4023" x="246.476074" y="561.6" style="stroke: #000000; stroke-width: 0.8"/>
      </g>
     </g>
     <g id="text_4">
      <!-- 90 -->
      <g transform="translate(240.113574 576.198438) scale(0.1 -0.1)">
       <defs>
        <path id="DejaVuSans-39" d="M 703 97 
L 703 672 
Q 941 559 1184 500 
Q 1428 441 1663 441 
Q 2288 441 2617 861 
Q 2947 1281 2994 2138 
Q 2813 1869 2534 1725 
Q 2256 1581 1919 1581 
Q 1219 1581 811 2004 
Q 403 2428 403 3163 
Q 403 3881 828 4315 
Q 1253 4750 1959 4750 
Q 2769 4750 3195 4129 
Q 3622 3509 3622 2328 
Q 3622 1225 3098 567 
Q 2575 -91 1691 -91 
Q 1453 -91 1209 -44 
Q 966 3 703 97 
z
M 1959 2075 
Q 2384 2075 2632 2365 
Q 2881 2656 2881 3163 
Q 2881 3666 2632 3958 
Q 2384 4250 1959 4250 
Q 1534 4250 1286 3958 
Q 1038 3666 1038 3163 
Q 1038 2656 1286 2365 
Q 1534 2075 1959 2075 
z
" transform="scale(0.015625)"/>
       </defs>
       <use xlink:href="#DejaVuSans-39"/>
       <use xlink:href="#DejaVuSans-30" x="63.623047"/>
      </g>
     </g>
    </g>
    <g id="xtick_5">
     <g id="line2d_5">
      <g>
       <use xlink:href="#mbe506e4023" x="314.304688" y="561.6" style="stroke: #000000; stroke-width: 0.8"/>
      </g>
     </g>
     <g id="text_5">
      <!-- 100 -->
      <g transform="translate(304.760938 576.198438) scale(0.1 -0.1)">
       <defs>
        <path id="DejaVuSans-31" d="M 794 531 
L 1825 531 
L 1825 4091 
L 703 3866 
L 703 4441 
L 1819 4666 
L 2450 4666 
L 2450 531 
L 3481 531 
L 3481 0 
L 794 0 
L 794 531 
z
" transform="scale(0.015625)"/>
       </defs>
       <use xlink:href="#DejaVuSans-31"/>
       <use xlink:href="#DejaVuSans-30" x="63.623047"/>
       <use xlink:href="#DejaVuSans-30" x="127.246094"/>
      </g>
     </g>
    </g>
    <g id="xtick_6">
     <g id="line2d_6">
      <g>
       <use xlink:href="#mbe506e4023" x="382.133301" y="561.6" style="stroke: #000000; stroke-width: 0.8"/>
      </g>
     </g>
     <g id="text_6">
      <!-- 110 -->
      <g transform="translate(372.589551 576.198438) scale(0.1 -0.1)">
       <use xlink:href="#DejaVuSans-31"/>
       <use xlink:href="#DejaVuSans-31" x="63.623047"/>
       <use xlink:href="#DejaVuSans-30" x="127.246094"/>
      </g>
     </g>
    </g>
    <g id="xtick_7">
     <g id="line2d_7">
      <g>
       <use xlink:href="#mbe506e4023" x="449.961914" y="561.6" style="stroke: #000000; stroke-width: 0.8"/>
      </g>
     </g>
     <g id="text_7">
      <!-- 120 -->
      <g transform="translate(440.418164 576.198438) scale(0.1 -0.1)">
       <defs>
        <path id="DejaVuSans-32" d="M 1228 531 
L 3431 531 
L 3431 0 
L 469 0 
L 469 531 
Q 828 903 1448 1529 
Q 2069 2156 2228 2338 
Q 2531 2678 2651 2914 
Q 2772 3150 2772 3378 
Q 2772 3750 2511 3984 
Q 2250 4219 1831 4219 
Q 1534 4219 1204 4116 
Q 875 4013 500 3803 
L 500 4441 
Q 881 4594 1212 4672 
Q 1544 4750 1819 4750 
Q 2544 4750 2975 4387 
Q 3406 4025 3406 3419 
Q 3406 3131 3298 2873 
Q 3191 2616 2906 2266 
Q 2828 2175 2409 1742 
Q 1991 1309 1228 531 
z
" transform="scale(0.015625)"/>
       </defs>
       <use xlink:href="#DejaVuSans-31"/>
       <use xlink:href="#DejaVuSans-32" x="63.623047"/>
       <use xlink:href="#DejaVuSans-30" x="127.246094"/>
      </g>
     </g>
    </g>
    <g id="xtick_8">
     <g id="line2d_8">
      <g>
       <use xlink:href="#mbe506e4023" x="517.790527" y="561.6" style="stroke: #000000; stroke-width: 0.8"/>
      </g>
     </g>
     <g id="text_8">
      <!-- 130 -->
      <g transform="translate(508.246777 576.198438) scale(0.1 -0.1)">
       <defs>
        <path id="DejaVuSans-33" d="M 2597 2516 
Q 3050 2419 3304 2112 
Q 3559 1806 3559 1356 
Q 3559 666 3084 287 
Q 2609 -91 1734 -91 
Q 1441 -91 1130 -33 
Q 819 25 488 141 
L 488 750 
Q 750 597 1062 519 
Q 1375 441 1716 441 
Q 2309 441 2620 675 
Q 2931 909 2931 1356 
Q 2931 1769 2642 2001 
Q 2353 2234 1838 2234 
L 1294 2234 
L 1294 2753 
L 1863 2753 
Q 2328 2753 2575 2939 
Q 2822 3125 2822 3475 
Q 2822 3834 2567 4026 
Q 2313 4219 1838 4219 
Q 1578 4219 1281 4162 
Q 984 4106 628 3988 
L 628 4550 
Q 988 4650 1302 4700 
Q 1616 4750 1894 4750 
Q 2613 4750 3031 4423 
Q 3450 4097 3450 3541 
Q 3450 3153 3228 2886 
Q 3006 2619 2597 2516 
z
" transform="scale(0.015625)"/>
       </defs>
       <use xlink:href="#DejaVuSans-31"/>
       <use xlink:href="#DejaVuSans-33" x="63.623047"/>
       <use xlink:href="#DejaVuSans-30" x="127.246094"/>
      </g>
     </g>
    </g>
    <g id="xtick_9">
     <g id="line2d_9">
      <g>
       <use xlink:href="#mbe506e4023" x="585.61914" y="561.6" style="stroke: #000000; stroke-width: 0.8"/>
      </g>
     </g>
     <g id="text_9">
      <!-- 140 -->
      <g transform="translate(576.07539 576.198438) scale(0.1 -0.1)">
       <defs>
        <path id="DejaVuSans-34" d="M 2419 4116 
L 825 1625 
L 2419 1625 
L 2419 4116 
z
M 2253 4666 
L 3047 4666 
L 3047 1625 
L 3713 1625 
L 3713 1100 
L 3047 1100 
L 3047 0 
L 2419 0 
L 2419 1100 
L 313 1100 
L 313 1709 
L 2253 4666 
z
" transform="scale(0.015625)"/>
       </defs>
       <use xlink:href="#DejaVuSans-31"/>
       <use xlink:href="#DejaVuSans-34" x="63.623047"/>
       <use xlink:href="#DejaVuSans-30" x="127.246094"/>
      </g>
     </g>
    </g>
   </g>
   <g id="matplotlib.axis_2">
    <g id="ytick_1">
     <g id="line2d_10">
      <defs>
       <path id="m1fc323803f" d="M 0 0 
L -3.5 0 
" style="stroke: #000000; stroke-width: 0.8"/>
      </defs>
      <g>
       <use xlink:href="#m1fc323803f" x="35.304688" y="553.964037" style="stroke: #000000; stroke-width: 0.8"/>
      </g>
     </g>
     <g id="text_10">
      <!-- −80 -->
      <g transform="translate(7.2 557.763256) scale(0.1 -0.1)">
       <defs>
        <path id="DejaVuSans-2212" d="M 678 2272 
L 4684 2272 
L 4684 1741 
L 678 1741 
L 678 2272 
z
" transform="scale(0.015625)"/>
       </defs>
       <use xlink:href="#DejaVuSans-2212"/>
       <use xlink:href="#DejaVuSans-38" x="83.789062"/>
       <use xlink:href="#DejaVuSans-30" x="147.412109"/>
      </g>
     </g>
    </g>
    <g id="ytick_2">
     <g id="line2d_11">
      <g>
       <use xlink:href="#m1fc323803f" x="35.304688" y="486.573028" style="stroke: #000000; stroke-width: 0.8"/>
      </g>
     </g>
     <g id="text_11">
      <!-- −60 -->
      <g transform="translate(7.2 490.372246) scale(0.1 -0.1)">
       <use xlink:href="#DejaVuSans-2212"/>
       <use xlink:href="#DejaVuSans-36" x="83.789062"/>
       <use xlink:href="#DejaVuSans-30" x="147.412109"/>
      </g>
     </g>
    </g>
    <g id="ytick_3">
     <g id="line2d_12">
      <g>
       <use xlink:href="#m1fc323803f" x="35.304688" y="419.182018" style="stroke: #000000; stroke-width: 0.8"/>
      </g>
     </g>
     <g id="text_12">
      <!-- −40 -->
      <g transform="translate(7.2 422.981237) scale(0.1 -0.1)">
       <use xlink:href="#DejaVuSans-2212"/>
       <use xlink:href="#DejaVuSans-34" x="83.789062"/>
       <use xlink:href="#DejaVuSans-30" x="147.412109"/>
      </g>
     </g>
    </g>
    <g id="ytick_4">
     <g id="line2d_13">
      <g>
       <use xlink:href="#m1fc323803f" x="35.304688" y="351.791009" style="stroke: #000000; stroke-width: 0.8"/>
      </g>
     </g>
     <g id="text_13">
      <!-- −20 -->
      <g transform="translate(7.2 355.590228) scale(0.1 -0.1)">
       <use xlink:href="#DejaVuSans-2212"/>
       <use xlink:href="#DejaVuSans-32" x="83.789062"/>
       <use xlink:href="#DejaVuSans-30" x="147.412109"/>
      </g>
     </g>
    </g>
    <g id="ytick_5">
     <g id="line2d_14">
      <g>
       <use xlink:href="#m1fc323803f" x="35.304688" y="284.4" style="stroke: #000000; stroke-width: 0.8"/>
      </g>
     </g>
     <g id="text_14">
      <!-- 0 -->
      <g transform="translate(21.942187 288.199219) scale(0.1 -0.1)">
       <use xlink:href="#DejaVuSans-30"/>
      </g>
     </g>
    </g>
    <g id="ytick_6">
     <g id="line2d_15">
      <g>
       <use xlink:href="#m1fc323803f" x="35.304688" y="217.008991" style="stroke: #000000; stroke-width: 0.8"/>
      </g>
     </g>
     <g id="text_15">
      <!-- 20 -->
      <g transform="translate(15.579687 220.80821) scale(0.1 -0.1)">
       <use xlink:href="#DejaVuSans-32"/>
       <use xlink:href="#DejaVuSans-30" x="63.623047"/>
      </g>
     </g>
    </g>
    <g id="ytick_7">
     <g id="line2d_16">
      <g>
       <use xlink:href="#m1fc323803f" x="35.304688" y="149.617982" style="stroke: #000000; stroke-width: 0.8"/>
      </g>
     </g>
     <g id="text_16">
      <!-- 40 -->
      <g transform="translate(15.579687 153.4172) scale(0.1 -0.1)">
       <use xlink:href="#DejaVuSans-34"/>
       <use xlink:href="#DejaVuSans-30" x="63.623047"/>
      </g>
     </g>
    </g>
    <g id="ytick_8">
     <g id="line2d_17">
      <g>
       <use xlink:href="#m1fc323803f" x="35.304688" y="82.226972" style="stroke: #000000; stroke-width: 0.8"/>
      </g>
     </g>
     <g id="text_17">
      <!-- 60 -->
      <g transform="translate(15.579687 86.026191) scale(0.1 -0.1)">
       <use xlink:href="#DejaVuSans-36"/>
       <use xlink:href="#DejaVuSans-30" x="63.623047"/>
      </g>
     </g>
    </g>
    <g id="ytick_9">
     <g id="line2d_18">
      <g>
       <use xlink:href="#m1fc323803f" x="35.304688" y="14.835963" style="stroke: #000000; stroke-width: 0.8"/>
      </g>
     </g>
     <g id="text_18">
      <!-- 80 -->
      <g transform="translate(15.579687 18.635182) scale(0.1 -0.1)">
       <use xlink:href="#DejaVuSans-38"/>
       <use xlink:href="#DejaVuSans-30" x="63.623047"/>
      </g>
     </g>
    </g>
   </g>
   <g id="line2d_19">
    <defs>
     <path id="ma178dedc29" d="M 0 0.45 
C 0.119341 0.45 0.233811 0.402585 0.318198 0.318198 
C 0.402585 0.233811 0.45 0.119341 0.45 0 
C 0.45 -0.119341 0.402585 -0.233811 0.318198 -0.318198 
C 0.233811 -0.402585 0.119341 -0.45 0 -0.45 
C -0.119341 -0.45 -0.233811 -0.402585 -0.318198 -0.318198 
C -0.402585 -0.233811 -0.45 -0.119341 -0.45 0 
C -0.45 0.119341 -0.402585 0.233811 -0.318198 0.318198 
C -0.233811 0.402585 -0.119341 0.45 0 0.45 
z
" style="stroke: #808080"/>
    </defs>
    <g clip-path="url(#pffa387191e)">
     <use xlink:href="#ma178dedc29" x="129.586471" y="176.584399" style="fill: #808080; stroke: #808080"/>
     <use xlink:href="#ma178dedc29" x="508.618243" y="175.836693" style="fill: #808080; stroke: #808080"/>
     <use xlink:href="#ma178dedc29" x="242.991992" y="227.598568" style="fill: #808080; stroke: #808080"/>
     <use xlink:href="#ma178dedc29" x="231.037717" y="167.01259" style="fill: #808080; stroke: #808080"/>
     <use xlink:href="#ma178dedc29" x="311.450577" y="357.83081" style="fill: #808080; stroke: #808080"/>
     <use xlink:href="#ma178dedc29" x="461.196766" y="181.261822" style="fill: #808080; stroke: #808080"/>
     <use xlink:href="#ma178dedc29" x="106.284523" y="368.180886" style="fill: #808080; stroke: #808080"/>
    </g>
   </g>
   <g id="line2d_20">
    <defs>
     <path id="m4cef5094e8" d="M 0 -1 
L -0.224514 -0.309017 
L -0.951057 -0.309017 
L -0.363271 0.118034 
L -0.587785 0.809017 
L -0 0.381966 
L 0.587785 0.809017 
L 0.363271 0.118034 
L 0.951057 -0.309017 
L 0.224514 -0.309017 
z
" style="stroke: #000000; stroke-linejoin: bevel"/>
    </defs>
    <g clip-path="url(#pffa387191e)">
     <use xlink:href="#m4cef5094e8" x="85.031952" y="405.141148" style="stroke: #000000; stroke-linejoin: bevel"/>
     <use xlink:href="#m4cef5094e8" x="78.492393" y="408.435861" style="stroke: #000000; stroke-linejoin: bevel"/>
     <use xlink:href="#m4cef5094e8" x="88.347734" y="409.166533" style="stroke: #000000; stroke-linejoin: bevel"/>
     <use xlink:href="#m4cef5094e8" x="86.468351" y="409.976843" style="stroke: #000000; stroke-linejoin: bevel"/>
     <use xlink:href="#m4cef5094e8" x="95.321568" y="412.307714" style="stroke: #000000; stroke-linejoin: bevel"/>
     <use xlink:href="#m4cef5094e8" x="96.929325" y="401.869746" style="stroke: #000000; stroke-linejoin: bevel"/>
     <use xlink:href="#m4cef5094e8" x="101.83401" y="409.858938" style="stroke: #000000; stroke-linejoin: bevel"/>
     <use xlink:href="#m4cef5094e8" x="113.841281" y="405.312034" style="stroke: #000000; stroke-linejoin: bevel"/>
     <use xlink:href="#m4cef5094e8" x="95.113045" y="400.403213" style="stroke: #000000; stroke-linejoin: bevel"/>
     <use xlink:href="#m4cef5094e8" x="116.682263" y="404.767408" style="stroke: #000000; stroke-linejoin: bevel"/>
     <use xlink:href="#m4cef5094e8" x="116.351438" y="399.756102" style="stroke: #000000; stroke-linejoin: bevel"/>
     <use xlink:href="#m4cef5094e8" x="126.768917" y="400.175025" style="stroke: #000000; stroke-linejoin: bevel"/>
     <use xlink:href="#m4cef5094e8" x="143.754717" y="394.954296" style="stroke: #000000; stroke-linejoin: bevel"/>
     <use xlink:href="#m4cef5094e8" x="138.505976" y="394.780611" style="stroke: #000000; stroke-linejoin: bevel"/>
     <use xlink:href="#m4cef5094e8" x="144.722584" y="397.814429" style="stroke: #000000; stroke-linejoin: bevel"/>
     <use xlink:href="#m4cef5094e8" x="139.606139" y="394.43502" style="stroke: #000000; stroke-linejoin: bevel"/>
     <use xlink:href="#m4cef5094e8" x="145.990432" y="389.884619" style="stroke: #000000; stroke-linejoin: bevel"/>
     <use xlink:href="#m4cef5094e8" x="145.53052" y="394.808991" style="stroke: #000000; stroke-linejoin: bevel"/>
     <use xlink:href="#m4cef5094e8" x="146.786079" y="391.004936" style="stroke: #000000; stroke-linejoin: bevel"/>
     <use xlink:href="#m4cef5094e8" x="157.756955" y="396.616605" style="stroke: #000000; stroke-linejoin: bevel"/>
     <use xlink:href="#m4cef5094e8" x="156.271299" y="385.68344" style="stroke: #000000; stroke-linejoin: bevel"/>
     <use xlink:href="#m4cef5094e8" x="170.972653" y="384.506504" style="stroke: #000000; stroke-linejoin: bevel"/>
     <use xlink:href="#m4cef5094e8" x="181.580788" y="386.023261" style="stroke: #000000; stroke-linejoin: bevel"/>
     <use xlink:href="#m4cef5094e8" x="179.114692" y="382.963217" style="stroke: #000000; stroke-linejoin: bevel"/>
     <use xlink:href="#m4cef5094e8" x="168.607517" y="383.48999" style="stroke: #000000; stroke-linejoin: bevel"/>
     <use xlink:href="#m4cef5094e8" x="179.445247" y="390.392939" style="stroke: #000000; stroke-linejoin: bevel"/>
     <use xlink:href="#m4cef5094e8" x="171.857879" y="387.472361" style="stroke: #000000; stroke-linejoin: bevel"/>
     <use xlink:href="#m4cef5094e8" x="195.858687" y="375.082536" style="stroke: #000000; stroke-linejoin: bevel"/>
     <use xlink:href="#m4cef5094e8" x="190.077329" y="380.028377" style="stroke: #000000; stroke-linejoin: bevel"/>
     <use xlink:href="#m4cef5094e8" x="201.610601" y="378.701017" style="stroke: #000000; stroke-linejoin: bevel"/>
     <use xlink:href="#m4cef5094e8" x="192.701249" y="379.774832" style="stroke: #000000; stroke-linejoin: bevel"/>
     <use xlink:href="#m4cef5094e8" x="197.305136" y="376.599301" style="stroke: #000000; stroke-linejoin: bevel"/>
     <use xlink:href="#m4cef5094e8" x="211.134136" y="379.191501" style="stroke: #000000; stroke-linejoin: bevel"/>
     <use xlink:href="#m4cef5094e8" x="203.097631" y="378.953169" style="stroke: #000000; stroke-linejoin: bevel"/>
     <use xlink:href="#m4cef5094e8" x="209.663229" y="372.630713" style="stroke: #000000; stroke-linejoin: bevel"/>
     <use xlink:href="#m4cef5094e8" x="214.682731" y="373.488546" style="stroke: #000000; stroke-linejoin: bevel"/>
     <use xlink:href="#m4cef5094e8" x="229.331703" y="369.859164" style="stroke: #000000; stroke-linejoin: bevel"/>
     <use xlink:href="#m4cef5094e8" x="224.81129" y="365.564508" style="stroke: #000000; stroke-linejoin: bevel"/>
     <use xlink:href="#m4cef5094e8" x="229.224635" y="372.340767" style="stroke: #000000; stroke-linejoin: bevel"/>
     <use xlink:href="#m4cef5094e8" x="225.396008" y="371.409718" style="stroke: #000000; stroke-linejoin: bevel"/>
     <use xlink:href="#m4cef5094e8" x="232.361423" y="369.895532" style="stroke: #000000; stroke-linejoin: bevel"/>
     <use xlink:href="#m4cef5094e8" x="236.070563" y="361.716478" style="stroke: #000000; stroke-linejoin: bevel"/>
     <use xlink:href="#m4cef5094e8" x="247.300423" y="366.255515" style="stroke: #000000; stroke-linejoin: bevel"/>
     <use xlink:href="#m4cef5094e8" x="240.104225" y="360.052874" style="stroke: #000000; stroke-linejoin: bevel"/>
     <use xlink:href="#m4cef5094e8" x="250.266764" y="363.741448" style="stroke: #000000; stroke-linejoin: bevel"/>
     <use xlink:href="#m4cef5094e8" x="261.23753" y="359.645852" style="stroke: #000000; stroke-linejoin: bevel"/>
     <use xlink:href="#m4cef5094e8" x="255.976376" y="359.563858" style="stroke: #000000; stroke-linejoin: bevel"/>
     <use xlink:href="#m4cef5094e8" x="274.870179" y="364.388514" style="stroke: #000000; stroke-linejoin: bevel"/>
     <use xlink:href="#m4cef5094e8" x="278.117673" y="356.677007" style="stroke: #000000; stroke-linejoin: bevel"/>
     <use xlink:href="#m4cef5094e8" x="283.220042" y="357.891222" style="stroke: #000000; stroke-linejoin: bevel"/>
     <use xlink:href="#m4cef5094e8" x="275.228113" y="353.075857" style="stroke: #000000; stroke-linejoin: bevel"/>
     <use xlink:href="#m4cef5094e8" x="279.602017" y="349.906252" style="stroke: #000000; stroke-linejoin: bevel"/>
     <use xlink:href="#m4cef5094e8" x="285.575091" y="347.157152" style="stroke: #000000; stroke-linejoin: bevel"/>
     <use xlink:href="#m4cef5094e8" x="270.426327" y="343.464856" style="stroke: #000000; stroke-linejoin: bevel"/>
     <use xlink:href="#m4cef5094e8" x="274.879101" y="345.064602" style="stroke: #000000; stroke-linejoin: bevel"/>
     <use xlink:href="#m4cef5094e8" x="282.117045" y="342.180379" style="stroke: #000000; stroke-linejoin: bevel"/>
     <use xlink:href="#m4cef5094e8" x="285.621173" y="337.612865" style="stroke: #000000; stroke-linejoin: bevel"/>
     <use xlink:href="#m4cef5094e8" x="278.354091" y="325.056913" style="stroke: #000000; stroke-linejoin: bevel"/>
     <use xlink:href="#m4cef5094e8" x="281.525658" y="330.085709" style="stroke: #000000; stroke-linejoin: bevel"/>
     <use xlink:href="#m4cef5094e8" x="278.431931" y="329.915447" style="stroke: #000000; stroke-linejoin: bevel"/>
     <use xlink:href="#m4cef5094e8" x="272.393154" y="325.806638" style="stroke: #000000; stroke-linejoin: bevel"/>
     <use xlink:href="#m4cef5094e8" x="278.005638" y="324.559499" style="stroke: #000000; stroke-linejoin: bevel"/>
     <use xlink:href="#m4cef5094e8" x="290.890438" y="319.488583" style="stroke: #000000; stroke-linejoin: bevel"/>
     <use xlink:href="#m4cef5094e8" x="283.788573" y="323.769068" style="stroke: #000000; stroke-linejoin: bevel"/>
     <use xlink:href="#m4cef5094e8" x="280.610295" y="319.132182" style="stroke: #000000; stroke-linejoin: bevel"/>
     <use xlink:href="#m4cef5094e8" x="280.836937" y="311.381783" style="stroke: #000000; stroke-linejoin: bevel"/>
     <use xlink:href="#m4cef5094e8" x="291.743088" y="304.761355" style="stroke: #000000; stroke-linejoin: bevel"/>
     <use xlink:href="#m4cef5094e8" x="274.318112" y="305.279148" style="stroke: #000000; stroke-linejoin: bevel"/>
     <use xlink:href="#m4cef5094e8" x="284.75621" y="306.594597" style="stroke: #000000; stroke-linejoin: bevel"/>
     <use xlink:href="#m4cef5094e8" x="290.310848" y="297.329051" style="stroke: #000000; stroke-linejoin: bevel"/>
     <use xlink:href="#m4cef5094e8" x="275.404983" y="294.609815" style="stroke: #000000; stroke-linejoin: bevel"/>
     <use xlink:href="#m4cef5094e8" x="289.874505" y="286.046664" style="stroke: #000000; stroke-linejoin: bevel"/>
     <use xlink:href="#m4cef5094e8" x="274.357935" y="286.751689" style="stroke: #000000; stroke-linejoin: bevel"/>
     <use xlink:href="#m4cef5094e8" x="294.435772" y="295.257057" style="stroke: #000000; stroke-linejoin: bevel"/>
     <use xlink:href="#m4cef5094e8" x="275.593418" y="285.774125" style="stroke: #000000; stroke-linejoin: bevel"/>
     <use xlink:href="#m4cef5094e8" x="288.390056" y="284.505859" style="stroke: #000000; stroke-linejoin: bevel"/>
     <use xlink:href="#m4cef5094e8" x="287.570579" y="276.348159" style="stroke: #000000; stroke-linejoin: bevel"/>
     <use xlink:href="#m4cef5094e8" x="278.437668" y="273.759794" style="stroke: #000000; stroke-linejoin: bevel"/>
     <use xlink:href="#m4cef5094e8" x="277.831799" y="277.725518" style="stroke: #000000; stroke-linejoin: bevel"/>
     <use xlink:href="#m4cef5094e8" x="285.638449" y="271.852324" style="stroke: #000000; stroke-linejoin: bevel"/>
     <use xlink:href="#m4cef5094e8" x="293.709737" y="267.529446" style="stroke: #000000; stroke-linejoin: bevel"/>
     <use xlink:href="#m4cef5094e8" x="291.526926" y="272.618507" style="stroke: #000000; stroke-linejoin: bevel"/>
     <use xlink:href="#m4cef5094e8" x="281.660335" y="265.241674" style="stroke: #000000; stroke-linejoin: bevel"/>
     <use xlink:href="#m4cef5094e8" x="281.352207" y="264.790928" style="stroke: #000000; stroke-linejoin: bevel"/>
     <use xlink:href="#m4cef5094e8" x="277.320133" y="256.725046" style="stroke: #000000; stroke-linejoin: bevel"/>
     <use xlink:href="#m4cef5094e8" x="283.862763" y="252.892218" style="stroke: #000000; stroke-linejoin: bevel"/>
     <use xlink:href="#m4cef5094e8" x="270.458586" y="247.64059" style="stroke: #000000; stroke-linejoin: bevel"/>
     <use xlink:href="#m4cef5094e8" x="274.80359" y="244.575862" style="stroke: #000000; stroke-linejoin: bevel"/>
     <use xlink:href="#m4cef5094e8" x="274.91398" y="247.783861" style="stroke: #000000; stroke-linejoin: bevel"/>
     <use xlink:href="#m4cef5094e8" x="280.90867" y="246.008561" style="stroke: #000000; stroke-linejoin: bevel"/>
     <use xlink:href="#m4cef5094e8" x="276.581712" y="238.234731" style="stroke: #000000; stroke-linejoin: bevel"/>
     <use xlink:href="#m4cef5094e8" x="282.444493" y="239.194462" style="stroke: #000000; stroke-linejoin: bevel"/>
     <use xlink:href="#m4cef5094e8" x="275.144062" y="232.356224" style="stroke: #000000; stroke-linejoin: bevel"/>
     <use xlink:href="#m4cef5094e8" x="290.026894" y="232.826358" style="stroke: #000000; stroke-linejoin: bevel"/>
     <use xlink:href="#m4cef5094e8" x="274.48928" y="227.500561" style="stroke: #000000; stroke-linejoin: bevel"/>
     <use xlink:href="#m4cef5094e8" x="272.892306" y="223.027022" style="stroke: #000000; stroke-linejoin: bevel"/>
     <use xlink:href="#m4cef5094e8" x="284.940407" y="219.796324" style="stroke: #000000; stroke-linejoin: bevel"/>
     <use xlink:href="#m4cef5094e8" x="276.205769" y="212.276329" style="stroke: #000000; stroke-linejoin: bevel"/>
     <use xlink:href="#m4cef5094e8" x="281.746192" y="219.464401" style="stroke: #000000; stroke-linejoin: bevel"/>
     <use xlink:href="#m4cef5094e8" x="281.437146" y="213.395465" style="stroke: #000000; stroke-linejoin: bevel"/>
     <use xlink:href="#m4cef5094e8" x="280.885263" y="217.172331" style="stroke: #000000; stroke-linejoin: bevel"/>
     <use xlink:href="#m4cef5094e8" x="291.02391" y="205.99167" style="stroke: #000000; stroke-linejoin: bevel"/>
     <use xlink:href="#m4cef5094e8" x="288.521116" y="209.843251" style="stroke: #000000; stroke-linejoin: bevel"/>
     <use xlink:href="#m4cef5094e8" x="270.946649" y="207.714252" style="stroke: #000000; stroke-linejoin: bevel"/>
     <use xlink:href="#m4cef5094e8" x="261.616307" y="206.717861" style="stroke: #000000; stroke-linejoin: bevel"/>
     <use xlink:href="#m4cef5094e8" x="266.654367" y="211.631244" style="stroke: #000000; stroke-linejoin: bevel"/>
     <use xlink:href="#m4cef5094e8" x="260.651873" y="205.973861" style="stroke: #000000; stroke-linejoin: bevel"/>
     <use xlink:href="#m4cef5094e8" x="259.215228" y="201.719802" style="stroke: #000000; stroke-linejoin: bevel"/>
     <use xlink:href="#m4cef5094e8" x="241.126678" y="192.820132" style="stroke: #000000; stroke-linejoin: bevel"/>
     <use xlink:href="#m4cef5094e8" x="260.29676" y="204.884103" style="stroke: #000000; stroke-linejoin: bevel"/>
     <use xlink:href="#m4cef5094e8" x="248.079542" y="198.797251" style="stroke: #000000; stroke-linejoin: bevel"/>
     <use xlink:href="#m4cef5094e8" x="237.652626" y="196.634916" style="stroke: #000000; stroke-linejoin: bevel"/>
     <use xlink:href="#m4cef5094e8" x="234.703548" y="195.386167" style="stroke: #000000; stroke-linejoin: bevel"/>
     <use xlink:href="#m4cef5094e8" x="231.719669" y="202.03553" style="stroke: #000000; stroke-linejoin: bevel"/>
     <use xlink:href="#m4cef5094e8" x="225.594986" y="199.87579" style="stroke: #000000; stroke-linejoin: bevel"/>
     <use xlink:href="#m4cef5094e8" x="215.557552" y="201.47076" style="stroke: #000000; stroke-linejoin: bevel"/>
     <use xlink:href="#m4cef5094e8" x="211.50311" y="196.468684" style="stroke: #000000; stroke-linejoin: bevel"/>
     <use xlink:href="#m4cef5094e8" x="216.85137" y="191.045402" style="stroke: #000000; stroke-linejoin: bevel"/>
     <use xlink:href="#m4cef5094e8" x="207.379255" y="191.553126" style="stroke: #000000; stroke-linejoin: bevel"/>
     <use xlink:href="#m4cef5094e8" x="197.107006" y="198.419896" style="stroke: #000000; stroke-linejoin: bevel"/>
     <use xlink:href="#m4cef5094e8" x="205.748455" y="190.027776" style="stroke: #000000; stroke-linejoin: bevel"/>
     <use xlink:href="#m4cef5094e8" x="190.212244" y="191.437788" style="stroke: #000000; stroke-linejoin: bevel"/>
     <use xlink:href="#m4cef5094e8" x="196.730755" y="192.566881" style="stroke: #000000; stroke-linejoin: bevel"/>
     <use xlink:href="#m4cef5094e8" x="204.708319" y="186.202967" style="stroke: #000000; stroke-linejoin: bevel"/>
     <use xlink:href="#m4cef5094e8" x="184.425943" y="191.703618" style="stroke: #000000; stroke-linejoin: bevel"/>
     <use xlink:href="#m4cef5094e8" x="190.098114" y="194.762875" style="stroke: #000000; stroke-linejoin: bevel"/>
     <use xlink:href="#m4cef5094e8" x="178.130756" y="186.984471" style="stroke: #000000; stroke-linejoin: bevel"/>
     <use xlink:href="#m4cef5094e8" x="184.114653" y="194.589221" style="stroke: #000000; stroke-linejoin: bevel"/>
     <use xlink:href="#m4cef5094e8" x="168.248853" y="182.024204" style="stroke: #000000; stroke-linejoin: bevel"/>
     <use xlink:href="#m4cef5094e8" x="166.149668" y="190.964919" style="stroke: #000000; stroke-linejoin: bevel"/>
     <use xlink:href="#m4cef5094e8" x="164.51736" y="185.062057" style="stroke: #000000; stroke-linejoin: bevel"/>
     <use xlink:href="#m4cef5094e8" x="152.355052" y="188.435636" style="stroke: #000000; stroke-linejoin: bevel"/>
     <use xlink:href="#m4cef5094e8" x="167.594955" y="182.484699" style="stroke: #000000; stroke-linejoin: bevel"/>
     <use xlink:href="#m4cef5094e8" x="147.088105" y="177.527281" style="stroke: #000000; stroke-linejoin: bevel"/>
     <use xlink:href="#m4cef5094e8" x="147.27148" y="186.556447" style="stroke: #000000; stroke-linejoin: bevel"/>
     <use xlink:href="#m4cef5094e8" x="134.089121" y="186.327106" style="stroke: #000000; stroke-linejoin: bevel"/>
     <use xlink:href="#m4cef5094e8" x="150.676513" y="182.90576" style="stroke: #000000; stroke-linejoin: bevel"/>
     <use xlink:href="#m4cef5094e8" x="136.768657" y="184.070575" style="stroke: #000000; stroke-linejoin: bevel"/>
     <use xlink:href="#m4cef5094e8" x="135.637723" y="182.305528" style="stroke: #000000; stroke-linejoin: bevel"/>
     <use xlink:href="#m4cef5094e8" x="129.586471" y="176.584399" style="stroke: #000000; stroke-linejoin: bevel"/>
    </g>
   </g>
   <g id="line2d_21">
    <g clip-path="url(#pffa387191e)">
     <use xlink:href="#m4cef5094e8" x="547.779859" y="409.501601" style="stroke: #000000; stroke-linejoin: bevel"/>
     <use xlink:href="#m4cef5094e8" x="544.723998" y="411.00558" style="stroke: #000000; stroke-linejoin: bevel"/>
     <use xlink:href="#m4cef5094e8" x="526.036763" y="414.117597" style="stroke: #000000; stroke-linejoin: bevel"/>
     <use xlink:href="#m4cef5094e8" x="524.111898" y="405.468799" style="stroke: #000000; stroke-linejoin: bevel"/>
     <use xlink:href="#m4cef5094e8" x="529.964492" y="409.723755" style="stroke: #000000; stroke-linejoin: bevel"/>
     <use xlink:href="#m4cef5094e8" x="525.896108" y="406.594936" style="stroke: #000000; stroke-linejoin: bevel"/>
     <use xlink:href="#m4cef5094e8" x="530.518518" y="401.319405" style="stroke: #000000; stroke-linejoin: bevel"/>
     <use xlink:href="#m4cef5094e8" x="510.629515" y="397.266247" style="stroke: #000000; stroke-linejoin: bevel"/>
     <use xlink:href="#m4cef5094e8" x="516.059687" y="401.088156" style="stroke: #000000; stroke-linejoin: bevel"/>
     <use xlink:href="#m4cef5094e8" x="515.881578" y="405.407214" style="stroke: #000000; stroke-linejoin: bevel"/>
     <use xlink:href="#m4cef5094e8" x="503.87694" y="400.971985" style="stroke: #000000; stroke-linejoin: bevel"/>
     <use xlink:href="#m4cef5094e8" x="512.732405" y="398.688736" style="stroke: #000000; stroke-linejoin: bevel"/>
     <use xlink:href="#m4cef5094e8" x="504.332301" y="400.409502" style="stroke: #000000; stroke-linejoin: bevel"/>
     <use xlink:href="#m4cef5094e8" x="500.855917" y="391.60697" style="stroke: #000000; stroke-linejoin: bevel"/>
     <use xlink:href="#m4cef5094e8" x="489.775078" y="398.723727" style="stroke: #000000; stroke-linejoin: bevel"/>
     <use xlink:href="#m4cef5094e8" x="473.55604" y="392.146883" style="stroke: #000000; stroke-linejoin: bevel"/>
     <use xlink:href="#m4cef5094e8" x="485.866862" y="388.892734" style="stroke: #000000; stroke-linejoin: bevel"/>
     <use xlink:href="#m4cef5094e8" x="481.097827" y="392.777499" style="stroke: #000000; stroke-linejoin: bevel"/>
     <use xlink:href="#m4cef5094e8" x="464.499252" y="390.190311" style="stroke: #000000; stroke-linejoin: bevel"/>
     <use xlink:href="#m4cef5094e8" x="474.647595" y="391.568118" style="stroke: #000000; stroke-linejoin: bevel"/>
     <use xlink:href="#m4cef5094e8" x="457.930613" y="395.801875" style="stroke: #000000; stroke-linejoin: bevel"/>
     <use xlink:href="#m4cef5094e8" x="474.017141" y="383.231139" style="stroke: #000000; stroke-linejoin: bevel"/>
     <use xlink:href="#m4cef5094e8" x="451.163377" y="389.848865" style="stroke: #000000; stroke-linejoin: bevel"/>
     <use xlink:href="#m4cef5094e8" x="470.569016" y="381.619114" style="stroke: #000000; stroke-linejoin: bevel"/>
     <use xlink:href="#m4cef5094e8" x="451.080482" y="384.424618" style="stroke: #000000; stroke-linejoin: bevel"/>
     <use xlink:href="#m4cef5094e8" x="451.660801" y="390.301514" style="stroke: #000000; stroke-linejoin: bevel"/>
     <use xlink:href="#m4cef5094e8" x="438.732575" y="387.963712" style="stroke: #000000; stroke-linejoin: bevel"/>
     <use xlink:href="#m4cef5094e8" x="433.907163" y="382.154837" style="stroke: #000000; stroke-linejoin: bevel"/>
     <use xlink:href="#m4cef5094e8" x="416.200389" y="385.352414" style="stroke: #000000; stroke-linejoin: bevel"/>
     <use xlink:href="#m4cef5094e8" x="434.077198" y="383.874859" style="stroke: #000000; stroke-linejoin: bevel"/>
     <use xlink:href="#m4cef5094e8" x="424.449308" y="384.498211" style="stroke: #000000; stroke-linejoin: bevel"/>
     <use xlink:href="#m4cef5094e8" x="427.394159" y="379.084492" style="stroke: #000000; stroke-linejoin: bevel"/>
     <use xlink:href="#m4cef5094e8" x="418.049937" y="372.246798" style="stroke: #000000; stroke-linejoin: bevel"/>
     <use xlink:href="#m4cef5094e8" x="408.469926" y="375.353582" style="stroke: #000000; stroke-linejoin: bevel"/>
     <use xlink:href="#m4cef5094e8" x="397.047965" y="367.544725" style="stroke: #000000; stroke-linejoin: bevel"/>
     <use xlink:href="#m4cef5094e8" x="409.465187" y="370.756587" style="stroke: #000000; stroke-linejoin: bevel"/>
     <use xlink:href="#m4cef5094e8" x="416.344561" y="371.94516" style="stroke: #000000; stroke-linejoin: bevel"/>
     <use xlink:href="#m4cef5094e8" x="407.907235" y="369.842705" style="stroke: #000000; stroke-linejoin: bevel"/>
     <use xlink:href="#m4cef5094e8" x="398.214886" y="367.962564" style="stroke: #000000; stroke-linejoin: bevel"/>
     <use xlink:href="#m4cef5094e8" x="396.845733" y="369.259188" style="stroke: #000000; stroke-linejoin: bevel"/>
     <use xlink:href="#m4cef5094e8" x="383.961901" y="363.760871" style="stroke: #000000; stroke-linejoin: bevel"/>
     <use xlink:href="#m4cef5094e8" x="383.689378" y="369.23533" style="stroke: #000000; stroke-linejoin: bevel"/>
     <use xlink:href="#m4cef5094e8" x="363.252052" y="363.891801" style="stroke: #000000; stroke-linejoin: bevel"/>
     <use xlink:href="#m4cef5094e8" x="377.688929" y="364.702552" style="stroke: #000000; stroke-linejoin: bevel"/>
     <use xlink:href="#m4cef5094e8" x="368.806985" y="361.444197" style="stroke: #000000; stroke-linejoin: bevel"/>
     <use xlink:href="#m4cef5094e8" x="361.453201" y="367.171719" style="stroke: #000000; stroke-linejoin: bevel"/>
     <use xlink:href="#m4cef5094e8" x="372.616593" y="364.297204" style="stroke: #000000; stroke-linejoin: bevel"/>
     <use xlink:href="#m4cef5094e8" x="366.316335" y="361.698046" style="stroke: #000000; stroke-linejoin: bevel"/>
     <use xlink:href="#m4cef5094e8" x="345.76778" y="357.943292" style="stroke: #000000; stroke-linejoin: bevel"/>
     <use xlink:href="#m4cef5094e8" x="362.659746" y="356.086022" style="stroke: #000000; stroke-linejoin: bevel"/>
     <use xlink:href="#m4cef5094e8" x="359.622851" y="356.928966" style="stroke: #000000; stroke-linejoin: bevel"/>
     <use xlink:href="#m4cef5094e8" x="355.66462" y="353.280679" style="stroke: #000000; stroke-linejoin: bevel"/>
     <use xlink:href="#m4cef5094e8" x="349.999719" y="344.21995" style="stroke: #000000; stroke-linejoin: bevel"/>
     <use xlink:href="#m4cef5094e8" x="340.504445" y="340.936824" style="stroke: #000000; stroke-linejoin: bevel"/>
     <use xlink:href="#m4cef5094e8" x="341.180936" y="340.598378" style="stroke: #000000; stroke-linejoin: bevel"/>
     <use xlink:href="#m4cef5094e8" x="350.18165" y="343.268371" style="stroke: #000000; stroke-linejoin: bevel"/>
     <use xlink:href="#m4cef5094e8" x="346.991602" y="340.369053" style="stroke: #000000; stroke-linejoin: bevel"/>
     <use xlink:href="#m4cef5094e8" x="337.315369" y="336.727323" style="stroke: #000000; stroke-linejoin: bevel"/>
     <use xlink:href="#m4cef5094e8" x="332.73532" y="332.567634" style="stroke: #000000; stroke-linejoin: bevel"/>
     <use xlink:href="#m4cef5094e8" x="353.1574" y="333.083341" style="stroke: #000000; stroke-linejoin: bevel"/>
     <use xlink:href="#m4cef5094e8" x="358.199599" y="325.517735" style="stroke: #000000; stroke-linejoin: bevel"/>
     <use xlink:href="#m4cef5094e8" x="350.958962" y="326.097038" style="stroke: #000000; stroke-linejoin: bevel"/>
     <use xlink:href="#m4cef5094e8" x="344.879439" y="316.627754" style="stroke: #000000; stroke-linejoin: bevel"/>
     <use xlink:href="#m4cef5094e8" x="341.455406" y="316.289396" style="stroke: #000000; stroke-linejoin: bevel"/>
     <use xlink:href="#m4cef5094e8" x="346.745437" y="311.718466" style="stroke: #000000; stroke-linejoin: bevel"/>
     <use xlink:href="#m4cef5094e8" x="356.253756" y="310.891068" style="stroke: #000000; stroke-linejoin: bevel"/>
     <use xlink:href="#m4cef5094e8" x="360.367102" y="309.173614" style="stroke: #000000; stroke-linejoin: bevel"/>
     <use xlink:href="#m4cef5094e8" x="332.507173" y="304.294523" style="stroke: #000000; stroke-linejoin: bevel"/>
     <use xlink:href="#m4cef5094e8" x="344.418723" y="301.109277" style="stroke: #000000; stroke-linejoin: bevel"/>
     <use xlink:href="#m4cef5094e8" x="346.454097" y="304.226836" style="stroke: #000000; stroke-linejoin: bevel"/>
     <use xlink:href="#m4cef5094e8" x="351.968835" y="296.612883" style="stroke: #000000; stroke-linejoin: bevel"/>
     <use xlink:href="#m4cef5094e8" x="336.567774" y="296.953045" style="stroke: #000000; stroke-linejoin: bevel"/>
     <use xlink:href="#m4cef5094e8" x="352.773868" y="291.668959" style="stroke: #000000; stroke-linejoin: bevel"/>
     <use xlink:href="#m4cef5094e8" x="343.282466" y="286.426357" style="stroke: #000000; stroke-linejoin: bevel"/>
     <use xlink:href="#m4cef5094e8" x="341.273398" y="287.52758" style="stroke: #000000; stroke-linejoin: bevel"/>
     <use xlink:href="#m4cef5094e8" x="335.368466" y="284.797522" style="stroke: #000000; stroke-linejoin: bevel"/>
     <use xlink:href="#m4cef5094e8" x="352.503771" y="281.385988" style="stroke: #000000; stroke-linejoin: bevel"/>
     <use xlink:href="#m4cef5094e8" x="346.397704" y="278.213646" style="stroke: #000000; stroke-linejoin: bevel"/>
     <use xlink:href="#m4cef5094e8" x="341.235112" y="274.654467" style="stroke: #000000; stroke-linejoin: bevel"/>
     <use xlink:href="#m4cef5094e8" x="342.282006" y="276.037687" style="stroke: #000000; stroke-linejoin: bevel"/>
     <use xlink:href="#m4cef5094e8" x="357.74325" y="270.99839" style="stroke: #000000; stroke-linejoin: bevel"/>
     <use xlink:href="#m4cef5094e8" x="341.529032" y="265.051204" style="stroke: #000000; stroke-linejoin: bevel"/>
     <use xlink:href="#m4cef5094e8" x="346.823143" y="260.319045" style="stroke: #000000; stroke-linejoin: bevel"/>
     <use xlink:href="#m4cef5094e8" x="351.43525" y="256.908034" style="stroke: #000000; stroke-linejoin: bevel"/>
     <use xlink:href="#m4cef5094e8" x="346.320803" y="249.416441" style="stroke: #000000; stroke-linejoin: bevel"/>
     <use xlink:href="#m4cef5094e8" x="341.745343" y="251.968977" style="stroke: #000000; stroke-linejoin: bevel"/>
     <use xlink:href="#m4cef5094e8" x="337.697524" y="248.579683" style="stroke: #000000; stroke-linejoin: bevel"/>
     <use xlink:href="#m4cef5094e8" x="345.926781" y="247.900906" style="stroke: #000000; stroke-linejoin: bevel"/>
     <use xlink:href="#m4cef5094e8" x="356.212018" y="245.1751" style="stroke: #000000; stroke-linejoin: bevel"/>
     <use xlink:href="#m4cef5094e8" x="344.649095" y="241.170026" style="stroke: #000000; stroke-linejoin: bevel"/>
     <use xlink:href="#m4cef5094e8" x="345.457169" y="236.129874" style="stroke: #000000; stroke-linejoin: bevel"/>
     <use xlink:href="#m4cef5094e8" x="344.084654" y="234.792184" style="stroke: #000000; stroke-linejoin: bevel"/>
     <use xlink:href="#m4cef5094e8" x="348.704313" y="234.74737" style="stroke: #000000; stroke-linejoin: bevel"/>
     <use xlink:href="#m4cef5094e8" x="346.953459" y="231.671985" style="stroke: #000000; stroke-linejoin: bevel"/>
     <use xlink:href="#m4cef5094e8" x="356.724498" y="227.162844" style="stroke: #000000; stroke-linejoin: bevel"/>
     <use xlink:href="#m4cef5094e8" x="355.244316" y="231.374819" style="stroke: #000000; stroke-linejoin: bevel"/>
     <use xlink:href="#m4cef5094e8" x="335.224022" y="217.86691" style="stroke: #000000; stroke-linejoin: bevel"/>
     <use xlink:href="#m4cef5094e8" x="333.672001" y="218.506436" style="stroke: #000000; stroke-linejoin: bevel"/>
     <use xlink:href="#m4cef5094e8" x="347.83336" y="212.832592" style="stroke: #000000; stroke-linejoin: bevel"/>
     <use xlink:href="#m4cef5094e8" x="351.657765" y="204.189092" style="stroke: #000000; stroke-linejoin: bevel"/>
     <use xlink:href="#m4cef5094e8" x="346.570262" y="208.351526" style="stroke: #000000; stroke-linejoin: bevel"/>
     <use xlink:href="#m4cef5094e8" x="338.059871" y="204.795689" style="stroke: #000000; stroke-linejoin: bevel"/>
     <use xlink:href="#m4cef5094e8" x="361.415574" y="199.844566" style="stroke: #000000; stroke-linejoin: bevel"/>
     <use xlink:href="#m4cef5094e8" x="362.887442" y="203.533829" style="stroke: #000000; stroke-linejoin: bevel"/>
     <use xlink:href="#m4cef5094e8" x="356.088056" y="201.89037" style="stroke: #000000; stroke-linejoin: bevel"/>
     <use xlink:href="#m4cef5094e8" x="360.407394" y="201.597538" style="stroke: #000000; stroke-linejoin: bevel"/>
     <use xlink:href="#m4cef5094e8" x="371.728498" y="200.077064" style="stroke: #000000; stroke-linejoin: bevel"/>
     <use xlink:href="#m4cef5094e8" x="373.782609" y="202.136945" style="stroke: #000000; stroke-linejoin: bevel"/>
     <use xlink:href="#m4cef5094e8" x="384.097125" y="207.282292" style="stroke: #000000; stroke-linejoin: bevel"/>
     <use xlink:href="#m4cef5094e8" x="380.605083" y="204.024741" style="stroke: #000000; stroke-linejoin: bevel"/>
     <use xlink:href="#m4cef5094e8" x="381.766085" y="199.971464" style="stroke: #000000; stroke-linejoin: bevel"/>
     <use xlink:href="#m4cef5094e8" x="372.767331" y="193.365144" style="stroke: #000000; stroke-linejoin: bevel"/>
     <use xlink:href="#m4cef5094e8" x="390.230885" y="200.921367" style="stroke: #000000; stroke-linejoin: bevel"/>
     <use xlink:href="#m4cef5094e8" x="389.527975" y="195.600568" style="stroke: #000000; stroke-linejoin: bevel"/>
     <use xlink:href="#m4cef5094e8" x="393.505853" y="200.208202" style="stroke: #000000; stroke-linejoin: bevel"/>
     <use xlink:href="#m4cef5094e8" x="407.937742" y="187.07572" style="stroke: #000000; stroke-linejoin: bevel"/>
     <use xlink:href="#m4cef5094e8" x="415.73204" y="196.301429" style="stroke: #000000; stroke-linejoin: bevel"/>
     <use xlink:href="#m4cef5094e8" x="403.844816" y="196.337861" style="stroke: #000000; stroke-linejoin: bevel"/>
     <use xlink:href="#m4cef5094e8" x="399.930912" y="194.808255" style="stroke: #000000; stroke-linejoin: bevel"/>
     <use xlink:href="#m4cef5094e8" x="418.326718" y="194.872719" style="stroke: #000000; stroke-linejoin: bevel"/>
     <use xlink:href="#m4cef5094e8" x="427.45668" y="186.967941" style="stroke: #000000; stroke-linejoin: bevel"/>
     <use xlink:href="#m4cef5094e8" x="424.344119" y="190.751544" style="stroke: #000000; stroke-linejoin: bevel"/>
     <use xlink:href="#m4cef5094e8" x="437.884627" y="190.542141" style="stroke: #000000; stroke-linejoin: bevel"/>
     <use xlink:href="#m4cef5094e8" x="443.99828" y="192.635863" style="stroke: #000000; stroke-linejoin: bevel"/>
     <use xlink:href="#m4cef5094e8" x="435.723822" y="188.141709" style="stroke: #000000; stroke-linejoin: bevel"/>
     <use xlink:href="#m4cef5094e8" x="440.367521" y="189.50462" style="stroke: #000000; stroke-linejoin: bevel"/>
     <use xlink:href="#m4cef5094e8" x="451.532592" y="189.944498" style="stroke: #000000; stroke-linejoin: bevel"/>
     <use xlink:href="#m4cef5094e8" x="450.46643" y="185.934989" style="stroke: #000000; stroke-linejoin: bevel"/>
     <use xlink:href="#m4cef5094e8" x="444.052149" y="188.829729" style="stroke: #000000; stroke-linejoin: bevel"/>
     <use xlink:href="#m4cef5094e8" x="470.4597" y="187.267365" style="stroke: #000000; stroke-linejoin: bevel"/>
     <use xlink:href="#m4cef5094e8" x="463.421104" y="182.330353" style="stroke: #000000; stroke-linejoin: bevel"/>
     <use xlink:href="#m4cef5094e8" x="459.021506" y="186.486742" style="stroke: #000000; stroke-linejoin: bevel"/>
     <use xlink:href="#m4cef5094e8" x="472.529644" y="175.517609" style="stroke: #000000; stroke-linejoin: bevel"/>
     <use xlink:href="#m4cef5094e8" x="475.555535" y="179.701795" style="stroke: #000000; stroke-linejoin: bevel"/>
     <use xlink:href="#m4cef5094e8" x="479.927821" y="180.052756" style="stroke: #000000; stroke-linejoin: bevel"/>
     <use xlink:href="#m4cef5094e8" x="471.2068" y="175.861536" style="stroke: #000000; stroke-linejoin: bevel"/>
     <use xlink:href="#m4cef5094e8" x="494.24105" y="181.186892" style="stroke: #000000; stroke-linejoin: bevel"/>
     <use xlink:href="#m4cef5094e8" x="489.809988" y="179.186512" style="stroke: #000000; stroke-linejoin: bevel"/>
     <use xlink:href="#m4cef5094e8" x="486.923935" y="175.810756" style="stroke: #000000; stroke-linejoin: bevel"/>
     <use xlink:href="#m4cef5094e8" x="508.618243" y="175.836693" style="stroke: #000000; stroke-linejoin: bevel"/>
    </g>
   </g>
   <g id="line2d_22">
    <path d="M 88.302877 407.717162 
L 87.875411 406.415111 
L 87.352909 407.524437 
L 86.223237 408.891759 
L 90.730265 410.499558 
L 94.443953 406.98033 
L 99.155578 408.289351 
L 111.903657 407.155884 
L 106.420127 404.38339 
L 114.653584 404.429917 
L 117.08011 402.195833 
L 124.196027 400.898593 
L 135.278139 398.452095 
L 139.893338 396.213704 
L 145.144944 396.012064 
L 144.247223 394.697946 
L 146.910867 392.188961 
L 147.898587 392.100977 
L 148.491543 390.947483 
L 153.690336 391.801884 
L 156.184453 388.671965 
L 165.82609 386.236787 
L 176.481745 385.191834 
L 180.654094 383.460717 
L 178.981536 383.162984 
L 180.917244 384.607465 
L 184.374917 384.338412 
L 193.038717 380.52123 
L 192.517698 379.918407 
L 199.438152 378.63684 
L 197.942089 378.417952 
L 198.698258 377.147228 
L 206.979292 377.271054 
L 209.735297 375.220904 
L 213.77164 373.970796 
L 223.543042 371.844475 
L 226.975057 369.043241 
L 230.441055 369.188612 
L 227.813972 367.711569 
L 235.162805 367.009309 
L 237.512554 363.881841 
L 244.408536 364.139195 
L 244.008111 361.702573 
L 248.873809 361.680662 
L 257.819177 360.193578 
L 258.937094 359.181551 
L 268.18383 359.848404 
L 276.285372 358.119219 
L 283.021076 357.426078 
L 283.278103 352.768445 
L 287.383327 349.597791 
L 278.002162 346.023128 
L 276.253663 344.27762 
L 281.330867 341.81786 
L 284.437344 338.821493 
L 285.527994 335.837697 
L 284.717552 332.203389 
L 280.762945 329.711605 
L 275.123212 327.473659 
L 276.958605 324.948188 
L 283.998267 321.235038 
L 284.571673 320.337046 
L 282.995637 318.43857 
L 282.1706 314.367441 
L 286.4513 309.510745 
L 279.126451 306.100294 
L 281.018384 304.096522 
L 285.912451 299.771437 
L 280.96015 295.938572 
L 285.296499 290.420553 
L 279.614052 286.871302 
L 270.67493 285.100144 
L 272.840801 283.422858 
L 281.385929 282.216895 
L 287.039728 281.574934 
L 282.850716 276.325928 
L 280.60737 275.439221 
L 283.059406 272.397247 
L 289.201411 268.73365 
L 291.162098 268.434516 
L 287.02095 265.732442 
L 283.931166 263.858197 
L 279.900892 259.677848 
L 280.949238 255.55739 
L 275.603979 250.963099 
L 274.053062 246.456329 
L 273.723404 244.927979 
L 276.393512 243.335883 
L 276.233514 239.626668 
L 279.260563 237.57267 
L 277.310492 233.808434 
L 283.37543 231.539357 
L 279.282933 228.157235 
L 275.256035 224.282402 
L 281.213248 220.661413 
L 279.31684 215.800525 
L 280.740524 214.624579 
L 281.58239 211.808941 
L 286.353134 207.983358 
L 288.175752 207.36871 
L 286.174183 205.183962 
L 270.374359 205.081405 
L 265.78972 205.791794 
L 261.141294 205.062615 
L 262.753215 203.37342 
L 247.266685 197.889804 
L 251.884206 199.390247 
L 250.146724 197.822577 
L 240.709892 196.207168 
L 235.333532 194.945033 
L 225.882723 196.804236 
L 217.324628 199.016487 
L 209.00582 198.596584 
L 209.584562 195.640367 
L 206.808205 193.42309 
L 199.223151 192.537409 
L 200.760292 190.546423 
L 194.739853 191.727665 
L 197.801234 189.515853 
L 189.72274 189.916834 
L 188.103858 191.035863 
L 181.768645 189.329314 
L 181.074305 190.773168 
L 173.365499 187.470133 
L 167.742463 188.896889 
L 163.719409 186.998974 
L 155.344381 188.295908 
L 159.59926 185.081408 
L 152.782988 181.965028 
L 148.125882 183.117371 
L 138.570297 184.132074 
L 142.744051 183.155567 
L 138.027915 183.171478 
L 135.258496 182.532691 
L 135.258496 182.532691 
" clip-path="url(#pffa387191e)" style="fill: none; stroke-dasharray: 5.55,2.4; stroke-dashoffset: 0; stroke: #1f77b4; stroke-opacity: 0.7; stroke-width: 1.5"/>
   </g>
   <g id="line2d_23">
    <path d="M 559.220862 412.875791 
L 550.915719 411.565286 
L 535.406307 412.738859 
L 526.700617 409.003952 
L 525.874594 408.798938 
L 524.520856 405.161015 
L 525.403501 402.221637 
L 520.591727 400.758715 
L 516.720201 400.25957 
L 511.231714 402.425238 
L 505.04801 401.299332 
L 506.69912 399.558184 
L 503.960583 399.343223 
L 501.030029 396.29614 
L 500.383447 394.989119 
L 485.664026 393.974439 
L 483.839399 391.108808 
L 480.026109 390.816393 
L 469.541634 389.844088 
L 470.599491 389.744557 
L 462.511997 390.879563 
L 465.462733 387.618496 
L 455.738722 388.194205 
L 460.632908 385.034148 
L 453.468491 384.341976 
L 450.409749 386.157257 
L 437.598486 384.18305 
L 424.071352 384.158772 
L 425.92578 383.447919 
L 423.172073 383.385632 
L 423.276754 381.637987 
L 420.985834 377.56433 
L 412.96763 375.891488 
L 406.087717 374.577918 
L 402.999948 370.008019 
L 407.616641 370.409949 
L 407.13469 369.40542 
L 401.370877 367.785171 
L 397.674923 367.52964 
L 388.957496 365.269283 
L 384.044179 365.661813 
L 371.308781 364.263553 
L 371.575842 363.68268 
L 371.783002 361.694258 
L 359.772968 360.715188 
L 363.813116 361.799988 
L 361.051225 362.680553 
L 351.677518 360.635117 
L 357.168055 356.94282 
L 355.638982 354.798585 
L 347.57073 351.06446 
L 342.025216 345.997754 
L 339.516798 342.359431 
L 335.050626 339.891104 
L 338.944647 338.822629 
L 332.915984 333.635022 
L 340.611844 332.068724 
L 350.134058 328.645807 
L 351.586152 326.126097 
L 348.981121 321.242202 
L 342.090552 318.203276 
L 344.254738 313.846403 
L 347.462464 312.067244 
L 356.117881 308.700651 
L 347.703651 305.639879 
L 345.716224 302.097953 
L 352.058936 299.01026 
L 352.269986 296.256283 
L 342.737899 295.15897 
L 347.928526 291.870373 
L 344.670241 287.865327 
L 342.402672 285.823817 
L 337.975628 283.639578 
L 342.78083 281.019093 
L 345.165792 278.277244 
L 343.207379 275.23534 
L 342.721348 273.63894 
L 349.848709 271.059538 
L 345.842419 267.278917 
L 346.408238 263.04985 
L 349.173782 258.910629 
L 348.385419 253.522223 
L 345.113964 250.680001 
L 340.575077 247.756709 
L 342.303857 245.533473 
L 348.873137 243.35679 
L 346.963035 240.590914 
L 346.355491 237.09888 
L 345.235085 234.300808 
L 346.884796 232.43563 
L 347.109753 230.409931 
L 352.156605 227.570082 
L 354.529385 226.810971 
L 348.091543 222.557088 
L 339.005292 218.96512 
L 343.281615 214.992104 
L 346.435911 209.695456 
L 346.47104 207.317998 
L 341.997862 204.422683 
L 350.026459 200.710796 
L 351.463499 199.452296 
L 355.345582 198.567578 
L 364.199291 198.89204 
L 370.394228 198.083162 
L 374.391493 198.303203 
L 381.57242 200.89751 
L 382.886324 202.252468 
L 384.047945 201.100154 
L 381.159977 198.453716 
L 386.61478 199.018836 
L 389.048285 197.033206 
L 392.643646 197.697324 
L 399.758543 194.510474 
L 409.714441 194.397545 
L 407.798332 194.981172 
L 405.29386 194.606944 
L 414.112816 194.271778 
L 422.604022 191.63304 
L 422.212216 189.840747 
L 438.948182 190.204169 
L 444.920558 190.631072 
L 442.307965 189.126524 
L 442.735366 188.722452 
L 449.300444 188.748819 
L 451.734883 187.328766 
L 448.865324 187.431741 
L 459.307169 186.93046 
L 463.580119 185.089821 
L 457.9803 185.038866 
L 476.197183 183.183617 
L 476.966956 180.902762 
L 480.544521 179.867289 
L 477.611346 177.626996 
L 488.083122 178.202311 
L 491.209751 177.890413 
L 490.933669 177.817022 
" clip-path="url(#pffa387191e)" style="fill: none; stroke-dasharray: 5.55,2.4; stroke-dashoffset: 0; stroke: #1f77b4; stroke-opacity: 0.7; stroke-width: 1.5"/>
   </g>
   <g id="line2d_24">
    <defs>
     <path id="mc0a0288126" d="M 0 5 
C 1.326016 5 2.597899 4.473168 3.535534 3.535534 
C 4.473168 2.597899 5 1.326016 5 0 
C 5 -1.326016 4.473168 -2.597899 3.535534 -3.535534 
C 2.597899 -4.473168 1.326016 -5 0 -5 
C -1.326016 -5 -2.597899 -4.473168 -3.535534 -3.535534 
C -4.473168 -2.597899 -5 -1.326016 -5 0 
C -5 1.326016 -4.473168 2.597899 -3.535534 3.535534 
C -2.597899 4.473168 -1.326016 5 0 5 
z
" style="stroke: #1f77b4; stroke-opacity: 0.8"/>
    </defs>
    <g clip-path="url(#pffa387191e)">
     <use xlink:href="#mc0a0288126" x="132.068441" y="182.023311" style="fill: #1f77b4; fill-opacity: 0.8; stroke: #1f77b4; stroke-opacity: 0.8"/>
     <use xlink:href="#mc0a0288126" x="493.750089" y="177.11574" style="fill: #1f77b4; fill-opacity: 0.8; stroke: #1f77b4; stroke-opacity: 0.8"/>
    </g>
   </g>
   <g id="line2d_25">
    <path d="M 88.302877 407.717162 
L 87.875411 406.415111 
L 87.352909 407.524437 
L 86.223237 408.891759 
L 90.730265 410.499558 
L 94.443953 406.98033 
L 99.155578 408.289351 
L 111.903657 407.155884 
L 106.420127 404.38339 
L 114.653584 404.429917 
L 117.08011 402.195833 
L 124.196027 400.898593 
L 135.278139 398.452095 
L 139.893338 396.213704 
L 145.144944 396.012064 
L 144.247223 394.697946 
L 146.910867 392.188961 
L 147.898587 392.100977 
L 148.491543 390.947483 
L 153.690336 391.801884 
L 156.184453 388.671965 
L 165.82609 386.236787 
L 176.481745 385.191834 
L 180.654094 383.460717 
L 178.981536 383.162984 
L 180.917244 384.607465 
L 184.374917 384.338412 
L 193.038717 380.52123 
L 192.517698 379.918407 
L 199.438152 378.63684 
L 197.942089 378.417952 
L 198.698258 377.147228 
L 206.979292 377.271054 
L 209.735297 375.220904 
L 213.77164 373.970796 
L 223.543042 371.844475 
L 226.975057 369.043241 
L 230.441055 369.188612 
L 227.813972 367.711569 
L 235.162805 367.009309 
L 237.512554 363.881841 
L 244.408536 364.139195 
L 244.008111 361.702573 
L 248.873809 361.680662 
L 257.819177 360.193578 
L 258.937094 359.181551 
L 268.18383 359.848404 
L 276.285372 358.119219 
L 283.021076 357.426078 
L 283.278103 352.768445 
L 287.383327 349.597791 
L 278.002162 346.023128 
L 276.253663 344.27762 
L 281.330867 341.81786 
L 284.437344 338.821493 
L 285.589864 335.908914 
L 284.044172 332.048542 
L 280.458207 329.625771 
L 275.301014 327.329767 
L 276.909542 324.863005 
L 283.906208 321.209918 
L 284.533475 320.295536 
L 282.989112 318.410242 
L 282.17757 314.361783 
L 286.454158 309.519172 
L 279.122195 306.107659 
L 281.019431 304.105975 
L 285.901234 299.785124 
L 280.974155 295.953238 
L 285.304929 290.434702 
L 279.623942 286.882245 
L 270.682038 285.11035 
L 272.455852 283.399126 
L 280.796263 282.186967 
L 286.814012 281.553258 
L 282.757223 276.30144 
L 280.588903 275.42526 
L 283.045997 272.388745 
L 289.190339 268.729039 
L 291.16827 268.427088 
L 287.041803 265.728831 
L 283.950815 263.855848 
L 279.917445 259.677486 
L 280.962937 255.557071 
L 275.614994 250.962992 
L 274.058976 246.456311 
L 273.727316 244.928274 
L 276.395675 243.336303 
L 276.234217 239.627056 
L 279.260377 237.57297 
L 277.31013 233.808773 
L 283.374714 231.539598 
L 279.282243 228.157468 
L 275.255739 224.282615 
L 281.213125 220.661556 
L 279.316766 215.800641 
L 280.74049 214.624717 
L 281.582378 211.808978 
L 286.353117 207.983386 
L 288.175747 207.368706 
L 286.174226 205.183947 
L 270.374415 205.081381 
L 265.789748 205.791765 
L 261.141303 205.062595 
L 262.753217 203.373402 
L 247.266637 197.889773 
L 251.884158 199.390214 
L 250.146714 197.822561 
L 240.709895 196.207159 
L 235.333534 194.945028 
L 225.882723 196.804235 
L 217.324629 199.016486 
L 209.005819 198.596585 
L 209.584564 195.640366 
L 206.808206 193.42309 
L 199.223151 192.53741 
L 200.760291 190.546423 
L 194.739852 191.727666 
L 197.801233 189.515853 
L 189.722739 189.916835 
L 188.103858 191.035864 
L 181.768645 189.329314 
L 181.074306 190.773169 
L 173.3655 187.470134 
L 167.742463 188.89689 
L 163.719409 186.998974 
L 155.344381 188.295909 
L 159.59926 185.081408 
L 152.782988 181.965028 
L 148.125882 183.117371 
L 138.570297 184.132074 
L 142.744051 183.155567 
L 138.027915 183.171478 
L 135.258496 182.532691 
L 135.258496 182.532691 
" clip-path="url(#pffa387191e)" style="fill: none; stroke-dasharray: 5.55,2.4; stroke-dashoffset: 0; stroke: #ff7f0e; stroke-opacity: 0.7; stroke-width: 1.5"/>
   </g>
   <g id="line2d_26">
    <path d="M 559.220862 412.875791 
L 550.915719 411.565286 
L 535.406307 412.738859 
L 526.700617 409.003952 
L 525.874594 408.798938 
L 524.520856 405.161015 
L 525.403501 402.221637 
L 520.591727 400.758715 
L 516.720201 400.25957 
L 511.231714 402.425238 
L 505.04801 401.299332 
L 506.69912 399.558184 
L 503.960583 399.343223 
L 501.030029 396.29614 
L 500.383447 394.989119 
L 485.664026 393.974439 
L 483.839399 391.108808 
L 480.026109 390.816393 
L 469.541634 389.844088 
L 470.599491 389.744557 
L 462.511997 390.879563 
L 465.462733 387.618496 
L 455.738722 388.194205 
L 460.632908 385.034148 
L 453.468491 384.341976 
L 450.409749 386.157257 
L 437.598486 384.18305 
L 424.071352 384.158772 
L 425.92578 383.447919 
L 423.172073 383.385632 
L 423.276754 381.637987 
L 420.985834 377.56433 
L 412.96763 375.891488 
L 406.087717 374.577918 
L 402.999948 370.008019 
L 407.616641 370.409949 
L 407.13469 369.40542 
L 401.370877 367.785171 
L 397.674923 367.52964 
L 388.957496 365.269283 
L 384.044179 365.661813 
L 371.308781 364.263553 
L 371.575842 363.68268 
L 371.783002 361.694258 
L 359.772968 360.715188 
L 363.813116 361.799988 
L 361.051225 362.680553 
L 351.677518 360.635117 
L 357.168055 356.94282 
L 355.638982 354.798585 
L 347.57073 351.06446 
L 342.025216 345.997754 
L 339.516798 342.359431 
L 335.050626 339.891104 
L 339.692099 338.861867 
L 336.817845 336.559884 
L 333.301528 333.596256 
L 340.405447 331.946645 
L 349.76957 328.579885 
L 351.568716 326.091906 
L 349.193647 321.286129 
L 342.279382 318.222847 
L 344.397797 313.872348 
L 347.581342 312.078266 
L 356.168199 308.709949 
L 347.803876 305.647144 
L 345.807112 302.101454 
L 352.10609 299.020242 
L 352.288114 296.263576 
L 342.776555 295.164476 
L 347.930312 291.872559 
L 344.671956 287.867405 
L 342.397609 285.823442 
L 337.971997 283.637501 
L 342.74523 281.016306 
L 345.140722 278.274955 
L 343.196759 275.233735 
L 342.717682 273.63606 
L 349.850519 271.057122 
L 345.840749 267.2759 
L 346.408471 263.046691 
L 349.175444 258.908105 
L 348.386585 253.52031 
L 345.116043 250.678517 
L 340.575746 247.755956 
L 342.30408 245.532999 
L 348.872911 243.356573 
L 346.963018 240.590975 
L 346.355444 237.09913 
L 345.235041 234.301159 
L 346.884823 232.436076 
L 347.109755 230.410358 
L 352.156525 227.570481 
L 354.529315 226.811384 
L 348.091637 222.557548 
L 339.005266 218.965424 
L 343.281404 214.992357 
L 346.435728 209.695665 
L 346.470988 207.318125 
L 341.99783 204.422767 
L 350.026472 200.710848 
L 351.463558 199.452336 
L 355.34561 198.5676 
L 364.199267 198.892039 
L 370.394219 198.083149 
L 374.391492 198.303179 
L 381.572409 200.89747 
L 382.88632 202.252452 
L 384.047946 201.100138 
L 381.159976 198.453697 
L 386.61478 199.018819 
L 389.048288 197.033194 
L 392.643648 197.697314 
L 399.758546 194.510463 
L 409.714441 194.397538 
L 407.798333 194.981167 
L 405.29386 194.606941 
L 414.112816 194.271776 
L 422.604022 191.633039 
L 422.212216 189.840746 
L 438.948182 190.204169 
L 444.920557 190.631073 
L 442.307965 189.126525 
L 442.735366 188.722452 
L 449.300444 188.748819 
L 451.734883 187.328767 
L 448.865324 187.431742 
L 459.307168 186.930461 
L 463.580118 185.089822 
L 457.9803 185.038867 
L 476.197183 183.183618 
L 476.966956 180.902762 
L 480.544521 179.867289 
L 477.611346 177.626996 
L 488.083122 178.202311 
L 491.209751 177.890413 
L 490.933669 177.817022 
" clip-path="url(#pffa387191e)" style="fill: none; stroke-dasharray: 5.55,2.4; stroke-dashoffset: 0; stroke: #ff7f0e; stroke-opacity: 0.7; stroke-width: 1.5"/>
   </g>
   <g id="line2d_27">
    <defs>
     <path id="m0f2fd31604" d="M 0 -5 
L -1.12257 -1.545085 
L -4.755283 -1.545085 
L -1.816356 0.59017 
L -2.938926 4.045085 
L -0 1.90983 
L 2.938926 4.045085 
L 1.816356 0.59017 
L 4.755283 -1.545085 
L 1.12257 -1.545085 
z
" style="stroke: #ff7f0e; stroke-opacity: 0.8; stroke-linejoin: bevel"/>
    </defs>
    <g clip-path="url(#pffa387191e)">
     <use xlink:href="#m0f2fd31604" x="132.068441" y="182.023311" style="fill: #ff7f0e; fill-opacity: 0.8; stroke: #ff7f0e; stroke-opacity: 0.8; stroke-linejoin: bevel"/>
     <use xlink:href="#m0f2fd31604" x="493.750089" y="177.11574" style="fill: #ff7f0e; fill-opacity: 0.8; stroke: #ff7f0e; stroke-opacity: 0.8; stroke-linejoin: bevel"/>
    </g>
   </g>
   <g id="line2d_28">
    <path d="M 88.302877 407.717162 
L 87.875411 406.415111 
L 87.352909 407.524437 
L 86.223237 408.891759 
L 90.730265 410.499558 
L 94.443953 406.98033 
L 99.155578 408.289351 
L 111.903657 407.155884 
L 106.420127 404.38339 
L 114.653584 404.429917 
L 117.08011 402.195833 
L 124.196027 400.898593 
L 135.278139 398.452095 
L 139.893338 396.213704 
L 145.144944 396.012064 
L 144.247223 394.697946 
L 146.910867 392.188961 
L 147.898587 392.100977 
L 148.491543 390.947483 
L 153.690336 391.801884 
L 156.184453 388.671965 
L 165.82609 386.236787 
L 176.481745 385.191834 
L 180.654094 383.460717 
L 178.981536 383.162984 
L 180.917244 384.607465 
L 184.374917 384.338412 
L 193.038717 380.52123 
L 192.517698 379.918407 
L 199.438152 378.63684 
L 197.942089 378.417952 
L 198.698258 377.147228 
L 206.979292 377.271054 
L 209.735297 375.220904 
L 213.77164 373.970796 
L 223.543042 371.844475 
L 226.975057 369.043241 
L 230.441055 369.188612 
L 227.813972 367.711569 
L 235.162805 367.009309 
L 237.512554 363.881841 
L 244.408536 364.139195 
L 244.008111 361.702573 
L 248.873809 361.680662 
L 257.819177 360.193578 
L 258.937094 359.181551 
L 268.18383 359.848404 
L 276.285372 358.119219 
L 283.021076 357.426078 
L 283.278103 352.768445 
L 285.615754 349.50992 
L 279.293911 346.083961 
L 276.930021 344.313135 
L 279.850765 342.300614 
L 283.032606 339.399127 
L 282.383911 334.449896 
L 282.2256 330.954571 
L 280.037921 329.011906 
L 275.369582 326.85225 
L 276.985053 324.580901 
L 284.063104 321.029218 
L 284.721533 320.155429 
L 283.136701 318.337482 
L 282.275849 314.331134 
L 286.535146 309.515786 
L 279.188917 306.120151 
L 281.069533 304.136302 
L 286.180704 299.748585 
L 281.319678 295.953278 
L 285.443922 290.478344 
L 279.710161 286.912841 
L 270.715581 285.134363 
L 272.449171 283.420179 
L 280.776136 282.207377 
L 286.112718 280.343818 
L 282.359785 275.678815 
L 280.38002 274.931881 
L 283.003697 272.110106 
L 289.220366 268.586961 
L 291.202641 268.265533 
L 287.063215 265.640393 
L 283.963932 263.814922 
L 279.92966 259.67173 
L 280.972039 255.572246 
L 275.628356 250.993449 
L 274.062795 246.488407 
L 273.733307 244.969885 
L 276.403978 243.376532 
L 276.237196 239.663542 
L 279.262693 237.603092 
L 277.313681 233.835559 
L 283.379531 231.561423 
L 279.286907 228.175828 
L 275.258098 224.295736 
L 281.21489 220.670117 
L 279.318492 215.806702 
L 280.742379 214.630526 
L 281.582306 211.81024 
L 286.352631 207.983665 
L 288.175327 207.367994 
L 286.174939 205.182748 
L 270.375177 205.079899 
L 265.789875 205.789825 
L 261.14117 205.061132 
L 262.753749 203.372279 
L 247.265238 197.888044 
L 251.882537 199.388386 
L 250.146626 197.821547 
L 240.710023 196.206542 
L 235.333605 194.944602 
L 225.882676 196.804024 
L 217.324559 199.016489 
L 209.005699 198.59662 
L 209.584488 195.640374 
L 206.808173 193.423094 
L 199.223124 192.53743 
L 200.760289 190.546434 
L 194.739849 191.727686 
L 197.801219 189.515879 
L 189.72272 189.916863 
L 188.103852 191.035892 
L 181.768647 189.329341 
L 181.074314 190.773195 
L 173.365514 187.470163 
L 167.742465 188.896908 
L 163.719409 186.998987 
L 155.344381 188.295917 
L 159.599258 185.081413 
L 152.782989 181.965031 
L 148.125882 183.117374 
L 138.570297 184.132076 
L 142.744051 183.155567 
L 138.027916 183.171477 
L 135.258496 182.53269 
L 135.258496 182.53269 
" clip-path="url(#pffa387191e)" style="fill: none; stroke-dasharray: 5.55,2.4; stroke-dashoffset: 0; stroke: #2ca02c; stroke-opacity: 0.7; stroke-width: 1.5"/>
   </g>
   <g id="line2d_29">
    <path d="M 559.220862 412.875791 
L 550.915719 411.565286 
L 535.406307 412.738859 
L 526.700617 409.003952 
L 525.874594 408.798938 
L 524.520856 405.161015 
L 525.403501 402.221637 
L 520.591727 400.758715 
L 516.720201 400.25957 
L 511.231714 402.425238 
L 505.04801 401.299332 
L 506.69912 399.558184 
L 503.960583 399.343223 
L 501.030029 396.29614 
L 500.383447 394.989119 
L 485.664026 393.974439 
L 483.839399 391.108808 
L 480.026109 390.816393 
L 469.541634 389.844088 
L 470.599491 389.744557 
L 462.511997 390.879563 
L 465.462733 387.618496 
L 455.738722 388.194205 
L 460.632908 385.034148 
L 453.468491 384.341976 
L 450.409749 386.157257 
L 437.598486 384.18305 
L 424.071352 384.158772 
L 425.92578 383.447919 
L 423.172073 383.385632 
L 423.276754 381.637987 
L 420.985834 377.56433 
L 412.96763 375.891488 
L 406.087717 374.577918 
L 402.999948 370.008019 
L 407.616641 370.409949 
L 407.13469 369.40542 
L 401.370877 367.785171 
L 397.674923 367.52964 
L 388.957496 365.269283 
L 384.044179 365.661813 
L 371.308781 364.263553 
L 371.575842 363.68268 
L 371.783002 361.694258 
L 359.772968 360.715188 
L 363.813116 361.799988 
L 361.051225 362.680553 
L 351.677518 360.635117 
L 357.168055 356.94282 
L 355.638982 354.798585 
L 347.365161 351.172453 
L 341.863655 346.041489 
L 339.389317 342.417181 
L 342.382621 341.202535 
L 344.216109 339.598444 
L 338.838301 337.008362 
L 334.767035 334.024781 
L 340.282079 332.083694 
L 349.419973 328.62846 
L 351.408321 326.11618 
L 349.243122 321.350274 
L 342.247074 318.264239 
L 344.378033 313.880399 
L 347.525589 312.074261 
L 356.100364 308.691656 
L 347.70618 305.620304 
L 345.757704 302.073626 
L 351.129463 299.418815 
L 351.911531 296.476873 
L 342.756237 295.273618 
L 347.860433 291.95864 
L 344.677929 287.919473 
L 342.409838 285.847102 
L 337.984157 283.643887 
L 344.10941 281.030928 
L 345.723929 278.279433 
L 343.542092 275.236556 
L 342.879652 273.611105 
L 349.849854 271.0313 
L 345.747364 267.246446 
L 346.327006 263.027418 
L 349.105736 258.893582 
L 348.334441 253.512713 
L 345.075036 250.673876 
L 340.548969 247.752982 
L 342.284356 245.529498 
L 348.839808 243.350619 
L 346.954021 240.586421 
L 346.352381 237.095498 
L 345.237347 234.298487 
L 346.890295 232.435166 
L 347.114213 230.409675 
L 352.161938 227.570056 
L 354.533427 226.812011 
L 348.096497 222.55879 
L 339.004286 218.965993 
L 343.277463 214.993549 
L 346.432558 209.696991 
L 346.469627 207.318848 
L 341.996576 204.423329 
L 350.026093 200.71126 
L 351.463821 199.452727 
L 355.345831 198.567961 
L 364.19854 198.89229 
L 370.393972 198.083297 
L 374.391375 198.30313 
L 381.571835 200.896639 
L 382.885969 202.252184 
L 384.047858 201.099975 
L 381.160027 198.453589 
L 386.614874 199.018749 
L 389.048361 197.033149 
L 392.643712 197.697294 
L 399.758594 194.510493 
L 409.714479 194.397562 
L 407.798375 194.981183 
L 405.293892 194.60696 
L 414.112821 194.271796 
L 422.604018 191.633067 
L 422.212216 189.840769 
L 438.948175 190.204186 
L 444.92055 190.631088 
L 442.307978 189.12654 
L 442.735377 188.722462 
L 449.300454 188.748827 
L 451.73489 187.328774 
L 448.865316 187.431747 
L 459.307148 186.930465 
L 463.580107 185.089825 
L 457.980294 185.038869 
L 476.197182 183.183618 
L 476.966955 180.902762 
L 480.544522 179.867289 
L 477.611347 177.626996 
L 488.083122 178.20231 
L 491.209752 177.890412 
L 490.93367 177.817021 
" clip-path="url(#pffa387191e)" style="fill: none; stroke-dasharray: 5.55,2.4; stroke-dashoffset: 0; stroke: #2ca02c; stroke-opacity: 0.7; stroke-width: 1.5"/>
   </g>
   <g id="line2d_30">
    <defs>
     <path id="m889e1e25be" d="M -5 5 
L 5 5 
L 5 -5 
L -5 -5 
z
" style="stroke: #2ca02c; stroke-opacity: 0.8; stroke-linejoin: miter"/>
    </defs>
    <g clip-path="url(#pffa387191e)">
     <use xlink:href="#m889e1e25be" x="132.068441" y="182.02331" style="fill: #2ca02c; fill-opacity: 0.8; stroke: #2ca02c; stroke-opacity: 0.8; stroke-linejoin: miter"/>
     <use xlink:href="#m889e1e25be" x="493.750089" y="177.115738" style="fill: #2ca02c; fill-opacity: 0.8; stroke: #2ca02c; stroke-opacity: 0.8; stroke-linejoin: miter"/>
    </g>
   </g>
   <g id="patch_3">
    <path d="M 35.304688 561.6 
L 35.304688 7.2 
" style="fill: none; stroke: #000000; stroke-width: 0.8; stroke-linejoin: miter; stroke-linecap: square"/>
   </g>
   <g id="patch_4">
    <path d="M 593.304688 561.6 
L 593.304688 7.2 
" style="fill: none; stroke: #000000; stroke-width: 0.8; stroke-linejoin: miter; stroke-linecap: square"/>
   </g>
   <g id="patch_5">
    <path d="M 35.304688 561.6 
L 593.304688 561.6 
" style="fill: none; stroke: #000000; stroke-width: 0.8; stroke-linejoin: miter; stroke-linecap: square"/>
   </g>
   <g id="patch_6">
    <path d="M 35.304688 7.2 
L 593.304688 7.2 
" style="fill: none; stroke: #000000; stroke-width: 0.8; stroke-linejoin: miter; stroke-linecap: square"/>
   </g>
   <g id="legend_1">
    <g id="patch_7">
     <path d="M 432.9675 141.69625 
L 583.504688 141.69625 
Q 586.304688 141.69625 586.304688 138.89625 
L 586.304688 17 
Q 586.304688 14.2 583.504688 14.2 
L 432.9675 14.2 
Q 430.1675 14.2 430.1675 17 
L 430.1675 138.89625 
Q 430.1675 141.69625 432.9675 141.69625 
z
" style="fill: #ffffff; opacity: 0.8; stroke: #cccccc; stroke-linejoin: miter"/>
    </g>
    <g id="line2d_31">
     <g>
      <use xlink:href="#ma178dedc29" x="449.7675" y="25.537813" style="fill: #808080; stroke: #808080"/>
     </g>
    </g>
    <g id="text_19">
     <!-- $\mathbf{Z}_t$ -->
     <g transform="translate(474.9675 30.437813) scale(0.14 -0.14)">
      <defs>
       <path id="DejaVuSans-Bold-5a" d="M 359 4666 
L 4281 4666 
L 4281 3938 
L 1778 909 
L 4353 909 
L 4353 0 
L 288 0 
L 288 728 
L 2791 3756 
L 359 3756 
L 359 4666 
z
" transform="scale(0.015625)"/>
       <path id="DejaVuSans-Oblique-74" d="M 2706 3500 
L 2619 3053 
L 1472 3053 
L 1100 1153 
Q 1081 1047 1072 975 
Q 1063 903 1063 863 
Q 1063 663 1183 572 
Q 1303 481 1569 481 
L 2150 481 
L 2053 0 
L 1503 0 
Q 991 0 739 200 
Q 488 400 488 806 
Q 488 878 497 964 
Q 506 1050 525 1153 
L 897 3053 
L 409 3053 
L 500 3500 
L 978 3500 
L 1172 4494 
L 1747 4494 
L 1556 3500 
L 2706 3500 
z
" transform="scale(0.015625)"/>
      </defs>
      <use xlink:href="#DejaVuSans-Bold-5a" transform="translate(0 0.09375)"/>
      <use xlink:href="#DejaVuSans-Oblique-74" transform="translate(73.466797 -16.3125) scale(0.7)"/>
     </g>
    </g>
    <g id="line2d_32">
     <g>
      <use xlink:href="#m4cef5094e8" x="449.7675" y="46.087188" style="stroke: #000000; stroke-linejoin: bevel"/>
     </g>
    </g>
    <g id="text_20">
     <!-- $\mathbf{x}_t$ -->
     <g transform="translate(474.9675 50.987188) scale(0.14 -0.14)">
      <defs>
       <path id="DejaVuSans-Bold-78" d="M 1422 1791 
L 159 3500 
L 1344 3500 
L 2059 2463 
L 2784 3500 
L 3969 3500 
L 2706 1797 
L 4031 0 
L 2847 0 
L 2059 1106 
L 1281 0 
L 97 0 
L 1422 1791 
z
" transform="scale(0.015625)"/>
      </defs>
      <use xlink:href="#DejaVuSans-Bold-78" transform="translate(0 0.3125)"/>
      <use xlink:href="#DejaVuSans-Oblique-74" transform="translate(65.458984 -16.09375) scale(0.7)"/>
     </g>
    </g>
    <g id="line2d_33">
     <g>
      <use xlink:href="#m4cef5094e8" x="449.7675" y="66.636563" style="stroke: #000000; stroke-linejoin: bevel"/>
     </g>
    </g>
    <g id="text_21">
     <!-- $\mathbf{x}_t$ -->
     <g transform="translate(474.9675 71.536563) scale(0.14 -0.14)">
      <use xlink:href="#DejaVuSans-Bold-78" transform="translate(0 0.3125)"/>
      <use xlink:href="#DejaVuSans-Oblique-74" transform="translate(65.458984 -16.09375) scale(0.7)"/>
     </g>
    </g>
    <g id="line2d_34">
     <g>
      <use xlink:href="#mc0a0288126" x="449.7675" y="87.185938" style="fill: #1f77b4; fill-opacity: 0.8; stroke: #1f77b4; stroke-opacity: 0.8"/>
     </g>
    </g>
    <g id="text_22">
     <!-- JPDA estimate -->
     <g transform="translate(474.9675 92.085938) scale(0.14 -0.14)">
      <defs>
       <path id="DejaVuSans-4a" d="M 628 4666 
L 1259 4666 
L 1259 325 
Q 1259 -519 939 -900 
Q 619 -1281 -91 -1281 
L -331 -1281 
L -331 -750 
L -134 -750 
Q 284 -750 456 -515 
Q 628 -281 628 325 
L 628 4666 
z
" transform="scale(0.015625)"/>
       <path id="DejaVuSans-50" d="M 1259 4147 
L 1259 2394 
L 2053 2394 
Q 2494 2394 2734 2622 
Q 2975 2850 2975 3272 
Q 2975 3691 2734 3919 
Q 2494 4147 2053 4147 
L 1259 4147 
z
M 628 4666 
L 2053 4666 
Q 2838 4666 3239 4311 
Q 3641 3956 3641 3272 
Q 3641 2581 3239 2228 
Q 2838 1875 2053 1875 
L 1259 1875 
L 1259 0 
L 628 0 
L 628 4666 
z
" transform="scale(0.015625)"/>
       <path id="DejaVuSans-44" d="M 1259 4147 
L 1259 519 
L 2022 519 
Q 2988 519 3436 956 
Q 3884 1394 3884 2338 
Q 3884 3275 3436 3711 
Q 2988 4147 2022 4147 
L 1259 4147 
z
M 628 4666 
L 1925 4666 
Q 3281 4666 3915 4102 
Q 4550 3538 4550 2338 
Q 4550 1131 3912 565 
Q 3275 0 1925 0 
L 628 0 
L 628 4666 
z
" transform="scale(0.015625)"/>
       <path id="DejaVuSans-41" d="M 2188 4044 
L 1331 1722 
L 3047 1722 
L 2188 4044 
z
M 1831 4666 
L 2547 4666 
L 4325 0 
L 3669 0 
L 3244 1197 
L 1141 1197 
L 716 0 
L 50 0 
L 1831 4666 
z
" transform="scale(0.015625)"/>
       <path id="DejaVuSans-20" transform="scale(0.015625)"/>
       <path id="DejaVuSans-65" d="M 3597 1894 
L 3597 1613 
L 953 1613 
Q 991 1019 1311 708 
Q 1631 397 2203 397 
Q 2534 397 2845 478 
Q 3156 559 3463 722 
L 3463 178 
Q 3153 47 2828 -22 
Q 2503 -91 2169 -91 
Q 1331 -91 842 396 
Q 353 884 353 1716 
Q 353 2575 817 3079 
Q 1281 3584 2069 3584 
Q 2775 3584 3186 3129 
Q 3597 2675 3597 1894 
z
M 3022 2063 
Q 3016 2534 2758 2815 
Q 2500 3097 2075 3097 
Q 1594 3097 1305 2825 
Q 1016 2553 972 2059 
L 3022 2063 
z
" transform="scale(0.015625)"/>
       <path id="DejaVuSans-73" d="M 2834 3397 
L 2834 2853 
Q 2591 2978 2328 3040 
Q 2066 3103 1784 3103 
Q 1356 3103 1142 2972 
Q 928 2841 928 2578 
Q 928 2378 1081 2264 
Q 1234 2150 1697 2047 
L 1894 2003 
Q 2506 1872 2764 1633 
Q 3022 1394 3022 966 
Q 3022 478 2636 193 
Q 2250 -91 1575 -91 
Q 1294 -91 989 -36 
Q 684 19 347 128 
L 347 722 
Q 666 556 975 473 
Q 1284 391 1588 391 
Q 1994 391 2212 530 
Q 2431 669 2431 922 
Q 2431 1156 2273 1281 
Q 2116 1406 1581 1522 
L 1381 1569 
Q 847 1681 609 1914 
Q 372 2147 372 2553 
Q 372 3047 722 3315 
Q 1072 3584 1716 3584 
Q 2034 3584 2315 3537 
Q 2597 3491 2834 3397 
z
" transform="scale(0.015625)"/>
       <path id="DejaVuSans-74" d="M 1172 4494 
L 1172 3500 
L 2356 3500 
L 2356 3053 
L 1172 3053 
L 1172 1153 
Q 1172 725 1289 603 
Q 1406 481 1766 481 
L 2356 481 
L 2356 0 
L 1766 0 
Q 1100 0 847 248 
Q 594 497 594 1153 
L 594 3053 
L 172 3053 
L 172 3500 
L 594 3500 
L 594 4494 
L 1172 4494 
z
" transform="scale(0.015625)"/>
       <path id="DejaVuSans-69" d="M 603 3500 
L 1178 3500 
L 1178 0 
L 603 0 
L 603 3500 
z
M 603 4863 
L 1178 4863 
L 1178 4134 
L 603 4134 
L 603 4863 
z
" transform="scale(0.015625)"/>
       <path id="DejaVuSans-6d" d="M 3328 2828 
Q 3544 3216 3844 3400 
Q 4144 3584 4550 3584 
Q 5097 3584 5394 3201 
Q 5691 2819 5691 2113 
L 5691 0 
L 5113 0 
L 5113 2094 
Q 5113 2597 4934 2840 
Q 4756 3084 4391 3084 
Q 3944 3084 3684 2787 
Q 3425 2491 3425 1978 
L 3425 0 
L 2847 0 
L 2847 2094 
Q 2847 2600 2669 2842 
Q 2491 3084 2119 3084 
Q 1678 3084 1418 2786 
Q 1159 2488 1159 1978 
L 1159 0 
L 581 0 
L 581 3500 
L 1159 3500 
L 1159 2956 
Q 1356 3278 1631 3431 
Q 1906 3584 2284 3584 
Q 2666 3584 2933 3390 
Q 3200 3197 3328 2828 
z
" transform="scale(0.015625)"/>
       <path id="DejaVuSans-61" d="M 2194 1759 
Q 1497 1759 1228 1600 
Q 959 1441 959 1056 
Q 959 750 1161 570 
Q 1363 391 1709 391 
Q 2188 391 2477 730 
Q 2766 1069 2766 1631 
L 2766 1759 
L 2194 1759 
z
M 3341 1997 
L 3341 0 
L 2766 0 
L 2766 531 
Q 2569 213 2275 61 
Q 1981 -91 1556 -91 
Q 1019 -91 701 211 
Q 384 513 384 1019 
Q 384 1609 779 1909 
Q 1175 2209 1959 2209 
L 2766 2209 
L 2766 2266 
Q 2766 2663 2505 2880 
Q 2244 3097 1772 3097 
Q 1472 3097 1187 3025 
Q 903 2953 641 2809 
L 641 3341 
Q 956 3463 1253 3523 
Q 1550 3584 1831 3584 
Q 2591 3584 2966 3190 
Q 3341 2797 3341 1997 
z
" transform="scale(0.015625)"/>
      </defs>
      <use xlink:href="#DejaVuSans-4a"/>
      <use xlink:href="#DejaVuSans-50" x="29.492188"/>
      <use xlink:href="#DejaVuSans-44" x="89.794922"/>
      <use xlink:href="#DejaVuSans-41" x="165.046875"/>
      <use xlink:href="#DejaVuSans-20" x="233.455078"/>
      <use xlink:href="#DejaVuSans-65" x="265.242188"/>
      <use xlink:href="#DejaVuSans-73" x="326.765625"/>
      <use xlink:href="#DejaVuSans-74" x="378.865234"/>
      <use xlink:href="#DejaVuSans-69" x="418.074219"/>
      <use xlink:href="#DejaVuSans-6d" x="445.857422"/>
      <use xlink:href="#DejaVuSans-61" x="543.269531"/>
      <use xlink:href="#DejaVuSans-74" x="604.548828"/>
      <use xlink:href="#DejaVuSans-65" x="643.757812"/>
     </g>
    </g>
    <g id="line2d_35">
     <g>
      <use xlink:href="#m0f2fd31604" x="449.7675" y="107.735313" style="fill: #ff7f0e; fill-opacity: 0.8; stroke: #ff7f0e; stroke-opacity: 0.8; stroke-linejoin: bevel"/>
     </g>
    </g>
    <g id="text_23">
     <!-- JPDA* estimate -->
     <g transform="translate(474.9675 112.635313) scale(0.14 -0.14)">
      <defs>
       <path id="DejaVuSans-2a" d="M 3009 3897 
L 1888 3291 
L 3009 2681 
L 2828 2375 
L 1778 3009 
L 1778 1831 
L 1422 1831 
L 1422 3009 
L 372 2375 
L 191 2681 
L 1313 3291 
L 191 3897 
L 372 4206 
L 1422 3572 
L 1422 4750 
L 1778 4750 
L 1778 3572 
L 2828 4206 
L 3009 3897 
z
" transform="scale(0.015625)"/>
      </defs>
      <use xlink:href="#DejaVuSans-4a"/>
      <use xlink:href="#DejaVuSans-50" x="29.492188"/>
      <use xlink:href="#DejaVuSans-44" x="89.794922"/>
      <use xlink:href="#DejaVuSans-41" x="165.046875"/>
      <use xlink:href="#DejaVuSans-2a" x="233.455078"/>
      <use xlink:href="#DejaVuSans-20" x="283.455078"/>
      <use xlink:href="#DejaVuSans-65" x="315.242188"/>
      <use xlink:href="#DejaVuSans-73" x="376.765625"/>
      <use xlink:href="#DejaVuSans-74" x="428.865234"/>
      <use xlink:href="#DejaVuSans-69" x="468.074219"/>
      <use xlink:href="#DejaVuSans-6d" x="495.857422"/>
      <use xlink:href="#DejaVuSans-61" x="593.269531"/>
      <use xlink:href="#DejaVuSans-74" x="654.548828"/>
      <use xlink:href="#DejaVuSans-65" x="693.757812"/>
     </g>
    </g>
    <g id="line2d_36">
     <g>
      <use xlink:href="#m889e1e25be" x="449.7675" y="128.284688" style="fill: #2ca02c; fill-opacity: 0.8; stroke: #2ca02c; stroke-opacity: 0.8; stroke-linejoin: miter"/>
     </g>
    </g>
    <g id="text_24">
     <!-- Ours estimate -->
     <g transform="translate(474.9675 133.184688) scale(0.14 -0.14)">
      <defs>
       <path id="DejaVuSans-4f" d="M 2522 4238 
Q 1834 4238 1429 3725 
Q 1025 3213 1025 2328 
Q 1025 1447 1429 934 
Q 1834 422 2522 422 
Q 3209 422 3611 934 
Q 4013 1447 4013 2328 
Q 4013 3213 3611 3725 
Q 3209 4238 2522 4238 
z
M 2522 4750 
Q 3503 4750 4090 4092 
Q 4678 3434 4678 2328 
Q 4678 1225 4090 567 
Q 3503 -91 2522 -91 
Q 1538 -91 948 565 
Q 359 1222 359 2328 
Q 359 3434 948 4092 
Q 1538 4750 2522 4750 
z
" transform="scale(0.015625)"/>
       <path id="DejaVuSans-75" d="M 544 1381 
L 544 3500 
L 1119 3500 
L 1119 1403 
Q 1119 906 1312 657 
Q 1506 409 1894 409 
Q 2359 409 2629 706 
Q 2900 1003 2900 1516 
L 2900 3500 
L 3475 3500 
L 3475 0 
L 2900 0 
L 2900 538 
Q 2691 219 2414 64 
Q 2138 -91 1772 -91 
Q 1169 -91 856 284 
Q 544 659 544 1381 
z
M 1991 3584 
L 1991 3584 
z
" transform="scale(0.015625)"/>
       <path id="DejaVuSans-72" d="M 2631 2963 
Q 2534 3019 2420 3045 
Q 2306 3072 2169 3072 
Q 1681 3072 1420 2755 
Q 1159 2438 1159 1844 
L 1159 0 
L 581 0 
L 581 3500 
L 1159 3500 
L 1159 2956 
Q 1341 3275 1631 3429 
Q 1922 3584 2338 3584 
Q 2397 3584 2469 3576 
Q 2541 3569 2628 3553 
L 2631 2963 
z
" transform="scale(0.015625)"/>
      </defs>
      <use xlink:href="#DejaVuSans-4f"/>
      <use xlink:href="#DejaVuSans-75" x="78.710938"/>
      <use xlink:href="#DejaVuSans-72" x="142.089844"/>
      <use xlink:href="#DejaVuSans-73" x="183.203125"/>
      <use xlink:href="#DejaVuSans-20" x="235.302734"/>
      <use xlink:href="#DejaVuSans-65" x="267.089844"/>
      <use xlink:href="#DejaVuSans-73" x="328.613281"/>
      <use xlink:href="#DejaVuSans-74" x="380.712891"/>
      <use xlink:href="#DejaVuSans-69" x="419.921875"/>
      <use xlink:href="#DejaVuSans-6d" x="447.705078"/>
      <use xlink:href="#DejaVuSans-61" x="545.117188"/>
      <use xlink:href="#DejaVuSans-74" x="606.396484"/>
      <use xlink:href="#DejaVuSans-65" x="645.605469"/>
     </g>
    </g>
   </g>
  </g>
 </g>
 <defs>
  <clipPath id="pffa387191e">
   <rect x="35.304688" y="7.2" width="558" height="554.4"/>
  </clipPath>
 </defs>
</svg>
