<?xml version="1.0" encoding="utf-8" standalone="no"?>
<!DOCTYPE svg PUBLIC "-//W3C//DTD SVG 1.1//EN"
  "http://www.w3.org/Graphics/SVG/1.1/DTD/svg11.dtd">
<svg xmlns:xlink="http://www.w3.org/1999/xlink" width="602.36289pt" height="585.478125pt" viewBox="0 0 602.36289 585.478125" xmlns="http://www.w3.org/2000/svg" version="1.1">
 <metadata>
  <rdf:RDF xmlns:dc="http://purl.org/dc/elements/1.1/" xmlns:cc="http://creativecommons.org/ns#" xmlns:rdf="http://www.w3.org/1999/02/22-rdf-syntax-ns#">
   <cc:Work>
    <dc:type rdf:resource="http://purl.org/dc/dcmitype/StillImage"/>
    <dc:date>2024-05-09T12:56:13.420512</dc:date>
    <dc:format>image/svg+xml</dc:format>
    <dc:creator>
     <cc:Agent>
      <dc:title>Matplotlib v3.8.0, https://matplotlib.org/</dc:title>
     </cc:Agent>
    </dc:creator>
   </cc:Work>
  </rdf:RDF>
 </metadata>
 <defs>
  <style type="text/css">*{stroke-linejoin: round; stroke-linecap: butt}</style>
 </defs>
 <g id="figure_1">
  <g id="patch_1">
   <path d="M 0 585.478125 
L 602.36289 585.478125 
L 602.36289 0 
L 0 0 
z
" style="fill: #ffffff"/>
  </g>
  <g id="axes_1">
   <g id="patch_2">
    <path d="M 35.304688 561.6 
L 593.304688 561.6 
L 593.304688 7.2 
L 35.304688 7.2 
z
" style="fill: #ffffff"/>
   </g>
   <g id="matplotlib.axis_1">
    <g id="xtick_1">
     <g id="line2d_1">
      <defs>
       <path id="m3f2aead696" d="M 0 0 
L 0 3.5 
" style="stroke: #000000; stroke-width: 0.8"/>
      </defs>
      <g>
       <use xlink:href="#m3f2aead696" x="42.990235" y="561.6" style="stroke: #000000; stroke-width: 0.8"/>
      </g>
     </g>
     <g id="text_1">
      <!-- 60 -->
      <g transform="translate(36.627735 576.198438) scale(0.1 -0.1)">
       <defs>
        <path id="DejaVuSans-36" d="M 2113 2584 
Q 1688 2584 1439 2293 
Q 1191 2003 1191 1497 
Q 1191 994 1439 701 
Q 1688 409 2113 409 
Q 2538 409 2786 701 
Q 3034 994 3034 1497 
Q 3034 2003 2786 2293 
Q 2538 2584 2113 2584 
z
M 3366 4563 
L 3366 3988 
Q 3128 4100 2886 4159 
Q 2644 4219 2406 4219 
Q 1781 4219 1451 3797 
Q 1122 3375 1075 2522 
Q 1259 2794 1537 2939 
Q 1816 3084 2150 3084 
Q 2853 3084 3261 2657 
Q 3669 2231 3669 1497 
Q 3669 778 3244 343 
Q 2819 -91 2113 -91 
Q 1303 -91 875 529 
Q 447 1150 447 2328 
Q 447 3434 972 4092 
Q 1497 4750 2381 4750 
Q 2619 4750 2861 4703 
Q 3103 4656 3366 4563 
z
" transform="scale(0.015625)"/>
        <path id="DejaVuSans-30" d="M 2034 4250 
Q 1547 4250 1301 3770 
Q 1056 3291 1056 2328 
Q 1056 1369 1301 889 
Q 1547 409 2034 409 
Q 2525 409 2770 889 
Q 3016 1369 3016 2328 
Q 3016 3291 2770 3770 
Q 2525 4250 2034 4250 
z
M 2034 4750 
Q 2819 4750 3233 4129 
Q 3647 3509 3647 2328 
Q 3647 1150 3233 529 
Q 2819 -91 2034 -91 
Q 1250 -91 836 529 
Q 422 1150 422 2328 
Q 422 3509 836 4129 
Q 1250 4750 2034 4750 
z
" transform="scale(0.015625)"/>
       </defs>
       <use xlink:href="#DejaVuSans-36"/>
       <use xlink:href="#DejaVuSans-30" x="63.623047"/>
      </g>
     </g>
    </g>
    <g id="xtick_2">
     <g id="line2d_2">
      <g>
       <use xlink:href="#m3f2aead696" x="110.818848" y="561.6" style="stroke: #000000; stroke-width: 0.8"/>
      </g>
     </g>
     <g id="text_2">
      <!-- 70 -->
      <g transform="translate(104.456348 576.198438) scale(0.1 -0.1)">
       <defs>
        <path id="DejaVuSans-37" d="M 525 4666 
L 3525 4666 
L 3525 4397 
L 1831 0 
L 1172 0 
L 2766 4134 
L 525 4134 
L 525 4666 
z
" transform="scale(0.015625)"/>
       </defs>
       <use xlink:href="#DejaVuSans-37"/>
       <use xlink:href="#DejaVuSans-30" x="63.623047"/>
      </g>
     </g>
    </g>
    <g id="xtick_3">
     <g id="line2d_3">
      <g>
       <use xlink:href="#m3f2aead696" x="178.647461" y="561.6" style="stroke: #000000; stroke-width: 0.8"/>
      </g>
     </g>
     <g id="text_3">
      <!-- 80 -->
      <g transform="translate(172.284961 576.198438) scale(0.1 -0.1)">
       <defs>
        <path id="DejaVuSans-38" d="M 2034 2216 
Q 1584 2216 1326 1975 
Q 1069 1734 1069 1313 
Q 1069 891 1326 650 
Q 1584 409 2034 409 
Q 2484 409 2743 651 
Q 3003 894 3003 1313 
Q 3003 1734 2745 1975 
Q 2488 2216 2034 2216 
z
M 1403 2484 
Q 997 2584 770 2862 
Q 544 3141 544 3541 
Q 544 4100 942 4425 
Q 1341 4750 2034 4750 
Q 2731 4750 3128 4425 
Q 3525 4100 3525 3541 
Q 3525 3141 3298 2862 
Q 3072 2584 2669 2484 
Q 3125 2378 3379 2068 
Q 3634 1759 3634 1313 
Q 3634 634 3220 271 
Q 2806 -91 2034 -91 
Q 1263 -91 848 271 
Q 434 634 434 1313 
Q 434 1759 690 2068 
Q 947 2378 1403 2484 
z
M 1172 3481 
Q 1172 3119 1398 2916 
Q 1625 2713 2034 2713 
Q 2441 2713 2670 2916 
Q 2900 3119 2900 3481 
Q 2900 3844 2670 4047 
Q 2441 4250 2034 4250 
Q 1625 4250 1398 4047 
Q 1172 3844 1172 3481 
z
" transform="scale(0.015625)"/>
       </defs>
       <use xlink:href="#DejaVuSans-38"/>
       <use xlink:href="#DejaVuSans-30" x="63.623047"/>
      </g>
     </g>
    </g>
    <g id="xtick_4">
     <g id="line2d_4">
      <g>
       <use xlink:href="#m3f2aead696" x="246.476074" y="561.6" style="stroke: #000000; stroke-width: 0.8"/>
      </g>
     </g>
     <g id="text_4">
      <!-- 90 -->
      <g transform="translate(240.113574 576.198438) scale(0.1 -0.1)">
       <defs>
        <path id="DejaVuSans-39" d="M 703 97 
L 703 672 
Q 941 559 1184 500 
Q 1428 441 1663 441 
Q 2288 441 2617 861 
Q 2947 1281 2994 2138 
Q 2813 1869 2534 1725 
Q 2256 1581 1919 1581 
Q 1219 1581 811 2004 
Q 403 2428 403 3163 
Q 403 3881 828 4315 
Q 1253 4750 1959 4750 
Q 2769 4750 3195 4129 
Q 3622 3509 3622 2328 
Q 3622 1225 3098 567 
Q 2575 -91 1691 -91 
Q 1453 -91 1209 -44 
Q 966 3 703 97 
z
M 1959 2075 
Q 2384 2075 2632 2365 
Q 2881 2656 2881 3163 
Q 2881 3666 2632 3958 
Q 2384 4250 1959 4250 
Q 1534 4250 1286 3958 
Q 1038 3666 1038 3163 
Q 1038 2656 1286 2365 
Q 1534 2075 1959 2075 
z
" transform="scale(0.015625)"/>
       </defs>
       <use xlink:href="#DejaVuSans-39"/>
       <use xlink:href="#DejaVuSans-30" x="63.623047"/>
      </g>
     </g>
    </g>
    <g id="xtick_5">
     <g id="line2d_5">
      <g>
       <use xlink:href="#m3f2aead696" x="314.304688" y="561.6" style="stroke: #000000; stroke-width: 0.8"/>
      </g>
     </g>
     <g id="text_5">
      <!-- 100 -->
      <g transform="translate(304.760938 576.198438) scale(0.1 -0.1)">
       <defs>
        <path id="DejaVuSans-31" d="M 794 531 
L 1825 531 
L 1825 4091 
L 703 3866 
L 703 4441 
L 1819 4666 
L 2450 4666 
L 2450 531 
L 3481 531 
L 3481 0 
L 794 0 
L 794 531 
z
" transform="scale(0.015625)"/>
       </defs>
       <use xlink:href="#DejaVuSans-31"/>
       <use xlink:href="#DejaVuSans-30" x="63.623047"/>
       <use xlink:href="#DejaVuSans-30" x="127.246094"/>
      </g>
     </g>
    </g>
    <g id="xtick_6">
     <g id="line2d_6">
      <g>
       <use xlink:href="#m3f2aead696" x="382.133301" y="561.6" style="stroke: #000000; stroke-width: 0.8"/>
      </g>
     </g>
     <g id="text_6">
      <!-- 110 -->
      <g transform="translate(372.589551 576.198438) scale(0.1 -0.1)">
       <use xlink:href="#DejaVuSans-31"/>
       <use xlink:href="#DejaVuSans-31" x="63.623047"/>
       <use xlink:href="#DejaVuSans-30" x="127.246094"/>
      </g>
     </g>
    </g>
    <g id="xtick_7">
     <g id="line2d_7">
      <g>
       <use xlink:href="#m3f2aead696" x="449.961914" y="561.6" style="stroke: #000000; stroke-width: 0.8"/>
      </g>
     </g>
     <g id="text_7">
      <!-- 120 -->
      <g transform="translate(440.418164 576.198438) scale(0.1 -0.1)">
       <defs>
        <path id="DejaVuSans-32" d="M 1228 531 
L 3431 531 
L 3431 0 
L 469 0 
L 469 531 
Q 828 903 1448 1529 
Q 2069 2156 2228 2338 
Q 2531 2678 2651 2914 
Q 2772 3150 2772 3378 
Q 2772 3750 2511 3984 
Q 2250 4219 1831 4219 
Q 1534 4219 1204 4116 
Q 875 4013 500 3803 
L 500 4441 
Q 881 4594 1212 4672 
Q 1544 4750 1819 4750 
Q 2544 4750 2975 4387 
Q 3406 4025 3406 3419 
Q 3406 3131 3298 2873 
Q 3191 2616 2906 2266 
Q 2828 2175 2409 1742 
Q 1991 1309 1228 531 
z
" transform="scale(0.015625)"/>
       </defs>
       <use xlink:href="#DejaVuSans-31"/>
       <use xlink:href="#DejaVuSans-32" x="63.623047"/>
       <use xlink:href="#DejaVuSans-30" x="127.246094"/>
      </g>
     </g>
    </g>
    <g id="xtick_8">
     <g id="line2d_8">
      <g>
       <use xlink:href="#m3f2aead696" x="517.790527" y="561.6" style="stroke: #000000; stroke-width: 0.8"/>
      </g>
     </g>
     <g id="text_8">
      <!-- 130 -->
      <g transform="translate(508.246777 576.198438) scale(0.1 -0.1)">
       <defs>
        <path id="DejaVuSans-33" d="M 2597 2516 
Q 3050 2419 3304 2112 
Q 3559 1806 3559 1356 
Q 3559 666 3084 287 
Q 2609 -91 1734 -91 
Q 1441 -91 1130 -33 
Q 819 25 488 141 
L 488 750 
Q 750 597 1062 519 
Q 1375 441 1716 441 
Q 2309 441 2620 675 
Q 2931 909 2931 1356 
Q 2931 1769 2642 2001 
Q 2353 2234 1838 2234 
L 1294 2234 
L 1294 2753 
L 1863 2753 
Q 2328 2753 2575 2939 
Q 2822 3125 2822 3475 
Q 2822 3834 2567 4026 
Q 2313 4219 1838 4219 
Q 1578 4219 1281 4162 
Q 984 4106 628 3988 
L 628 4550 
Q 988 4650 1302 4700 
Q 1616 4750 1894 4750 
Q 2613 4750 3031 4423 
Q 3450 4097 3450 3541 
Q 3450 3153 3228 2886 
Q 3006 2619 2597 2516 
z
" transform="scale(0.015625)"/>
       </defs>
       <use xlink:href="#DejaVuSans-31"/>
       <use xlink:href="#DejaVuSans-33" x="63.623047"/>
       <use xlink:href="#DejaVuSans-30" x="127.246094"/>
      </g>
     </g>
    </g>
    <g id="xtick_9">
     <g id="line2d_9">
      <g>
       <use xlink:href="#m3f2aead696" x="585.61914" y="561.6" style="stroke: #000000; stroke-width: 0.8"/>
      </g>
     </g>
     <g id="text_9">
      <!-- 140 -->
      <g transform="translate(576.07539 576.198438) scale(0.1 -0.1)">
       <defs>
        <path id="DejaVuSans-34" d="M 2419 4116 
L 825 1625 
L 2419 1625 
L 2419 4116 
z
M 2253 4666 
L 3047 4666 
L 3047 1625 
L 3713 1625 
L 3713 1100 
L 3047 1100 
L 3047 0 
L 2419 0 
L 2419 1100 
L 313 1100 
L 313 1709 
L 2253 4666 
z
" transform="scale(0.015625)"/>
       </defs>
       <use xlink:href="#DejaVuSans-31"/>
       <use xlink:href="#DejaVuSans-34" x="63.623047"/>
       <use xlink:href="#DejaVuSans-30" x="127.246094"/>
      </g>
     </g>
    </g>
   </g>
   <g id="matplotlib.axis_2">
    <g id="ytick_1">
     <g id="line2d_10">
      <defs>
       <path id="m2525a7309f" d="M 0 0 
L -3.5 0 
" style="stroke: #000000; stroke-width: 0.8"/>
      </defs>
      <g>
       <use xlink:href="#m2525a7309f" x="35.304688" y="553.964037" style="stroke: #000000; stroke-width: 0.8"/>
      </g>
     </g>
     <g id="text_10">
      <!-- −80 -->
      <g transform="translate(7.2 557.763256) scale(0.1 -0.1)">
       <defs>
        <path id="DejaVuSans-2212" d="M 678 2272 
L 4684 2272 
L 4684 1741 
L 678 1741 
L 678 2272 
z
" transform="scale(0.015625)"/>
       </defs>
       <use xlink:href="#DejaVuSans-2212"/>
       <use xlink:href="#DejaVuSans-38" x="83.789062"/>
       <use xlink:href="#DejaVuSans-30" x="147.412109"/>
      </g>
     </g>
    </g>
    <g id="ytick_2">
     <g id="line2d_11">
      <g>
       <use xlink:href="#m2525a7309f" x="35.304688" y="486.573028" style="stroke: #000000; stroke-width: 0.8"/>
      </g>
     </g>
     <g id="text_11">
      <!-- −60 -->
      <g transform="translate(7.2 490.372246) scale(0.1 -0.1)">
       <use xlink:href="#DejaVuSans-2212"/>
       <use xlink:href="#DejaVuSans-36" x="83.789062"/>
       <use xlink:href="#DejaVuSans-30" x="147.412109"/>
      </g>
     </g>
    </g>
    <g id="ytick_3">
     <g id="line2d_12">
      <g>
       <use xlink:href="#m2525a7309f" x="35.304688" y="419.182018" style="stroke: #000000; stroke-width: 0.8"/>
      </g>
     </g>
     <g id="text_12">
      <!-- −40 -->
      <g transform="translate(7.2 422.981237) scale(0.1 -0.1)">
       <use xlink:href="#DejaVuSans-2212"/>
       <use xlink:href="#DejaVuSans-34" x="83.789062"/>
       <use xlink:href="#DejaVuSans-30" x="147.412109"/>
      </g>
     </g>
    </g>
    <g id="ytick_4">
     <g id="line2d_13">
      <g>
       <use xlink:href="#m2525a7309f" x="35.304688" y="351.791009" style="stroke: #000000; stroke-width: 0.8"/>
      </g>
     </g>
     <g id="text_13">
      <!-- −20 -->
      <g transform="translate(7.2 355.590228) scale(0.1 -0.1)">
       <use xlink:href="#DejaVuSans-2212"/>
       <use xlink:href="#DejaVuSans-32" x="83.789062"/>
       <use xlink:href="#DejaVuSans-30" x="147.412109"/>
      </g>
     </g>
    </g>
    <g id="ytick_5">
     <g id="line2d_14">
      <g>
       <use xlink:href="#m2525a7309f" x="35.304688" y="284.4" style="stroke: #000000; stroke-width: 0.8"/>
      </g>
     </g>
     <g id="text_14">
      <!-- 0 -->
      <g transform="translate(21.942187 288.199219) scale(0.1 -0.1)">
       <use xlink:href="#DejaVuSans-30"/>
      </g>
     </g>
    </g>
    <g id="ytick_6">
     <g id="line2d_15">
      <g>
       <use xlink:href="#m2525a7309f" x="35.304688" y="217.008991" style="stroke: #000000; stroke-width: 0.8"/>
      </g>
     </g>
     <g id="text_15">
      <!-- 20 -->
      <g transform="translate(15.579687 220.80821) scale(0.1 -0.1)">
       <use xlink:href="#DejaVuSans-32"/>
       <use xlink:href="#DejaVuSans-30" x="63.623047"/>
      </g>
     </g>
    </g>
    <g id="ytick_7">
     <g id="line2d_16">
      <g>
       <use xlink:href="#m2525a7309f" x="35.304688" y="149.617982" style="stroke: #000000; stroke-width: 0.8"/>
      </g>
     </g>
     <g id="text_16">
      <!-- 40 -->
      <g transform="translate(15.579687 153.4172) scale(0.1 -0.1)">
       <use xlink:href="#DejaVuSans-34"/>
       <use xlink:href="#DejaVuSans-30" x="63.623047"/>
      </g>
     </g>
    </g>
    <g id="ytick_8">
     <g id="line2d_17">
      <g>
       <use xlink:href="#m2525a7309f" x="35.304688" y="82.226972" style="stroke: #000000; stroke-width: 0.8"/>
      </g>
     </g>
     <g id="text_17">
      <!-- 60 -->
      <g transform="translate(15.579687 86.026191) scale(0.1 -0.1)">
       <use xlink:href="#DejaVuSans-36"/>
       <use xlink:href="#DejaVuSans-30" x="63.623047"/>
      </g>
     </g>
    </g>
    <g id="ytick_9">
     <g id="line2d_18">
      <g>
       <use xlink:href="#m2525a7309f" x="35.304688" y="14.835963" style="stroke: #000000; stroke-width: 0.8"/>
      </g>
     </g>
     <g id="text_18">
      <!-- 80 -->
      <g transform="translate(15.579687 18.635182) scale(0.1 -0.1)">
       <use xlink:href="#DejaVuSans-38"/>
       <use xlink:href="#DejaVuSans-30" x="63.623047"/>
      </g>
     </g>
    </g>
   </g>
   <g id="line2d_19">
    <defs>
     <path id="m3b7d5372ff" d="M 0 0.45 
C 0.119341 0.45 0.233811 0.402585 0.318198 0.318198 
C 0.402585 0.233811 0.45 0.119341 0.45 0 
C 0.45 -0.119341 0.402585 -0.233811 0.318198 -0.318198 
C 0.233811 -0.402585 0.119341 -0.45 0 -0.45 
C -0.119341 -0.45 -0.233811 -0.402585 -0.318198 -0.318198 
C -0.402585 -0.233811 -0.45 -0.119341 -0.45 0 
C -0.45 0.119341 -0.402585 0.233811 -0.318198 0.318198 
C -0.233811 0.402585 -0.119341 0.45 0 0.45 
z
" style="stroke: #808080"/>
    </defs>
    <g clip-path="url(#pbec7ed5e72)">
     <use xlink:href="#m3b7d5372ff" x="259.70529" y="369.126673" style="fill: #808080; stroke: #808080"/>
     <use xlink:href="#m3b7d5372ff" x="374.701232" y="371.586653" style="fill: #808080; stroke: #808080"/>
     <use xlink:href="#m3b7d5372ff" x="140.069206" y="216.682703" style="fill: #808080; stroke: #808080"/>
     <use xlink:href="#m3b7d5372ff" x="159.388934" y="257.049795" style="fill: #808080; stroke: #808080"/>
     <use xlink:href="#m3b7d5372ff" x="460.989735" y="278.105423" style="fill: #808080; stroke: #808080"/>
     <use xlink:href="#m3b7d5372ff" x="370.406298" y="291.91599" style="fill: #808080; stroke: #808080"/>
     <use xlink:href="#m3b7d5372ff" x="540.588969" y="392.225443" style="fill: #808080; stroke: #808080"/>
     <use xlink:href="#m3b7d5372ff" x="374.640943" y="154.218327" style="fill: #808080; stroke: #808080"/>
     <use xlink:href="#m3b7d5372ff" x="149.20749" y="364.430898" style="fill: #808080; stroke: #808080"/>
     <use xlink:href="#m3b7d5372ff" x="466.816356" y="355.386987" style="fill: #808080; stroke: #808080"/>
     <use xlink:href="#m3b7d5372ff" x="43.603471" y="189.192729" style="fill: #808080; stroke: #808080"/>
     <use xlink:href="#m3b7d5372ff" x="397.559002" y="164.057958" style="fill: #808080; stroke: #808080"/>
     <use xlink:href="#m3b7d5372ff" x="152.660292" y="393.832819" style="fill: #808080; stroke: #808080"/>
     <use xlink:href="#m3b7d5372ff" x="290.044053" y="372.53204" style="fill: #808080; stroke: #808080"/>
     <use xlink:href="#m3b7d5372ff" x="404.834369" y="169.945843" style="fill: #808080; stroke: #808080"/>
     <use xlink:href="#m3b7d5372ff" x="450.498764" y="283.077729" style="fill: #808080; stroke: #808080"/>
    </g>
   </g>
   <g id="line2d_20">
    <defs>
     <path id="m5320ba2041" d="M 0 -1 
L -0.224514 -0.309017 
L -0.951057 -0.309017 
L -0.363271 0.118034 
L -0.587785 0.809017 
L -0 0.381966 
L 0.587785 0.809017 
L 0.363271 0.118034 
L 0.951057 -0.309017 
L 0.224514 -0.309017 
z
" style="stroke: #000000; stroke-linejoin: bevel"/>
    </defs>
    <g clip-path="url(#pbec7ed5e72)">
     <use xlink:href="#m5320ba2041" x="90.462033" y="409.41932" style="stroke: #000000; stroke-linejoin: bevel"/>
     <use xlink:href="#m5320ba2041" x="82.849568" y="406.562907" style="stroke: #000000; stroke-linejoin: bevel"/>
     <use xlink:href="#m5320ba2041" x="99.542466" y="409.02776" style="stroke: #000000; stroke-linejoin: bevel"/>
     <use xlink:href="#m5320ba2041" x="116.337035" y="407.788261" style="stroke: #000000; stroke-linejoin: bevel"/>
     <use xlink:href="#m5320ba2041" x="105.788401" y="404.428153" style="stroke: #000000; stroke-linejoin: bevel"/>
     <use xlink:href="#m5320ba2041" x="133.752476" y="407.770118" style="stroke: #000000; stroke-linejoin: bevel"/>
     <use xlink:href="#m5320ba2041" x="105.323968" y="414.134526" style="stroke: #000000; stroke-linejoin: bevel"/>
     <use xlink:href="#m5320ba2041" x="125.632963" y="392.136382" style="stroke: #000000; stroke-linejoin: bevel"/>
     <use xlink:href="#m5320ba2041" x="146.821084" y="408.077229" style="stroke: #000000; stroke-linejoin: bevel"/>
     <use xlink:href="#m5320ba2041" x="134.520227" y="392.969987" style="stroke: #000000; stroke-linejoin: bevel"/>
     <use xlink:href="#m5320ba2041" x="126.154843" y="395.679372" style="stroke: #000000; stroke-linejoin: bevel"/>
     <use xlink:href="#m5320ba2041" x="156.257933" y="393.93175" style="stroke: #000000; stroke-linejoin: bevel"/>
     <use xlink:href="#m5320ba2041" x="137.914848" y="404.252141" style="stroke: #000000; stroke-linejoin: bevel"/>
     <use xlink:href="#m5320ba2041" x="150.869718" y="402.137624" style="stroke: #000000; stroke-linejoin: bevel"/>
     <use xlink:href="#m5320ba2041" x="169.061532" y="386.246607" style="stroke: #000000; stroke-linejoin: bevel"/>
     <use xlink:href="#m5320ba2041" x="135.120575" y="397.765265" style="stroke: #000000; stroke-linejoin: bevel"/>
     <use xlink:href="#m5320ba2041" x="176.458418" y="397.180122" style="stroke: #000000; stroke-linejoin: bevel"/>
     <use xlink:href="#m5320ba2041" x="149.700017" y="391.786618" style="stroke: #000000; stroke-linejoin: bevel"/>
     <use xlink:href="#m5320ba2041" x="182.039987" y="392.248207" style="stroke: #000000; stroke-linejoin: bevel"/>
     <use xlink:href="#m5320ba2041" x="176.239466" y="392.697066" style="stroke: #000000; stroke-linejoin: bevel"/>
     <use xlink:href="#m5320ba2041" x="178.918148" y="388.515578" style="stroke: #000000; stroke-linejoin: bevel"/>
     <use xlink:href="#m5320ba2041" x="170.166445" y="378.164142" style="stroke: #000000; stroke-linejoin: bevel"/>
     <use xlink:href="#m5320ba2041" x="172.777617" y="390.11791" style="stroke: #000000; stroke-linejoin: bevel"/>
     <use xlink:href="#m5320ba2041" x="188.328261" y="393.525778" style="stroke: #000000; stroke-linejoin: bevel"/>
     <use xlink:href="#m5320ba2041" x="192.477573" y="386.471975" style="stroke: #000000; stroke-linejoin: bevel"/>
     <use xlink:href="#m5320ba2041" x="187.090734" y="393.282407" style="stroke: #000000; stroke-linejoin: bevel"/>
     <use xlink:href="#m5320ba2041" x="207.892565" y="388.063092" style="stroke: #000000; stroke-linejoin: bevel"/>
     <use xlink:href="#m5320ba2041" x="184.968961" y="375.044249" style="stroke: #000000; stroke-linejoin: bevel"/>
     <use xlink:href="#m5320ba2041" x="216.472288" y="385.233697" style="stroke: #000000; stroke-linejoin: bevel"/>
     <use xlink:href="#m5320ba2041" x="210.925813" y="382.369829" style="stroke: #000000; stroke-linejoin: bevel"/>
     <use xlink:href="#m5320ba2041" x="219.326993" y="374.755765" style="stroke: #000000; stroke-linejoin: bevel"/>
     <use xlink:href="#m5320ba2041" x="213.110518" y="376.843853" style="stroke: #000000; stroke-linejoin: bevel"/>
     <use xlink:href="#m5320ba2041" x="227.006456" y="370.553082" style="stroke: #000000; stroke-linejoin: bevel"/>
     <use xlink:href="#m5320ba2041" x="217.423122" y="373.64373" style="stroke: #000000; stroke-linejoin: bevel"/>
     <use xlink:href="#m5320ba2041" x="220.439309" y="376.701043" style="stroke: #000000; stroke-linejoin: bevel"/>
     <use xlink:href="#m5320ba2041" x="215.142048" y="376.411188" style="stroke: #000000; stroke-linejoin: bevel"/>
     <use xlink:href="#m5320ba2041" x="241.378801" y="380.955485" style="stroke: #000000; stroke-linejoin: bevel"/>
     <use xlink:href="#m5320ba2041" x="241.136551" y="359.500764" style="stroke: #000000; stroke-linejoin: bevel"/>
     <use xlink:href="#m5320ba2041" x="249.008567" y="371.031652" style="stroke: #000000; stroke-linejoin: bevel"/>
     <use xlink:href="#m5320ba2041" x="259.70529" y="369.126673" style="stroke: #000000; stroke-linejoin: bevel"/>
    </g>
   </g>
   <g id="line2d_21">
    <g clip-path="url(#pbec7ed5e72)">
     <use xlink:href="#m5320ba2041" x="532.999024" y="406.289147" style="stroke: #000000; stroke-linejoin: bevel"/>
     <use xlink:href="#m5320ba2041" x="542.565338" y="411.978191" style="stroke: #000000; stroke-linejoin: bevel"/>
     <use xlink:href="#m5320ba2041" x="529.145244" y="412.883652" style="stroke: #000000; stroke-linejoin: bevel"/>
     <use xlink:href="#m5320ba2041" x="540.494615" y="399.500576" style="stroke: #000000; stroke-linejoin: bevel"/>
     <use xlink:href="#m5320ba2041" x="518.102333" y="410.112833" style="stroke: #000000; stroke-linejoin: bevel"/>
     <use xlink:href="#m5320ba2041" x="509.248815" y="405.343067" style="stroke: #000000; stroke-linejoin: bevel"/>
     <use xlink:href="#m5320ba2041" x="515.101254" y="404.135184" style="stroke: #000000; stroke-linejoin: bevel"/>
     <use xlink:href="#m5320ba2041" x="513.726592" y="405.097532" style="stroke: #000000; stroke-linejoin: bevel"/>
     <use xlink:href="#m5320ba2041" x="517.313243" y="401.82988" style="stroke: #000000; stroke-linejoin: bevel"/>
     <use xlink:href="#m5320ba2041" x="504.415433" y="391.116981" style="stroke: #000000; stroke-linejoin: bevel"/>
     <use xlink:href="#m5320ba2041" x="479.55869" y="400.060007" style="stroke: #000000; stroke-linejoin: bevel"/>
     <use xlink:href="#m5320ba2041" x="512.060542" y="391.275878" style="stroke: #000000; stroke-linejoin: bevel"/>
     <use xlink:href="#m5320ba2041" x="493.265696" y="394.189599" style="stroke: #000000; stroke-linejoin: bevel"/>
     <use xlink:href="#m5320ba2041" x="470.35901" y="395.132302" style="stroke: #000000; stroke-linejoin: bevel"/>
     <use xlink:href="#m5320ba2041" x="488.049726" y="398.064627" style="stroke: #000000; stroke-linejoin: bevel"/>
     <use xlink:href="#m5320ba2041" x="482.2922" y="391.312129" style="stroke: #000000; stroke-linejoin: bevel"/>
     <use xlink:href="#m5320ba2041" x="442.053302" y="396.997562" style="stroke: #000000; stroke-linejoin: bevel"/>
     <use xlink:href="#m5320ba2041" x="453.614981" y="388.779754" style="stroke: #000000; stroke-linejoin: bevel"/>
     <use xlink:href="#m5320ba2041" x="458.372573" y="402.156757" style="stroke: #000000; stroke-linejoin: bevel"/>
     <use xlink:href="#m5320ba2041" x="449.909363" y="393.591445" style="stroke: #000000; stroke-linejoin: bevel"/>
     <use xlink:href="#m5320ba2041" x="442.235578" y="384.181785" style="stroke: #000000; stroke-linejoin: bevel"/>
     <use xlink:href="#m5320ba2041" x="457.36928" y="388.086825" style="stroke: #000000; stroke-linejoin: bevel"/>
     <use xlink:href="#m5320ba2041" x="444.65335" y="386.540957" style="stroke: #000000; stroke-linejoin: bevel"/>
     <use xlink:href="#m5320ba2041" x="441.344246" y="385.174189" style="stroke: #000000; stroke-linejoin: bevel"/>
     <use xlink:href="#m5320ba2041" x="428.916181" y="383.740114" style="stroke: #000000; stroke-linejoin: bevel"/>
     <use xlink:href="#m5320ba2041" x="439.91465" y="385.624934" style="stroke: #000000; stroke-linejoin: bevel"/>
     <use xlink:href="#m5320ba2041" x="437.014333" y="374.399526" style="stroke: #000000; stroke-linejoin: bevel"/>
     <use xlink:href="#m5320ba2041" x="427.323909" y="373.468136" style="stroke: #000000; stroke-linejoin: bevel"/>
     <use xlink:href="#m5320ba2041" x="416.2372" y="385.90307" style="stroke: #000000; stroke-linejoin: bevel"/>
     <use xlink:href="#m5320ba2041" x="415.218583" y="383.224568" style="stroke: #000000; stroke-linejoin: bevel"/>
     <use xlink:href="#m5320ba2041" x="429.171807" y="374.995867" style="stroke: #000000; stroke-linejoin: bevel"/>
     <use xlink:href="#m5320ba2041" x="407.491639" y="364.81592" style="stroke: #000000; stroke-linejoin: bevel"/>
     <use xlink:href="#m5320ba2041" x="400.056779" y="378.378967" style="stroke: #000000; stroke-linejoin: bevel"/>
     <use xlink:href="#m5320ba2041" x="407.516919" y="382.22317" style="stroke: #000000; stroke-linejoin: bevel"/>
     <use xlink:href="#m5320ba2041" x="399.401449" y="372.014369" style="stroke: #000000; stroke-linejoin: bevel"/>
     <use xlink:href="#m5320ba2041" x="398.445756" y="378.278823" style="stroke: #000000; stroke-linejoin: bevel"/>
     <use xlink:href="#m5320ba2041" x="380.309232" y="373.583951" style="stroke: #000000; stroke-linejoin: bevel"/>
     <use xlink:href="#m5320ba2041" x="377.321313" y="365.291113" style="stroke: #000000; stroke-linejoin: bevel"/>
     <use xlink:href="#m5320ba2041" x="380.297462" y="364.414204" style="stroke: #000000; stroke-linejoin: bevel"/>
     <use xlink:href="#m5320ba2041" x="374.701232" y="371.586653" style="stroke: #000000; stroke-linejoin: bevel"/>
    </g>
   </g>
   <g id="line2d_22">
    <path d="M 98.997563 411.139836 
L 90.346192 409.203656 
L 93.183871 408.424906 
L 101.9929 402.847496 
L 105.022564 403.443507 
L 120.494282 405.020861 
L 110.457747 408.812632 
L 118.389405 399.350206 
L 134.415744 403.057736 
L 135.700943 396.141863 
L 131.593731 394.923377 
L 145.904286 393.635782 
L 147.17746 396.987508 
L 151.243454 398.370167 
L 162.482348 393.923069 
L 152.016354 394.518468 
L 167.451539 394.56923 
L 164.097813 393.903792 
L 177.962881 393.394101 
L 180.457722 392.443543 
L 181.666144 390.675472 
L 177.888957 386.109793 
L 181.013378 384.960699 
L 185.13197 387.049962 
L 189.952263 386.145104 
L 190.529965 388.000134 
L 201.431567 387.746253 
L 196.031945 383.655893 
L 207.833154 382.586514 
L 211.762756 381.862216 
L 215.287494 378.391971 
L 216.122891 376.929321 
L 223.30603 373.873957 
L 222.469137 372.643218 
L 222.959538 372.49709 
L 219.935582 373.178205 
L 230.838031 375.176772 
L 240.311811 370.460688 
L 247.530094 369.889389 
" clip-path="url(#pbec7ed5e72)" style="fill: none; stroke-dasharray: 5.55,2.4; stroke-dashoffset: 0; stroke: #1f77b4; stroke-opacity: 0.7; stroke-width: 1.5"/>
   </g>
   <g id="line2d_23">
    <path d="M 543.141265 412.136418 
L 542.142446 411.326 
L 534.025482 408.281904 
L 541.059536 401.97536 
L 551.155615 402.368044 
L 521.752955 402.264551 
L 505.970948 404.243427 
L 519.333592 401.8424 
L 520.054218 387.923821 
L 530.98898 373.33172 
L 509.20599 377.675856 
L 484.849192 362.725786 
L 384.474892 318.187376 
L 315.788522 305.76385 
L 296.525196 278.613495 
L 265.061751 273.090359 
L 286.682276 294.407227 
L 306.51194 301.085363 
L 315.214017 275.788902 
L 403.418521 280.73392 
L 359.600549 299.421759 
L 323.980016 253.471655 
L 267.511153 298.615725 
L 251.341884 269.748904 
L 294.074543 290.027897 
L 331.228459 342.945147 
L 327.659943 291.350502 
L 319.322111 295.393569 
L 329.015655 303.056728 
L 343.456582 260.782575 
L 345.040741 265.63916 
L 352.644397 306.01566 
L 288.758258 294.915227 
L 305.650515 287.728137 
L 298.679624 312.363044 
L 312.889594 308.729057 
L 292.297503 281.608915 
L 307.835372 311.762864 
L 351.961934 282.016111 
" clip-path="url(#pbec7ed5e72)" style="fill: none; stroke-dasharray: 5.55,2.4; stroke-dashoffset: 0; stroke: #1f77b4; stroke-opacity: 0.7; stroke-width: 1.5"/>
   </g>
   <g id="line2d_24">
    <defs>
     <path id="ma1d4afcb17" d="M 0 5 
C 1.326016 5 2.597899 4.473168 3.535534 3.535534 
C 4.473168 2.597899 5 1.326016 5 0 
C 5 -1.326016 4.473168 -2.597899 3.535534 -3.535534 
C 2.597899 -4.473168 1.326016 -5 0 -5 
C -1.326016 -5 -2.597899 -4.473168 -3.535534 -3.535534 
C -4.473168 -2.597899 -5 -1.326016 -5 0 
C -5 1.326016 -4.473168 2.597899 -3.535534 3.535534 
C -2.597899 4.473168 -1.326016 5 0 5 
z
" style="stroke: #1f77b4; stroke-opacity: 0.8"/>
    </defs>
    <g clip-path="url(#pbec7ed5e72)">
     <use xlink:href="#ma1d4afcb17" x="253.536054" y="368.787492" style="fill: #1f77b4; fill-opacity: 0.8; stroke: #1f77b4; stroke-opacity: 0.8"/>
     <use xlink:href="#ma1d4afcb17" x="348.126022" y="278.624912" style="fill: #1f77b4; fill-opacity: 0.8; stroke: #1f77b4; stroke-opacity: 0.8"/>
    </g>
   </g>
   <g id="line2d_25">
    <path d="M 98.997563 411.139836 
L 90.346192 409.203656 
L 93.183871 408.424906 
L 101.9929 402.847496 
L 105.022564 403.443507 
L 120.494282 405.020861 
L 110.457747 408.812632 
L 118.389405 399.350206 
L 134.415744 403.057736 
L 135.700943 396.141863 
L 131.593731 394.923377 
L 145.904286 393.635782 
L 147.17746 396.987508 
L 151.243454 398.370167 
L 162.482079 393.92318 
L 152.023577 394.518061 
L 167.448557 394.568194 
L 164.092791 393.902241 
L 177.958254 393.393006 
L 180.455516 392.443145 
L 181.665966 390.675412 
L 177.889978 386.110331 
L 181.01373 384.96108 
L 185.132165 387.049957 
L 189.951857 386.145254 
L 190.52987 387.999727 
L 201.429101 387.745912 
L 196.033393 383.656702 
L 207.824104 382.588174 
L 211.758225 381.863217 
L 215.285315 378.393609 
L 216.122563 376.930437 
L 223.306262 373.874876 
L 222.470385 372.643708 
L 222.960891 372.49723 
L 219.937294 373.177836 
L 230.8374 375.175798 
L 240.307673 370.462429 
L 247.52637 369.890073 
" clip-path="url(#pbec7ed5e72)" style="fill: none; stroke-dasharray: 5.55,2.4; stroke-dashoffset: 0; stroke: #ff7f0e; stroke-opacity: 0.7; stroke-width: 1.5"/>
   </g>
   <g id="line2d_26">
    <path d="M 543.141265 412.136418 
L 542.142446 411.326 
L 534.025482 408.281904 
L 541.059536 401.97536 
L 551.155615 402.368044 
L 521.752955 402.264551 
L 505.970948 404.243427 
L 519.333592 401.8424 
L 520.054218 387.923821 
L 530.98898 373.33172 
L 509.20599 377.675856 
L 484.849192 362.725786 
L 384.474892 318.187376 
L 315.803504 305.757291 
L 296.626225 278.537539 
L 265.248584 272.908394 
L 286.710222 294.36116 
L 306.55483 301.044791 
L 315.238367 275.765857 
L 403.434486 280.71784 
L 359.628708 299.40618 
L 324.019076 253.452615 
L 267.517893 298.609854 
L 251.384675 269.681609 
L 294.078622 290.019603 
L 331.271733 342.895273 
L 327.701467 291.331082 
L 319.688336 295.152334 
L 329.054494 303.025296 
L 343.46985 260.772349 
L 345.053383 265.626376 
L 352.650701 306.00976 
L 288.785147 294.899842 
L 305.664381 287.71087 
L 298.697291 312.341747 
L 312.911796 308.709179 
L 292.388503 281.503106 
L 307.909185 311.606694 
L 351.976055 281.995139 
" clip-path="url(#pbec7ed5e72)" style="fill: none; stroke-dasharray: 5.55,2.4; stroke-dashoffset: 0; stroke: #ff7f0e; stroke-opacity: 0.7; stroke-width: 1.5"/>
   </g>
   <g id="line2d_27">
    <defs>
     <path id="me1c1d5e99c" d="M 0 -5 
L -1.12257 -1.545085 
L -4.755283 -1.545085 
L -1.816356 0.59017 
L -2.938926 4.045085 
L -0 1.90983 
L 2.938926 4.045085 
L 1.816356 0.59017 
L 4.755283 -1.545085 
L 1.12257 -1.545085 
z
" style="stroke: #ff7f0e; stroke-opacity: 0.8; stroke-linejoin: bevel"/>
    </defs>
    <g clip-path="url(#pbec7ed5e72)">
     <use xlink:href="#me1c1d5e99c" x="253.532393" y="368.788145" style="fill: #ff7f0e; fill-opacity: 0.8; stroke: #ff7f0e; stroke-opacity: 0.8; stroke-linejoin: bevel"/>
     <use xlink:href="#me1c1d5e99c" x="348.139647" y="278.603508" style="fill: #ff7f0e; fill-opacity: 0.8; stroke: #ff7f0e; stroke-opacity: 0.8; stroke-linejoin: bevel"/>
    </g>
   </g>
   <g id="line2d_28">
    <path d="M 98.997563 411.139836 
L 90.346192 409.203656 
L 93.183871 408.424906 
L 101.9929 402.847496 
L 105.022564 403.443507 
L 120.494282 405.020861 
L 110.457747 408.812632 
L 118.389405 399.350206 
L 134.415744 403.057736 
L 135.700943 396.141863 
L 131.593731 394.923377 
L 145.904286 393.635782 
L 147.17746 396.987508 
L 151.243454 398.370167 
L 162.482079 393.92318 
L 152.023577 394.518061 
L 167.448557 394.568194 
L 164.092791 393.902241 
L 177.958254 393.393006 
L 180.455516 392.443145 
L 181.665966 390.675412 
L 177.942182 386.135335 
L 181.053451 384.986356 
L 185.169211 387.0863 
L 189.974737 386.172523 
L 190.132445 388.045798 
L 200.521203 387.828418 
L 195.627483 383.675999 
L 207.455204 382.585017 
L 211.613395 381.861104 
L 215.269835 378.391482 
L 216.092759 376.899487 
L 223.332732 373.850343 
L 222.531567 372.629215 
L 223.014591 372.476663 
L 219.981985 373.160616 
L 230.873918 375.16251 
L 240.333917 370.452766 
L 247.542214 369.883302 
" clip-path="url(#pbec7ed5e72)" style="fill: none; stroke-dasharray: 5.55,2.4; stroke-dashoffset: 0; stroke: #2ca02c; stroke-opacity: 0.7; stroke-width: 1.5"/>
   </g>
   <g id="line2d_29">
    <path d="M 543.141265 412.136418 
L 542.142446 411.326 
L 534.025482 408.281904 
L 541.059536 401.97536 
L 551.155615 402.368044 
L 521.752955 402.264551 
L 505.970948 404.243427 
L 519.333592 401.8424 
L 520.054218 387.923821 
L 530.98898 373.33172 
L 509.20599 377.675856 
L 484.849192 362.725786 
L 384.474892 318.187376 
L 315.803504 305.757291 
L 296.626225 278.537539 
L 265.248584 272.908394 
L 286.710222 294.36116 
L 306.55483 301.044791 
L 315.238367 275.765857 
L 403.434486 280.71784 
L 359.628708 299.40618 
L 290.687601 269.106486 
L 252.451348 306.548017 
L 249.711277 270.474856 
L 294.001337 290.06307 
L 331.391994 342.870297 
L 327.706783 291.341664 
L 319.651063 295.176066 
L 329.057136 303.028486 
L 343.472314 260.771421 
L 345.057674 265.626381 
L 362.915449 302.156969 
L 289.336618 294.681347 
L 305.691303 287.699784 
L 298.697389 312.341047 
L 312.908937 308.709467 
L 292.388874 281.50048 
L 307.904832 311.609957 
L 345.446641 287.117092 
" clip-path="url(#pbec7ed5e72)" style="fill: none; stroke-dasharray: 5.55,2.4; stroke-dashoffset: 0; stroke: #2ca02c; stroke-opacity: 0.7; stroke-width: 1.5"/>
   </g>
   <g id="line2d_30">
    <defs>
     <path id="me0be5aa7d5" d="M -5 5 
L 5 5 
L 5 -5 
L -5 -5 
z
" style="stroke: #2ca02c; stroke-opacity: 0.8; stroke-linejoin: miter"/>
    </defs>
    <g clip-path="url(#pbec7ed5e72)">
     <use xlink:href="#me0be5aa7d5" x="253.55089" y="368.78141" style="fill: #2ca02c; fill-opacity: 0.8; stroke: #2ca02c; stroke-opacity: 0.8; stroke-linejoin: miter"/>
     <use xlink:href="#me0be5aa7d5" x="341.317539" y="283.872437" style="fill: #2ca02c; fill-opacity: 0.8; stroke: #2ca02c; stroke-opacity: 0.8; stroke-linejoin: miter"/>
    </g>
   </g>
   <g id="patch_3">
    <path d="M 35.304688 561.6 
L 35.304688 7.2 
" style="fill: none; stroke: #000000; stroke-width: 0.8; stroke-linejoin: miter; stroke-linecap: square"/>
   </g>
   <g id="patch_4">
    <path d="M 593.304688 561.6 
L 593.304688 7.2 
" style="fill: none; stroke: #000000; stroke-width: 0.8; stroke-linejoin: miter; stroke-linecap: square"/>
   </g>
   <g id="patch_5">
    <path d="M 35.304688 561.6 
L 593.304688 561.6 
" style="fill: none; stroke: #000000; stroke-width: 0.8; stroke-linejoin: miter; stroke-linecap: square"/>
   </g>
   <g id="patch_6">
    <path d="M 35.304688 7.2 
L 593.304688 7.2 
" style="fill: none; stroke: #000000; stroke-width: 0.8; stroke-linejoin: miter; stroke-linecap: square"/>
   </g>
   <g id="legend_1">
    <g id="patch_7">
     <path d="M 432.9675 141.69625 
L 583.504688 141.69625 
Q 586.304688 141.69625 586.304688 138.89625 
L 586.304688 17 
Q 586.304688 14.2 583.504688 14.2 
L 432.9675 14.2 
Q 430.1675 14.2 430.1675 17 
L 430.1675 138.89625 
Q 430.1675 141.69625 432.9675 141.69625 
z
" style="fill: #ffffff; opacity: 0.8; stroke: #cccccc; stroke-linejoin: miter"/>
    </g>
    <g id="line2d_31">
     <g>
      <use xlink:href="#m3b7d5372ff" x="449.7675" y="25.537813" style="fill: #808080; stroke: #808080"/>
     </g>
    </g>
    <g id="text_19">
     <!-- $\mathbf{Z}_t$ -->
     <g transform="translate(474.9675 30.437813) scale(0.14 -0.14)">
      <defs>
       <path id="DejaVuSans-Bold-5a" d="M 359 4666 
L 4281 4666 
L 4281 3938 
L 1778 909 
L 4353 909 
L 4353 0 
L 288 0 
L 288 728 
L 2791 3756 
L 359 3756 
L 359 4666 
z
" transform="scale(0.015625)"/>
       <path id="DejaVuSans-Oblique-74" d="M 2706 3500 
L 2619 3053 
L 1472 3053 
L 1100 1153 
Q 1081 1047 1072 975 
Q 1063 903 1063 863 
Q 1063 663 1183 572 
Q 1303 481 1569 481 
L 2150 481 
L 2053 0 
L 1503 0 
Q 991 0 739 200 
Q 488 400 488 806 
Q 488 878 497 964 
Q 506 1050 525 1153 
L 897 3053 
L 409 3053 
L 500 3500 
L 978 3500 
L 1172 4494 
L 1747 4494 
L 1556 3500 
L 2706 3500 
z
" transform="scale(0.015625)"/>
      </defs>
      <use xlink:href="#DejaVuSans-Bold-5a" transform="translate(0 0.09375)"/>
      <use xlink:href="#DejaVuSans-Oblique-74" transform="translate(73.466797 -16.3125) scale(0.7)"/>
     </g>
    </g>
    <g id="line2d_32">
     <g>
      <use xlink:href="#m5320ba2041" x="449.7675" y="46.087188" style="stroke: #000000; stroke-linejoin: bevel"/>
     </g>
    </g>
    <g id="text_20">
     <!-- $\mathbf{x}_t$ -->
     <g transform="translate(474.9675 50.987188) scale(0.14 -0.14)">
      <defs>
       <path id="DejaVuSans-Bold-78" d="M 1422 1791 
L 159 3500 
L 1344 3500 
L 2059 2463 
L 2784 3500 
L 3969 3500 
L 2706 1797 
L 4031 0 
L 2847 0 
L 2059 1106 
L 1281 0 
L 97 0 
L 1422 1791 
z
" transform="scale(0.015625)"/>
      </defs>
      <use xlink:href="#DejaVuSans-Bold-78" transform="translate(0 0.3125)"/>
      <use xlink:href="#DejaVuSans-Oblique-74" transform="translate(65.458984 -16.09375) scale(0.7)"/>
     </g>
    </g>
    <g id="line2d_33">
     <g>
      <use xlink:href="#m5320ba2041" x="449.7675" y="66.636563" style="stroke: #000000; stroke-linejoin: bevel"/>
     </g>
    </g>
    <g id="text_21">
     <!-- $\mathbf{x}_t$ -->
     <g transform="translate(474.9675 71.536563) scale(0.14 -0.14)">
      <use xlink:href="#DejaVuSans-Bold-78" transform="translate(0 0.3125)"/>
      <use xlink:href="#DejaVuSans-Oblique-74" transform="translate(65.458984 -16.09375) scale(0.7)"/>
     </g>
    </g>
    <g id="line2d_34">
     <g>
      <use xlink:href="#ma1d4afcb17" x="449.7675" y="87.185938" style="fill: #1f77b4; fill-opacity: 0.8; stroke: #1f77b4; stroke-opacity: 0.8"/>
     </g>
    </g>
    <g id="text_22">
     <!-- JPDA estimate -->
     <g transform="translate(474.9675 92.085938) scale(0.14 -0.14)">
      <defs>
       <path id="DejaVuSans-4a" d="M 628 4666 
L 1259 4666 
L 1259 325 
Q 1259 -519 939 -900 
Q 619 -1281 -91 -1281 
L -331 -1281 
L -331 -750 
L -134 -750 
Q 284 -750 456 -515 
Q 628 -281 628 325 
L 628 4666 
z
" transform="scale(0.015625)"/>
       <path id="DejaVuSans-50" d="M 1259 4147 
L 1259 2394 
L 2053 2394 
Q 2494 2394 2734 2622 
Q 2975 2850 2975 3272 
Q 2975 3691 2734 3919 
Q 2494 4147 2053 4147 
L 1259 4147 
z
M 628 4666 
L 2053 4666 
Q 2838 4666 3239 4311 
Q 3641 3956 3641 3272 
Q 3641 2581 3239 2228 
Q 2838 1875 2053 1875 
L 1259 1875 
L 1259 0 
L 628 0 
L 628 4666 
z
" transform="scale(0.015625)"/>
       <path id="DejaVuSans-44" d="M 1259 4147 
L 1259 519 
L 2022 519 
Q 2988 519 3436 956 
Q 3884 1394 3884 2338 
Q 3884 3275 3436 3711 
Q 2988 4147 2022 4147 
L 1259 4147 
z
M 628 4666 
L 1925 4666 
Q 3281 4666 3915 4102 
Q 4550 3538 4550 2338 
Q 4550 1131 3912 565 
Q 3275 0 1925 0 
L 628 0 
L 628 4666 
z
" transform="scale(0.015625)"/>
       <path id="DejaVuSans-41" d="M 2188 4044 
L 1331 1722 
L 3047 1722 
L 2188 4044 
z
M 1831 4666 
L 2547 4666 
L 4325 0 
L 3669 0 
L 3244 1197 
L 1141 1197 
L 716 0 
L 50 0 
L 1831 4666 
z
" transform="scale(0.015625)"/>
       <path id="DejaVuSans-20" transform="scale(0.015625)"/>
       <path id="DejaVuSans-65" d="M 3597 1894 
L 3597 1613 
L 953 1613 
Q 991 1019 1311 708 
Q 1631 397 2203 397 
Q 2534 397 2845 478 
Q 3156 559 3463 722 
L 3463 178 
Q 3153 47 2828 -22 
Q 2503 -91 2169 -91 
Q 1331 -91 842 396 
Q 353 884 353 1716 
Q 353 2575 817 3079 
Q 1281 3584 2069 3584 
Q 2775 3584 3186 3129 
Q 3597 2675 3597 1894 
z
M 3022 2063 
Q 3016 2534 2758 2815 
Q 2500 3097 2075 3097 
Q 1594 3097 1305 2825 
Q 1016 2553 972 2059 
L 3022 2063 
z
" transform="scale(0.015625)"/>
       <path id="DejaVuSans-73" d="M 2834 3397 
L 2834 2853 
Q 2591 2978 2328 3040 
Q 2066 3103 1784 3103 
Q 1356 3103 1142 2972 
Q 928 2841 928 2578 
Q 928 2378 1081 2264 
Q 1234 2150 1697 2047 
L 1894 2003 
Q 2506 1872 2764 1633 
Q 3022 1394 3022 966 
Q 3022 478 2636 193 
Q 2250 -91 1575 -91 
Q 1294 -91 989 -36 
Q 684 19 347 128 
L 347 722 
Q 666 556 975 473 
Q 1284 391 1588 391 
Q 1994 391 2212 530 
Q 2431 669 2431 922 
Q 2431 1156 2273 1281 
Q 2116 1406 1581 1522 
L 1381 1569 
Q 847 1681 609 1914 
Q 372 2147 372 2553 
Q 372 3047 722 3315 
Q 1072 3584 1716 3584 
Q 2034 3584 2315 3537 
Q 2597 3491 2834 3397 
z
" transform="scale(0.015625)"/>
       <path id="DejaVuSans-74" d="M 1172 4494 
L 1172 3500 
L 2356 3500 
L 2356 3053 
L 1172 3053 
L 1172 1153 
Q 1172 725 1289 603 
Q 1406 481 1766 481 
L 2356 481 
L 2356 0 
L 1766 0 
Q 1100 0 847 248 
Q 594 497 594 1153 
L 594 3053 
L 172 3053 
L 172 3500 
L 594 3500 
L 594 4494 
L 1172 4494 
z
" transform="scale(0.015625)"/>
       <path id="DejaVuSans-69" d="M 603 3500 
L 1178 3500 
L 1178 0 
L 603 0 
L 603 3500 
z
M 603 4863 
L 1178 4863 
L 1178 4134 
L 603 4134 
L 603 4863 
z
" transform="scale(0.015625)"/>
       <path id="DejaVuSans-6d" d="M 3328 2828 
Q 3544 3216 3844 3400 
Q 4144 3584 4550 3584 
Q 5097 3584 5394 3201 
Q 5691 2819 5691 2113 
L 5691 0 
L 5113 0 
L 5113 2094 
Q 5113 2597 4934 2840 
Q 4756 3084 4391 3084 
Q 3944 3084 3684 2787 
Q 3425 2491 3425 1978 
L 3425 0 
L 2847 0 
L 2847 2094 
Q 2847 2600 2669 2842 
Q 2491 3084 2119 3084 
Q 1678 3084 1418 2786 
Q 1159 2488 1159 1978 
L 1159 0 
L 581 0 
L 581 3500 
L 1159 3500 
L 1159 2956 
Q 1356 3278 1631 3431 
Q 1906 3584 2284 3584 
Q 2666 3584 2933 3390 
Q 3200 3197 3328 2828 
z
" transform="scale(0.015625)"/>
       <path id="DejaVuSans-61" d="M 2194 1759 
Q 1497 1759 1228 1600 
Q 959 1441 959 1056 
Q 959 750 1161 570 
Q 1363 391 1709 391 
Q 2188 391 2477 730 
Q 2766 1069 2766 1631 
L 2766 1759 
L 2194 1759 
z
M 3341 1997 
L 3341 0 
L 2766 0 
L 2766 531 
Q 2569 213 2275 61 
Q 1981 -91 1556 -91 
Q 1019 -91 701 211 
Q 384 513 384 1019 
Q 384 1609 779 1909 
Q 1175 2209 1959 2209 
L 2766 2209 
L 2766 2266 
Q 2766 2663 2505 2880 
Q 2244 3097 1772 3097 
Q 1472 3097 1187 3025 
Q 903 2953 641 2809 
L 641 3341 
Q 956 3463 1253 3523 
Q 1550 3584 1831 3584 
Q 2591 3584 2966 3190 
Q 3341 2797 3341 1997 
z
" transform="scale(0.015625)"/>
      </defs>
      <use xlink:href="#DejaVuSans-4a"/>
      <use xlink:href="#DejaVuSans-50" x="29.492188"/>
      <use xlink:href="#DejaVuSans-44" x="89.794922"/>
      <use xlink:href="#DejaVuSans-41" x="165.046875"/>
      <use xlink:href="#DejaVuSans-20" x="233.455078"/>
      <use xlink:href="#DejaVuSans-65" x="265.242188"/>
      <use xlink:href="#DejaVuSans-73" x="326.765625"/>
      <use xlink:href="#DejaVuSans-74" x="378.865234"/>
      <use xlink:href="#DejaVuSans-69" x="418.074219"/>
      <use xlink:href="#DejaVuSans-6d" x="445.857422"/>
      <use xlink:href="#DejaVuSans-61" x="543.269531"/>
      <use xlink:href="#DejaVuSans-74" x="604.548828"/>
      <use xlink:href="#DejaVuSans-65" x="643.757812"/>
     </g>
    </g>
    <g id="line2d_35">
     <g>
      <use xlink:href="#me1c1d5e99c" x="449.7675" y="107.735313" style="fill: #ff7f0e; fill-opacity: 0.8; stroke: #ff7f0e; stroke-opacity: 0.8; stroke-linejoin: bevel"/>
     </g>
    </g>
    <g id="text_23">
     <!-- JPDA* estimate -->
     <g transform="translate(474.9675 112.635313) scale(0.14 -0.14)">
      <defs>
       <path id="DejaVuSans-2a" d="M 3009 3897 
L 1888 3291 
L 3009 2681 
L 2828 2375 
L 1778 3009 
L 1778 1831 
L 1422 1831 
L 1422 3009 
L 372 2375 
L 191 2681 
L 1313 3291 
L 191 3897 
L 372 4206 
L 1422 3572 
L 1422 4750 
L 1778 4750 
L 1778 3572 
L 2828 4206 
L 3009 3897 
z
" transform="scale(0.015625)"/>
      </defs>
      <use xlink:href="#DejaVuSans-4a"/>
      <use xlink:href="#DejaVuSans-50" x="29.492188"/>
      <use xlink:href="#DejaVuSans-44" x="89.794922"/>
      <use xlink:href="#DejaVuSans-41" x="165.046875"/>
      <use xlink:href="#DejaVuSans-2a" x="233.455078"/>
      <use xlink:href="#DejaVuSans-20" x="283.455078"/>
      <use xlink:href="#DejaVuSans-65" x="315.242188"/>
      <use xlink:href="#DejaVuSans-73" x="376.765625"/>
      <use xlink:href="#DejaVuSans-74" x="428.865234"/>
      <use xlink:href="#DejaVuSans-69" x="468.074219"/>
      <use xlink:href="#DejaVuSans-6d" x="495.857422"/>
      <use xlink:href="#DejaVuSans-61" x="593.269531"/>
      <use xlink:href="#DejaVuSans-74" x="654.548828"/>
      <use xlink:href="#DejaVuSans-65" x="693.757812"/>
     </g>
    </g>
    <g id="line2d_36">
     <g>
      <use xlink:href="#me0be5aa7d5" x="449.7675" y="128.284688" style="fill: #2ca02c; fill-opacity: 0.8; stroke: #2ca02c; stroke-opacity: 0.8; stroke-linejoin: miter"/>
     </g>
    </g>
    <g id="text_24">
     <!-- Ours estimate -->
     <g transform="translate(474.9675 133.184688) scale(0.14 -0.14)">
      <defs>
       <path id="DejaVuSans-4f" d="M 2522 4238 
Q 1834 4238 1429 3725 
Q 1025 3213 1025 2328 
Q 1025 1447 1429 934 
Q 1834 422 2522 422 
Q 3209 422 3611 934 
Q 4013 1447 4013 2328 
Q 4013 3213 3611 3725 
Q 3209 4238 2522 4238 
z
M 2522 4750 
Q 3503 4750 4090 4092 
Q 4678 3434 4678 2328 
Q 4678 1225 4090 567 
Q 3503 -91 2522 -91 
Q 1538 -91 948 565 
Q 359 1222 359 2328 
Q 359 3434 948 4092 
Q 1538 4750 2522 4750 
z
" transform="scale(0.015625)"/>
       <path id="DejaVuSans-75" d="M 544 1381 
L 544 3500 
L 1119 3500 
L 1119 1403 
Q 1119 906 1312 657 
Q 1506 409 1894 409 
Q 2359 409 2629 706 
Q 2900 1003 2900 1516 
L 2900 3500 
L 3475 3500 
L 3475 0 
L 2900 0 
L 2900 538 
Q 2691 219 2414 64 
Q 2138 -91 1772 -91 
Q 1169 -91 856 284 
Q 544 659 544 1381 
z
M 1991 3584 
L 1991 3584 
z
" transform="scale(0.015625)"/>
       <path id="DejaVuSans-72" d="M 2631 2963 
Q 2534 3019 2420 3045 
Q 2306 3072 2169 3072 
Q 1681 3072 1420 2755 
Q 1159 2438 1159 1844 
L 1159 0 
L 581 0 
L 581 3500 
L 1159 3500 
L 1159 2956 
Q 1341 3275 1631 3429 
Q 1922 3584 2338 3584 
Q 2397 3584 2469 3576 
Q 2541 3569 2628 3553 
L 2631 2963 
z
" transform="scale(0.015625)"/>
      </defs>
      <use xlink:href="#DejaVuSans-4f"/>
      <use xlink:href="#DejaVuSans-75" x="78.710938"/>
      <use xlink:href="#DejaVuSans-72" x="142.089844"/>
      <use xlink:href="#DejaVuSans-73" x="183.203125"/>
      <use xlink:href="#DejaVuSans-20" x="235.302734"/>
      <use xlink:href="#DejaVuSans-65" x="267.089844"/>
      <use xlink:href="#DejaVuSans-73" x="328.613281"/>
      <use xlink:href="#DejaVuSans-74" x="380.712891"/>
      <use xlink:href="#DejaVuSans-69" x="419.921875"/>
      <use xlink:href="#DejaVuSans-6d" x="447.705078"/>
      <use xlink:href="#DejaVuSans-61" x="545.117188"/>
      <use xlink:href="#DejaVuSans-74" x="606.396484"/>
      <use xlink:href="#DejaVuSans-65" x="645.605469"/>
     </g>
    </g>
   </g>
  </g>
 </g>
 <defs>
  <clipPath id="pbec7ed5e72">
   <rect x="35.304688" y="7.2" width="558" height="554.4"/>
  </clipPath>
 </defs>
</svg>
