<?xml version="1.0" encoding="utf-8" standalone="no"?>
<!DOCTYPE svg PUBLIC "-//W3C//DTD SVG 1.1//EN"
  "http://www.w3.org/Graphics/SVG/1.1/DTD/svg11.dtd">
<svg xmlns:xlink="http://www.w3.org/1999/xlink" width="602.36289pt" height="585.478125pt" viewBox="0 0 602.36289 585.478125" xmlns="http://www.w3.org/2000/svg" version="1.1">
 <metadata>
  <rdf:RDF xmlns:dc="http://purl.org/dc/elements/1.1/" xmlns:cc="http://creativecommons.org/ns#" xmlns:rdf="http://www.w3.org/1999/02/22-rdf-syntax-ns#">
   <cc:Work>
    <dc:type rdf:resource="http://purl.org/dc/dcmitype/StillImage"/>
    <dc:date>2024-05-09T12:55:45.674181</dc:date>
    <dc:format>image/svg+xml</dc:format>
    <dc:creator>
     <cc:Agent>
      <dc:title>Matplotlib v3.8.0, https://matplotlib.org/</dc:title>
     </cc:Agent>
    </dc:creator>
   </cc:Work>
  </rdf:RDF>
 </metadata>
 <defs>
  <style type="text/css">*{stroke-linejoin: round; stroke-linecap: butt}</style>
 </defs>
 <g id="figure_1">
  <g id="patch_1">
   <path d="M 0 585.478125 
L 602.36289 585.478125 
L 602.36289 0 
L 0 0 
z
" style="fill: #ffffff"/>
  </g>
  <g id="axes_1">
   <g id="patch_2">
    <path d="M 35.304688 561.6 
L 593.304688 561.6 
L 593.304688 7.2 
L 35.304688 7.2 
z
" style="fill: #ffffff"/>
   </g>
   <g id="matplotlib.axis_1">
    <g id="xtick_1">
     <g id="line2d_1">
      <defs>
       <path id="m995b233a49" d="M 0 0 
L 0 3.5 
" style="stroke: #000000; stroke-width: 0.8"/>
      </defs>
      <g>
       <use xlink:href="#m995b233a49" x="42.990235" y="561.6" style="stroke: #000000; stroke-width: 0.8"/>
      </g>
     </g>
     <g id="text_1">
      <!-- 60 -->
      <g transform="translate(36.627735 576.198438) scale(0.1 -0.1)">
       <defs>
        <path id="DejaVuSans-36" d="M 2113 2584 
Q 1688 2584 1439 2293 
Q 1191 2003 1191 1497 
Q 1191 994 1439 701 
Q 1688 409 2113 409 
Q 2538 409 2786 701 
Q 3034 994 3034 1497 
Q 3034 2003 2786 2293 
Q 2538 2584 2113 2584 
z
M 3366 4563 
L 3366 3988 
Q 3128 4100 2886 4159 
Q 2644 4219 2406 4219 
Q 1781 4219 1451 3797 
Q 1122 3375 1075 2522 
Q 1259 2794 1537 2939 
Q 1816 3084 2150 3084 
Q 2853 3084 3261 2657 
Q 3669 2231 3669 1497 
Q 3669 778 3244 343 
Q 2819 -91 2113 -91 
Q 1303 -91 875 529 
Q 447 1150 447 2328 
Q 447 3434 972 4092 
Q 1497 4750 2381 4750 
Q 2619 4750 2861 4703 
Q 3103 4656 3366 4563 
z
" transform="scale(0.015625)"/>
        <path id="DejaVuSans-30" d="M 2034 4250 
Q 1547 4250 1301 3770 
Q 1056 3291 1056 2328 
Q 1056 1369 1301 889 
Q 1547 409 2034 409 
Q 2525 409 2770 889 
Q 3016 1369 3016 2328 
Q 3016 3291 2770 3770 
Q 2525 4250 2034 4250 
z
M 2034 4750 
Q 2819 4750 3233 4129 
Q 3647 3509 3647 2328 
Q 3647 1150 3233 529 
Q 2819 -91 2034 -91 
Q 1250 -91 836 529 
Q 422 1150 422 2328 
Q 422 3509 836 4129 
Q 1250 4750 2034 4750 
z
" transform="scale(0.015625)"/>
       </defs>
       <use xlink:href="#DejaVuSans-36"/>
       <use xlink:href="#DejaVuSans-30" x="63.623047"/>
      </g>
     </g>
    </g>
    <g id="xtick_2">
     <g id="line2d_2">
      <g>
       <use xlink:href="#m995b233a49" x="110.818848" y="561.6" style="stroke: #000000; stroke-width: 0.8"/>
      </g>
     </g>
     <g id="text_2">
      <!-- 70 -->
      <g transform="translate(104.456348 576.198438) scale(0.1 -0.1)">
       <defs>
        <path id="DejaVuSans-37" d="M 525 4666 
L 3525 4666 
L 3525 4397 
L 1831 0 
L 1172 0 
L 2766 4134 
L 525 4134 
L 525 4666 
z
" transform="scale(0.015625)"/>
       </defs>
       <use xlink:href="#DejaVuSans-37"/>
       <use xlink:href="#DejaVuSans-30" x="63.623047"/>
      </g>
     </g>
    </g>
    <g id="xtick_3">
     <g id="line2d_3">
      <g>
       <use xlink:href="#m995b233a49" x="178.647461" y="561.6" style="stroke: #000000; stroke-width: 0.8"/>
      </g>
     </g>
     <g id="text_3">
      <!-- 80 -->
      <g transform="translate(172.284961 576.198438) scale(0.1 -0.1)">
       <defs>
        <path id="DejaVuSans-38" d="M 2034 2216 
Q 1584 2216 1326 1975 
Q 1069 1734 1069 1313 
Q 1069 891 1326 650 
Q 1584 409 2034 409 
Q 2484 409 2743 651 
Q 3003 894 3003 1313 
Q 3003 1734 2745 1975 
Q 2488 2216 2034 2216 
z
M 1403 2484 
Q 997 2584 770 2862 
Q 544 3141 544 3541 
Q 544 4100 942 4425 
Q 1341 4750 2034 4750 
Q 2731 4750 3128 4425 
Q 3525 4100 3525 3541 
Q 3525 3141 3298 2862 
Q 3072 2584 2669 2484 
Q 3125 2378 3379 2068 
Q 3634 1759 3634 1313 
Q 3634 634 3220 271 
Q 2806 -91 2034 -91 
Q 1263 -91 848 271 
Q 434 634 434 1313 
Q 434 1759 690 2068 
Q 947 2378 1403 2484 
z
M 1172 3481 
Q 1172 3119 1398 2916 
Q 1625 2713 2034 2713 
Q 2441 2713 2670 2916 
Q 2900 3119 2900 3481 
Q 2900 3844 2670 4047 
Q 2441 4250 2034 4250 
Q 1625 4250 1398 4047 
Q 1172 3844 1172 3481 
z
" transform="scale(0.015625)"/>
       </defs>
       <use xlink:href="#DejaVuSans-38"/>
       <use xlink:href="#DejaVuSans-30" x="63.623047"/>
      </g>
     </g>
    </g>
    <g id="xtick_4">
     <g id="line2d_4">
      <g>
       <use xlink:href="#m995b233a49" x="246.476074" y="561.6" style="stroke: #000000; stroke-width: 0.8"/>
      </g>
     </g>
     <g id="text_4">
      <!-- 90 -->
      <g transform="translate(240.113574 576.198438) scale(0.1 -0.1)">
       <defs>
        <path id="DejaVuSans-39" d="M 703 97 
L 703 672 
Q 941 559 1184 500 
Q 1428 441 1663 441 
Q 2288 441 2617 861 
Q 2947 1281 2994 2138 
Q 2813 1869 2534 1725 
Q 2256 1581 1919 1581 
Q 1219 1581 811 2004 
Q 403 2428 403 3163 
Q 403 3881 828 4315 
Q 1253 4750 1959 4750 
Q 2769 4750 3195 4129 
Q 3622 3509 3622 2328 
Q 3622 1225 3098 567 
Q 2575 -91 1691 -91 
Q 1453 -91 1209 -44 
Q 966 3 703 97 
z
M 1959 2075 
Q 2384 2075 2632 2365 
Q 2881 2656 2881 3163 
Q 2881 3666 2632 3958 
Q 2384 4250 1959 4250 
Q 1534 4250 1286 3958 
Q 1038 3666 1038 3163 
Q 1038 2656 1286 2365 
Q 1534 2075 1959 2075 
z
" transform="scale(0.015625)"/>
       </defs>
       <use xlink:href="#DejaVuSans-39"/>
       <use xlink:href="#DejaVuSans-30" x="63.623047"/>
      </g>
     </g>
    </g>
    <g id="xtick_5">
     <g id="line2d_5">
      <g>
       <use xlink:href="#m995b233a49" x="314.304688" y="561.6" style="stroke: #000000; stroke-width: 0.8"/>
      </g>
     </g>
     <g id="text_5">
      <!-- 100 -->
      <g transform="translate(304.760938 576.198438) scale(0.1 -0.1)">
       <defs>
        <path id="DejaVuSans-31" d="M 794 531 
L 1825 531 
L 1825 4091 
L 703 3866 
L 703 4441 
L 1819 4666 
L 2450 4666 
L 2450 531 
L 3481 531 
L 3481 0 
L 794 0 
L 794 531 
z
" transform="scale(0.015625)"/>
       </defs>
       <use xlink:href="#DejaVuSans-31"/>
       <use xlink:href="#DejaVuSans-30" x="63.623047"/>
       <use xlink:href="#DejaVuSans-30" x="127.246094"/>
      </g>
     </g>
    </g>
    <g id="xtick_6">
     <g id="line2d_6">
      <g>
       <use xlink:href="#m995b233a49" x="382.133301" y="561.6" style="stroke: #000000; stroke-width: 0.8"/>
      </g>
     </g>
     <g id="text_6">
      <!-- 110 -->
      <g transform="translate(372.589551 576.198438) scale(0.1 -0.1)">
       <use xlink:href="#DejaVuSans-31"/>
       <use xlink:href="#DejaVuSans-31" x="63.623047"/>
       <use xlink:href="#DejaVuSans-30" x="127.246094"/>
      </g>
     </g>
    </g>
    <g id="xtick_7">
     <g id="line2d_7">
      <g>
       <use xlink:href="#m995b233a49" x="449.961914" y="561.6" style="stroke: #000000; stroke-width: 0.8"/>
      </g>
     </g>
     <g id="text_7">
      <!-- 120 -->
      <g transform="translate(440.418164 576.198438) scale(0.1 -0.1)">
       <defs>
        <path id="DejaVuSans-32" d="M 1228 531 
L 3431 531 
L 3431 0 
L 469 0 
L 469 531 
Q 828 903 1448 1529 
Q 2069 2156 2228 2338 
Q 2531 2678 2651 2914 
Q 2772 3150 2772 3378 
Q 2772 3750 2511 3984 
Q 2250 4219 1831 4219 
Q 1534 4219 1204 4116 
Q 875 4013 500 3803 
L 500 4441 
Q 881 4594 1212 4672 
Q 1544 4750 1819 4750 
Q 2544 4750 2975 4387 
Q 3406 4025 3406 3419 
Q 3406 3131 3298 2873 
Q 3191 2616 2906 2266 
Q 2828 2175 2409 1742 
Q 1991 1309 1228 531 
z
" transform="scale(0.015625)"/>
       </defs>
       <use xlink:href="#DejaVuSans-31"/>
       <use xlink:href="#DejaVuSans-32" x="63.623047"/>
       <use xlink:href="#DejaVuSans-30" x="127.246094"/>
      </g>
     </g>
    </g>
    <g id="xtick_8">
     <g id="line2d_8">
      <g>
       <use xlink:href="#m995b233a49" x="517.790527" y="561.6" style="stroke: #000000; stroke-width: 0.8"/>
      </g>
     </g>
     <g id="text_8">
      <!-- 130 -->
      <g transform="translate(508.246777 576.198438) scale(0.1 -0.1)">
       <defs>
        <path id="DejaVuSans-33" d="M 2597 2516 
Q 3050 2419 3304 2112 
Q 3559 1806 3559 1356 
Q 3559 666 3084 287 
Q 2609 -91 1734 -91 
Q 1441 -91 1130 -33 
Q 819 25 488 141 
L 488 750 
Q 750 597 1062 519 
Q 1375 441 1716 441 
Q 2309 441 2620 675 
Q 2931 909 2931 1356 
Q 2931 1769 2642 2001 
Q 2353 2234 1838 2234 
L 1294 2234 
L 1294 2753 
L 1863 2753 
Q 2328 2753 2575 2939 
Q 2822 3125 2822 3475 
Q 2822 3834 2567 4026 
Q 2313 4219 1838 4219 
Q 1578 4219 1281 4162 
Q 984 4106 628 3988 
L 628 4550 
Q 988 4650 1302 4700 
Q 1616 4750 1894 4750 
Q 2613 4750 3031 4423 
Q 3450 4097 3450 3541 
Q 3450 3153 3228 2886 
Q 3006 2619 2597 2516 
z
" transform="scale(0.015625)"/>
       </defs>
       <use xlink:href="#DejaVuSans-31"/>
       <use xlink:href="#DejaVuSans-33" x="63.623047"/>
       <use xlink:href="#DejaVuSans-30" x="127.246094"/>
      </g>
     </g>
    </g>
    <g id="xtick_9">
     <g id="line2d_9">
      <g>
       <use xlink:href="#m995b233a49" x="585.61914" y="561.6" style="stroke: #000000; stroke-width: 0.8"/>
      </g>
     </g>
     <g id="text_9">
      <!-- 140 -->
      <g transform="translate(576.07539 576.198438) scale(0.1 -0.1)">
       <defs>
        <path id="DejaVuSans-34" d="M 2419 4116 
L 825 1625 
L 2419 1625 
L 2419 4116 
z
M 2253 4666 
L 3047 4666 
L 3047 1625 
L 3713 1625 
L 3713 1100 
L 3047 1100 
L 3047 0 
L 2419 0 
L 2419 1100 
L 313 1100 
L 313 1709 
L 2253 4666 
z
" transform="scale(0.015625)"/>
       </defs>
       <use xlink:href="#DejaVuSans-31"/>
       <use xlink:href="#DejaVuSans-34" x="63.623047"/>
       <use xlink:href="#DejaVuSans-30" x="127.246094"/>
      </g>
     </g>
    </g>
   </g>
   <g id="matplotlib.axis_2">
    <g id="ytick_1">
     <g id="line2d_10">
      <defs>
       <path id="m91ad1eaeb1" d="M 0 0 
L -3.5 0 
" style="stroke: #000000; stroke-width: 0.8"/>
      </defs>
      <g>
       <use xlink:href="#m91ad1eaeb1" x="35.304688" y="553.964037" style="stroke: #000000; stroke-width: 0.8"/>
      </g>
     </g>
     <g id="text_10">
      <!-- −80 -->
      <g transform="translate(7.2 557.763256) scale(0.1 -0.1)">
       <defs>
        <path id="DejaVuSans-2212" d="M 678 2272 
L 4684 2272 
L 4684 1741 
L 678 1741 
L 678 2272 
z
" transform="scale(0.015625)"/>
       </defs>
       <use xlink:href="#DejaVuSans-2212"/>
       <use xlink:href="#DejaVuSans-38" x="83.789062"/>
       <use xlink:href="#DejaVuSans-30" x="147.412109"/>
      </g>
     </g>
    </g>
    <g id="ytick_2">
     <g id="line2d_11">
      <g>
       <use xlink:href="#m91ad1eaeb1" x="35.304688" y="486.573028" style="stroke: #000000; stroke-width: 0.8"/>
      </g>
     </g>
     <g id="text_11">
      <!-- −60 -->
      <g transform="translate(7.2 490.372246) scale(0.1 -0.1)">
       <use xlink:href="#DejaVuSans-2212"/>
       <use xlink:href="#DejaVuSans-36" x="83.789062"/>
       <use xlink:href="#DejaVuSans-30" x="147.412109"/>
      </g>
     </g>
    </g>
    <g id="ytick_3">
     <g id="line2d_12">
      <g>
       <use xlink:href="#m91ad1eaeb1" x="35.304688" y="419.182018" style="stroke: #000000; stroke-width: 0.8"/>
      </g>
     </g>
     <g id="text_12">
      <!-- −40 -->
      <g transform="translate(7.2 422.981237) scale(0.1 -0.1)">
       <use xlink:href="#DejaVuSans-2212"/>
       <use xlink:href="#DejaVuSans-34" x="83.789062"/>
       <use xlink:href="#DejaVuSans-30" x="147.412109"/>
      </g>
     </g>
    </g>
    <g id="ytick_4">
     <g id="line2d_13">
      <g>
       <use xlink:href="#m91ad1eaeb1" x="35.304688" y="351.791009" style="stroke: #000000; stroke-width: 0.8"/>
      </g>
     </g>
     <g id="text_13">
      <!-- −20 -->
      <g transform="translate(7.2 355.590228) scale(0.1 -0.1)">
       <use xlink:href="#DejaVuSans-2212"/>
       <use xlink:href="#DejaVuSans-32" x="83.789062"/>
       <use xlink:href="#DejaVuSans-30" x="147.412109"/>
      </g>
     </g>
    </g>
    <g id="ytick_5">
     <g id="line2d_14">
      <g>
       <use xlink:href="#m91ad1eaeb1" x="35.304688" y="284.4" style="stroke: #000000; stroke-width: 0.8"/>
      </g>
     </g>
     <g id="text_14">
      <!-- 0 -->
      <g transform="translate(21.942187 288.199219) scale(0.1 -0.1)">
       <use xlink:href="#DejaVuSans-30"/>
      </g>
     </g>
    </g>
    <g id="ytick_6">
     <g id="line2d_15">
      <g>
       <use xlink:href="#m91ad1eaeb1" x="35.304688" y="217.008991" style="stroke: #000000; stroke-width: 0.8"/>
      </g>
     </g>
     <g id="text_15">
      <!-- 20 -->
      <g transform="translate(15.579687 220.80821) scale(0.1 -0.1)">
       <use xlink:href="#DejaVuSans-32"/>
       <use xlink:href="#DejaVuSans-30" x="63.623047"/>
      </g>
     </g>
    </g>
    <g id="ytick_7">
     <g id="line2d_16">
      <g>
       <use xlink:href="#m91ad1eaeb1" x="35.304688" y="149.617982" style="stroke: #000000; stroke-width: 0.8"/>
      </g>
     </g>
     <g id="text_16">
      <!-- 40 -->
      <g transform="translate(15.579687 153.4172) scale(0.1 -0.1)">
       <use xlink:href="#DejaVuSans-34"/>
       <use xlink:href="#DejaVuSans-30" x="63.623047"/>
      </g>
     </g>
    </g>
    <g id="ytick_8">
     <g id="line2d_17">
      <g>
       <use xlink:href="#m91ad1eaeb1" x="35.304688" y="82.226972" style="stroke: #000000; stroke-width: 0.8"/>
      </g>
     </g>
     <g id="text_17">
      <!-- 60 -->
      <g transform="translate(15.579687 86.026191) scale(0.1 -0.1)">
       <use xlink:href="#DejaVuSans-36"/>
       <use xlink:href="#DejaVuSans-30" x="63.623047"/>
      </g>
     </g>
    </g>
    <g id="ytick_9">
     <g id="line2d_18">
      <g>
       <use xlink:href="#m91ad1eaeb1" x="35.304688" y="14.835963" style="stroke: #000000; stroke-width: 0.8"/>
      </g>
     </g>
     <g id="text_18">
      <!-- 80 -->
      <g transform="translate(15.579687 18.635182) scale(0.1 -0.1)">
       <use xlink:href="#DejaVuSans-38"/>
       <use xlink:href="#DejaVuSans-30" x="63.623047"/>
      </g>
     </g>
    </g>
   </g>
   <g id="line2d_19">
    <defs>
     <path id="m1de269c70e" d="M 0 0.45 
C 0.119341 0.45 0.233811 0.402585 0.318198 0.318198 
C 0.402585 0.233811 0.45 0.119341 0.45 0 
C 0.45 -0.119341 0.402585 -0.233811 0.318198 -0.318198 
C 0.233811 -0.402585 0.119341 -0.45 0 -0.45 
C -0.119341 -0.45 -0.233811 -0.402585 -0.318198 -0.318198 
C -0.402585 -0.233811 -0.45 -0.119341 -0.45 0 
C -0.45 0.119341 -0.402585 0.233811 -0.318198 0.318198 
C -0.233811 0.402585 -0.119341 0.45 0 0.45 
z
" style="stroke: #808080"/>
    </defs>
    <g clip-path="url(#p944dea1e42)">
     <use xlink:href="#m1de269c70e" x="172.566016" y="389.114047" style="fill: #808080; stroke: #808080"/>
     <use xlink:href="#m1de269c70e" x="452.426019" y="385.97827" style="fill: #808080; stroke: #808080"/>
     <use xlink:href="#m1de269c70e" x="182.199742" y="155.456502" style="fill: #808080; stroke: #808080"/>
     <use xlink:href="#m1de269c70e" x="406.000492" y="248.403203" style="fill: #808080; stroke: #808080"/>
     <use xlink:href="#m1de269c70e" x="419.262691" y="276.714859" style="fill: #808080; stroke: #808080"/>
     <use xlink:href="#m1de269c70e" x="324.5123" y="231.993992" style="fill: #808080; stroke: #808080"/>
     <use xlink:href="#m1de269c70e" x="230.222922" y="254.700937" style="fill: #808080; stroke: #808080"/>
     <use xlink:href="#m1de269c70e" x="259.07652" y="413.645056" style="fill: #808080; stroke: #808080"/>
     <use xlink:href="#m1de269c70e" x="311.419269" y="353.206637" style="fill: #808080; stroke: #808080"/>
     <use xlink:href="#m1de269c70e" x="498.260701" y="320.865612" style="fill: #808080; stroke: #808080"/>
     <use xlink:href="#m1de269c70e" x="257.411373" y="238.098932" style="fill: #808080; stroke: #808080"/>
     <use xlink:href="#m1de269c70e" x="569.006799" y="409.675368" style="fill: #808080; stroke: #808080"/>
     <use xlink:href="#m1de269c70e" x="289.203857" y="416.20416" style="fill: #808080; stroke: #808080"/>
     <use xlink:href="#m1de269c70e" x="582.395921" y="196.853962" style="fill: #808080; stroke: #808080"/>
     <use xlink:href="#m1de269c70e" x="359.991825" y="247.430001" style="fill: #808080; stroke: #808080"/>
     <use xlink:href="#m1de269c70e" x="41.476232" y="244.524698" style="fill: #808080; stroke: #808080"/>
     <use xlink:href="#m1de269c70e" x="335.827173" y="269.789673" style="fill: #808080; stroke: #808080"/>
     <use xlink:href="#m1de269c70e" x="404.729001" y="242.345699" style="fill: #808080; stroke: #808080"/>
    </g>
   </g>
   <g id="line2d_20">
    <defs>
     <path id="mef95d65ce7" d="M 0 -1 
L -0.224514 -0.309017 
L -0.951057 -0.309017 
L -0.363271 0.118034 
L -0.587785 0.809017 
L -0 0.381966 
L 0.587785 0.809017 
L 0.363271 0.118034 
L 0.951057 -0.309017 
L 0.224514 -0.309017 
z
" style="stroke: #000000; stroke-linejoin: bevel"/>
    </defs>
    <g clip-path="url(#p944dea1e42)">
     <use xlink:href="#mef95d65ce7" x="95.359912" y="409.047998" style="stroke: #000000; stroke-linejoin: bevel"/>
     <use xlink:href="#mef95d65ce7" x="86.65328" y="404.864086" style="stroke: #000000; stroke-linejoin: bevel"/>
     <use xlink:href="#mef95d65ce7" x="90.366491" y="398.254407" style="stroke: #000000; stroke-linejoin: bevel"/>
     <use xlink:href="#mef95d65ce7" x="104.511532" y="409.579337" style="stroke: #000000; stroke-linejoin: bevel"/>
     <use xlink:href="#mef95d65ce7" x="113.642727" y="410.182666" style="stroke: #000000; stroke-linejoin: bevel"/>
     <use xlink:href="#mef95d65ce7" x="111.520633" y="403.41664" style="stroke: #000000; stroke-linejoin: bevel"/>
     <use xlink:href="#mef95d65ce7" x="118.262311" y="398.763659" style="stroke: #000000; stroke-linejoin: bevel"/>
     <use xlink:href="#mef95d65ce7" x="122.124327" y="399.427449" style="stroke: #000000; stroke-linejoin: bevel"/>
     <use xlink:href="#mef95d65ce7" x="113.180888" y="400.679498" style="stroke: #000000; stroke-linejoin: bevel"/>
     <use xlink:href="#mef95d65ce7" x="134.712593" y="399.797962" style="stroke: #000000; stroke-linejoin: bevel"/>
     <use xlink:href="#mef95d65ce7" x="130.191499" y="401.096915" style="stroke: #000000; stroke-linejoin: bevel"/>
     <use xlink:href="#mef95d65ce7" x="142.632861" y="391.628505" style="stroke: #000000; stroke-linejoin: bevel"/>
     <use xlink:href="#mef95d65ce7" x="141.564294" y="402.31955" style="stroke: #000000; stroke-linejoin: bevel"/>
     <use xlink:href="#mef95d65ce7" x="156.759687" y="400.079196" style="stroke: #000000; stroke-linejoin: bevel"/>
     <use xlink:href="#mef95d65ce7" x="155.347664" y="395.549101" style="stroke: #000000; stroke-linejoin: bevel"/>
     <use xlink:href="#mef95d65ce7" x="169.320506" y="397.58691" style="stroke: #000000; stroke-linejoin: bevel"/>
     <use xlink:href="#mef95d65ce7" x="159.430351" y="393.862048" style="stroke: #000000; stroke-linejoin: bevel"/>
     <use xlink:href="#mef95d65ce7" x="175.738187" y="393.927476" style="stroke: #000000; stroke-linejoin: bevel"/>
     <use xlink:href="#mef95d65ce7" x="160.772132" y="400.663325" style="stroke: #000000; stroke-linejoin: bevel"/>
     <use xlink:href="#mef95d65ce7" x="172.566016" y="389.114047" style="stroke: #000000; stroke-linejoin: bevel"/>
    </g>
   </g>
   <g id="line2d_21">
    <g clip-path="url(#p944dea1e42)">
     <use xlink:href="#mef95d65ce7" x="527.007283" y="414.505003" style="stroke: #000000; stroke-linejoin: bevel"/>
     <use xlink:href="#mef95d65ce7" x="539.300454" y="412.423325" style="stroke: #000000; stroke-linejoin: bevel"/>
     <use xlink:href="#mef95d65ce7" x="530.832418" y="406.281374" style="stroke: #000000; stroke-linejoin: bevel"/>
     <use xlink:href="#mef95d65ce7" x="531.859857" y="412.18393" style="stroke: #000000; stroke-linejoin: bevel"/>
     <use xlink:href="#mef95d65ce7" x="511.28289" y="403.098975" style="stroke: #000000; stroke-linejoin: bevel"/>
     <use xlink:href="#mef95d65ce7" x="507.380576" y="403.605531" style="stroke: #000000; stroke-linejoin: bevel"/>
     <use xlink:href="#mef95d65ce7" x="518.164933" y="404.510774" style="stroke: #000000; stroke-linejoin: bevel"/>
     <use xlink:href="#mef95d65ce7" x="503.734348" y="401.855985" style="stroke: #000000; stroke-linejoin: bevel"/>
     <use xlink:href="#mef95d65ce7" x="497.615477" y="400.341685" style="stroke: #000000; stroke-linejoin: bevel"/>
     <use xlink:href="#mef95d65ce7" x="508.535444" y="412.671393" style="stroke: #000000; stroke-linejoin: bevel"/>
     <use xlink:href="#mef95d65ce7" x="503.466912" y="402.311999" style="stroke: #000000; stroke-linejoin: bevel"/>
     <use xlink:href="#mef95d65ce7" x="478.744038" y="396.994945" style="stroke: #000000; stroke-linejoin: bevel"/>
     <use xlink:href="#mef95d65ce7" x="493.630969" y="401.915957" style="stroke: #000000; stroke-linejoin: bevel"/>
     <use xlink:href="#mef95d65ce7" x="482.425348" y="398.943814" style="stroke: #000000; stroke-linejoin: bevel"/>
     <use xlink:href="#mef95d65ce7" x="468.969211" y="401.960001" style="stroke: #000000; stroke-linejoin: bevel"/>
     <use xlink:href="#mef95d65ce7" x="480.989289" y="394.913722" style="stroke: #000000; stroke-linejoin: bevel"/>
     <use xlink:href="#mef95d65ce7" x="470.229227" y="395.37834" style="stroke: #000000; stroke-linejoin: bevel"/>
     <use xlink:href="#mef95d65ce7" x="470.215059" y="390.099118" style="stroke: #000000; stroke-linejoin: bevel"/>
     <use xlink:href="#mef95d65ce7" x="455.369403" y="394.581613" style="stroke: #000000; stroke-linejoin: bevel"/>
     <use xlink:href="#mef95d65ce7" x="452.426019" y="385.97827" style="stroke: #000000; stroke-linejoin: bevel"/>
    </g>
   </g>
   <g id="line2d_22">
    <path d="M 100.396532 410.485805 
L 94.046085 407.807663 
L 91.16304 401.193225 
L 95.193048 403.717029 
L 105.95114 407.442346 
L 109.760584 404.930208 
L 112.112491 399.603311 
L 118.883634 398.825825 
L 118.233207 398.521293 
L 129.921733 398.587611 
L 132.431027 398.817807 
L 139.840543 395.474217 
L 143.183532 396.904239 
L 152.433006 397.601198 
L 156.695085 396.41396 
L 166.007946 396.418433 
L 166.109023 395.170375 
L 173.457284 394.311784 
L 176.408257 393.571946 
" clip-path="url(#p944dea1e42)" style="fill: none; stroke-dasharray: 5.55,2.4; stroke-dashoffset: 0; stroke: #1f77b4; stroke-opacity: 0.7; stroke-width: 1.5"/>
   </g>
   <g id="line2d_23">
    <path d="M 538.182754 416.12164 
L 538.315087 413.652833 
L 542.519356 405.791374 
L 533.231084 409.497677 
L 521.234544 406.204157 
L 515.475126 401.289548 
L 513.887973 401.602512 
L 506.453477 400.844491 
L 499.419361 399.709588 
L 495.800298 403.382572 
L 495.259745 405.635267 
L 495.608818 404.559515 
L 486.552047 405.581189 
L 494.089989 403.456707 
L 503.948819 400.89915 
L 491.362347 397.658345 
L 478.002162 395.853382 
L 460.160137 394.05128 
L 454.754641 395.137649 
" clip-path="url(#p944dea1e42)" style="fill: none; stroke-dasharray: 5.55,2.4; stroke-dashoffset: 0; stroke: #1f77b4; stroke-opacity: 0.7; stroke-width: 1.5"/>
   </g>
   <g id="line2d_24">
    <defs>
     <path id="m108fdf7da6" d="M 0 5 
C 1.326016 5 2.597899 4.473168 3.535534 3.535534 
C 4.473168 2.597899 5 1.326016 5 0 
C 5 -1.326016 4.473168 -2.597899 3.535534 -3.535534 
C 2.597899 -4.473168 1.326016 -5 0 -5 
C -1.326016 -5 -2.597899 -4.473168 -3.535534 -3.535534 
C -4.473168 -2.597899 -5 -1.326016 -5 0 
C -5 1.326016 -4.473168 2.597899 -3.535534 3.535534 
C -2.597899 4.473168 -1.326016 5 0 5 
z
" style="stroke: #1f77b4; stroke-opacity: 0.8"/>
    </defs>
    <g clip-path="url(#p944dea1e42)">
     <use xlink:href="#m108fdf7da6" x="181.100278" y="392.845548" style="fill: #1f77b4; fill-opacity: 0.8; stroke: #1f77b4; stroke-opacity: 0.8"/>
     <use xlink:href="#m108fdf7da6" x="449.32531" y="394.268763" style="fill: #1f77b4; fill-opacity: 0.8; stroke: #1f77b4; stroke-opacity: 0.8"/>
    </g>
   </g>
   <g id="line2d_25">
    <path d="M 100.396532 410.485805 
L 94.046085 407.807663 
L 91.16304 401.193225 
L 95.193048 403.717029 
L 105.95114 407.442346 
L 109.760584 404.930208 
L 112.112491 399.603311 
L 118.883634 398.825825 
L 118.233207 398.521293 
L 129.921733 398.587611 
L 132.431027 398.817807 
L 139.840543 395.474217 
L 143.183532 396.904239 
L 152.433006 397.601198 
L 156.695085 396.41396 
L 166.007946 396.418433 
L 166.109023 395.170375 
L 173.457284 394.311784 
L 176.408257 393.571946 
" clip-path="url(#p944dea1e42)" style="fill: none; stroke-dasharray: 5.55,2.4; stroke-dashoffset: 0; stroke: #ff7f0e; stroke-opacity: 0.7; stroke-width: 1.5"/>
   </g>
   <g id="line2d_26">
    <path d="M 538.182754 416.12164 
L 538.315087 413.652833 
L 542.519356 405.791374 
L 533.231084 409.497677 
L 521.234544 406.204157 
L 515.475126 401.289548 
L 513.887973 401.602512 
L 506.453477 400.844491 
L 499.419361 399.709588 
L 495.800298 403.382572 
L 495.259745 405.635267 
L 495.608818 404.559515 
L 486.552047 405.581189 
L 494.089989 403.456707 
L 503.948819 400.89915 
L 491.362347 397.658345 
L 478.002162 395.853382 
L 460.160137 394.05128 
L 454.754641 395.137649 
" clip-path="url(#p944dea1e42)" style="fill: none; stroke-dasharray: 5.55,2.4; stroke-dashoffset: 0; stroke: #ff7f0e; stroke-opacity: 0.7; stroke-width: 1.5"/>
   </g>
   <g id="line2d_27">
    <defs>
     <path id="m86b49a28cd" d="M 0 -5 
L -1.12257 -1.545085 
L -4.755283 -1.545085 
L -1.816356 0.59017 
L -2.938926 4.045085 
L -0 1.90983 
L 2.938926 4.045085 
L 1.816356 0.59017 
L 4.755283 -1.545085 
L 1.12257 -1.545085 
z
" style="stroke: #ff7f0e; stroke-opacity: 0.8; stroke-linejoin: bevel"/>
    </defs>
    <g clip-path="url(#p944dea1e42)">
     <use xlink:href="#m86b49a28cd" x="181.100278" y="392.845548" style="fill: #ff7f0e; fill-opacity: 0.8; stroke: #ff7f0e; stroke-opacity: 0.8; stroke-linejoin: bevel"/>
     <use xlink:href="#m86b49a28cd" x="449.32531" y="394.268763" style="fill: #ff7f0e; fill-opacity: 0.8; stroke: #ff7f0e; stroke-opacity: 0.8; stroke-linejoin: bevel"/>
    </g>
   </g>
   <g id="line2d_28">
    <path d="M 100.396532 410.485805 
L 94.046085 407.807663 
L 91.16304 401.193225 
L 95.193048 403.717029 
L 105.95114 407.442346 
L 109.760584 404.930208 
L 112.112491 399.603311 
L 118.883634 398.825825 
L 118.233207 398.521293 
L 129.921733 398.587611 
L 132.431027 398.817807 
L 139.840543 395.474217 
L 143.183532 396.904239 
L 152.433006 397.601198 
L 156.695085 396.41396 
L 166.007946 396.418433 
L 166.109023 395.170375 
L 173.457284 394.311784 
L 176.408257 393.571946 
" clip-path="url(#p944dea1e42)" style="fill: none; stroke-dasharray: 5.55,2.4; stroke-dashoffset: 0; stroke: #2ca02c; stroke-opacity: 0.7; stroke-width: 1.5"/>
   </g>
   <g id="line2d_29">
    <path d="M 538.182754 416.12164 
L 538.315087 413.652833 
L 542.519356 405.791374 
L 533.231084 409.497677 
L 521.234544 406.204157 
L 515.475126 401.289548 
L 513.887973 401.602512 
L 506.453477 400.844491 
L 499.419361 399.709588 
L 495.800298 403.382572 
L 495.259745 405.635267 
L 495.608818 404.559515 
L 486.552047 405.581189 
L 494.089989 403.456707 
L 503.948819 400.89915 
L 491.362347 397.658345 
L 478.002162 395.853382 
L 460.160137 394.05128 
L 454.754641 395.137649 
" clip-path="url(#p944dea1e42)" style="fill: none; stroke-dasharray: 5.55,2.4; stroke-dashoffset: 0; stroke: #2ca02c; stroke-opacity: 0.7; stroke-width: 1.5"/>
   </g>
   <g id="line2d_30">
    <defs>
     <path id="m3d3400d013" d="M -5 5 
L 5 5 
L 5 -5 
L -5 -5 
z
" style="stroke: #2ca02c; stroke-opacity: 0.8; stroke-linejoin: miter"/>
    </defs>
    <g clip-path="url(#p944dea1e42)">
     <use xlink:href="#m3d3400d013" x="181.100278" y="392.845548" style="fill: #2ca02c; fill-opacity: 0.8; stroke: #2ca02c; stroke-opacity: 0.8; stroke-linejoin: miter"/>
     <use xlink:href="#m3d3400d013" x="449.32531" y="394.268763" style="fill: #2ca02c; fill-opacity: 0.8; stroke: #2ca02c; stroke-opacity: 0.8; stroke-linejoin: miter"/>
    </g>
   </g>
   <g id="patch_3">
    <path d="M 35.304688 561.6 
L 35.304688 7.2 
" style="fill: none; stroke: #000000; stroke-width: 0.8; stroke-linejoin: miter; stroke-linecap: square"/>
   </g>
   <g id="patch_4">
    <path d="M 593.304688 561.6 
L 593.304688 7.2 
" style="fill: none; stroke: #000000; stroke-width: 0.8; stroke-linejoin: miter; stroke-linecap: square"/>
   </g>
   <g id="patch_5">
    <path d="M 35.304688 561.6 
L 593.304688 561.6 
" style="fill: none; stroke: #000000; stroke-width: 0.8; stroke-linejoin: miter; stroke-linecap: square"/>
   </g>
   <g id="patch_6">
    <path d="M 35.304688 7.2 
L 593.304688 7.2 
" style="fill: none; stroke: #000000; stroke-width: 0.8; stroke-linejoin: miter; stroke-linecap: square"/>
   </g>
   <g id="legend_1">
    <g id="patch_7">
     <path d="M 432.9675 141.69625 
L 583.504688 141.69625 
Q 586.304688 141.69625 586.304688 138.89625 
L 586.304688 17 
Q 586.304688 14.2 583.504688 14.2 
L 432.9675 14.2 
Q 430.1675 14.2 430.1675 17 
L 430.1675 138.89625 
Q 430.1675 141.69625 432.9675 141.69625 
z
" style="fill: #ffffff; opacity: 0.8; stroke: #cccccc; stroke-linejoin: miter"/>
    </g>
    <g id="line2d_31">
     <g>
      <use xlink:href="#m1de269c70e" x="449.7675" y="25.537813" style="fill: #808080; stroke: #808080"/>
     </g>
    </g>
    <g id="text_19">
     <!-- $\mathbf{Z}_t$ -->
     <g transform="translate(474.9675 30.437813) scale(0.14 -0.14)">
      <defs>
       <path id="DejaVuSans-Bold-5a" d="M 359 4666 
L 4281 4666 
L 4281 3938 
L 1778 909 
L 4353 909 
L 4353 0 
L 288 0 
L 288 728 
L 2791 3756 
L 359 3756 
L 359 4666 
z
" transform="scale(0.015625)"/>
       <path id="DejaVuSans-Oblique-74" d="M 2706 3500 
L 2619 3053 
L 1472 3053 
L 1100 1153 
Q 1081 1047 1072 975 
Q 1063 903 1063 863 
Q 1063 663 1183 572 
Q 1303 481 1569 481 
L 2150 481 
L 2053 0 
L 1503 0 
Q 991 0 739 200 
Q 488 400 488 806 
Q 488 878 497 964 
Q 506 1050 525 1153 
L 897 3053 
L 409 3053 
L 500 3500 
L 978 3500 
L 1172 4494 
L 1747 4494 
L 1556 3500 
L 2706 3500 
z
" transform="scale(0.015625)"/>
      </defs>
      <use xlink:href="#DejaVuSans-Bold-5a" transform="translate(0 0.09375)"/>
      <use xlink:href="#DejaVuSans-Oblique-74" transform="translate(73.466797 -16.3125) scale(0.7)"/>
     </g>
    </g>
    <g id="line2d_32">
     <g>
      <use xlink:href="#mef95d65ce7" x="449.7675" y="46.087188" style="stroke: #000000; stroke-linejoin: bevel"/>
     </g>
    </g>
    <g id="text_20">
     <!-- $\mathbf{x}_t$ -->
     <g transform="translate(474.9675 50.987188) scale(0.14 -0.14)">
      <defs>
       <path id="DejaVuSans-Bold-78" d="M 1422 1791 
L 159 3500 
L 1344 3500 
L 2059 2463 
L 2784 3500 
L 3969 3500 
L 2706 1797 
L 4031 0 
L 2847 0 
L 2059 1106 
L 1281 0 
L 97 0 
L 1422 1791 
z
" transform="scale(0.015625)"/>
      </defs>
      <use xlink:href="#DejaVuSans-Bold-78" transform="translate(0 0.3125)"/>
      <use xlink:href="#DejaVuSans-Oblique-74" transform="translate(65.458984 -16.09375) scale(0.7)"/>
     </g>
    </g>
    <g id="line2d_33">
     <g>
      <use xlink:href="#mef95d65ce7" x="449.7675" y="66.636563" style="stroke: #000000; stroke-linejoin: bevel"/>
     </g>
    </g>
    <g id="text_21">
     <!-- $\mathbf{x}_t$ -->
     <g transform="translate(474.9675 71.536563) scale(0.14 -0.14)">
      <use xlink:href="#DejaVuSans-Bold-78" transform="translate(0 0.3125)"/>
      <use xlink:href="#DejaVuSans-Oblique-74" transform="translate(65.458984 -16.09375) scale(0.7)"/>
     </g>
    </g>
    <g id="line2d_34">
     <g>
      <use xlink:href="#m108fdf7da6" x="449.7675" y="87.185938" style="fill: #1f77b4; fill-opacity: 0.8; stroke: #1f77b4; stroke-opacity: 0.8"/>
     </g>
    </g>
    <g id="text_22">
     <!-- JPDA estimate -->
     <g transform="translate(474.9675 92.085938) scale(0.14 -0.14)">
      <defs>
       <path id="DejaVuSans-4a" d="M 628 4666 
L 1259 4666 
L 1259 325 
Q 1259 -519 939 -900 
Q 619 -1281 -91 -1281 
L -331 -1281 
L -331 -750 
L -134 -750 
Q 284 -750 456 -515 
Q 628 -281 628 325 
L 628 4666 
z
" transform="scale(0.015625)"/>
       <path id="DejaVuSans-50" d="M 1259 4147 
L 1259 2394 
L 2053 2394 
Q 2494 2394 2734 2622 
Q 2975 2850 2975 3272 
Q 2975 3691 2734 3919 
Q 2494 4147 2053 4147 
L 1259 4147 
z
M 628 4666 
L 2053 4666 
Q 2838 4666 3239 4311 
Q 3641 3956 3641 3272 
Q 3641 2581 3239 2228 
Q 2838 1875 2053 1875 
L 1259 1875 
L 1259 0 
L 628 0 
L 628 4666 
z
" transform="scale(0.015625)"/>
       <path id="DejaVuSans-44" d="M 1259 4147 
L 1259 519 
L 2022 519 
Q 2988 519 3436 956 
Q 3884 1394 3884 2338 
Q 3884 3275 3436 3711 
Q 2988 4147 2022 4147 
L 1259 4147 
z
M 628 4666 
L 1925 4666 
Q 3281 4666 3915 4102 
Q 4550 3538 4550 2338 
Q 4550 1131 3912 565 
Q 3275 0 1925 0 
L 628 0 
L 628 4666 
z
" transform="scale(0.015625)"/>
       <path id="DejaVuSans-41" d="M 2188 4044 
L 1331 1722 
L 3047 1722 
L 2188 4044 
z
M 1831 4666 
L 2547 4666 
L 4325 0 
L 3669 0 
L 3244 1197 
L 1141 1197 
L 716 0 
L 50 0 
L 1831 4666 
z
" transform="scale(0.015625)"/>
       <path id="DejaVuSans-20" transform="scale(0.015625)"/>
       <path id="DejaVuSans-65" d="M 3597 1894 
L 3597 1613 
L 953 1613 
Q 991 1019 1311 708 
Q 1631 397 2203 397 
Q 2534 397 2845 478 
Q 3156 559 3463 722 
L 3463 178 
Q 3153 47 2828 -22 
Q 2503 -91 2169 -91 
Q 1331 -91 842 396 
Q 353 884 353 1716 
Q 353 2575 817 3079 
Q 1281 3584 2069 3584 
Q 2775 3584 3186 3129 
Q 3597 2675 3597 1894 
z
M 3022 2063 
Q 3016 2534 2758 2815 
Q 2500 3097 2075 3097 
Q 1594 3097 1305 2825 
Q 1016 2553 972 2059 
L 3022 2063 
z
" transform="scale(0.015625)"/>
       <path id="DejaVuSans-73" d="M 2834 3397 
L 2834 2853 
Q 2591 2978 2328 3040 
Q 2066 3103 1784 3103 
Q 1356 3103 1142 2972 
Q 928 2841 928 2578 
Q 928 2378 1081 2264 
Q 1234 2150 1697 2047 
L 1894 2003 
Q 2506 1872 2764 1633 
Q 3022 1394 3022 966 
Q 3022 478 2636 193 
Q 2250 -91 1575 -91 
Q 1294 -91 989 -36 
Q 684 19 347 128 
L 347 722 
Q 666 556 975 473 
Q 1284 391 1588 391 
Q 1994 391 2212 530 
Q 2431 669 2431 922 
Q 2431 1156 2273 1281 
Q 2116 1406 1581 1522 
L 1381 1569 
Q 847 1681 609 1914 
Q 372 2147 372 2553 
Q 372 3047 722 3315 
Q 1072 3584 1716 3584 
Q 2034 3584 2315 3537 
Q 2597 3491 2834 3397 
z
" transform="scale(0.015625)"/>
       <path id="DejaVuSans-74" d="M 1172 4494 
L 1172 3500 
L 2356 3500 
L 2356 3053 
L 1172 3053 
L 1172 1153 
Q 1172 725 1289 603 
Q 1406 481 1766 481 
L 2356 481 
L 2356 0 
L 1766 0 
Q 1100 0 847 248 
Q 594 497 594 1153 
L 594 3053 
L 172 3053 
L 172 3500 
L 594 3500 
L 594 4494 
L 1172 4494 
z
" transform="scale(0.015625)"/>
       <path id="DejaVuSans-69" d="M 603 3500 
L 1178 3500 
L 1178 0 
L 603 0 
L 603 3500 
z
M 603 4863 
L 1178 4863 
L 1178 4134 
L 603 4134 
L 603 4863 
z
" transform="scale(0.015625)"/>
       <path id="DejaVuSans-6d" d="M 3328 2828 
Q 3544 3216 3844 3400 
Q 4144 3584 4550 3584 
Q 5097 3584 5394 3201 
Q 5691 2819 5691 2113 
L 5691 0 
L 5113 0 
L 5113 2094 
Q 5113 2597 4934 2840 
Q 4756 3084 4391 3084 
Q 3944 3084 3684 2787 
Q 3425 2491 3425 1978 
L 3425 0 
L 2847 0 
L 2847 2094 
Q 2847 2600 2669 2842 
Q 2491 3084 2119 3084 
Q 1678 3084 1418 2786 
Q 1159 2488 1159 1978 
L 1159 0 
L 581 0 
L 581 3500 
L 1159 3500 
L 1159 2956 
Q 1356 3278 1631 3431 
Q 1906 3584 2284 3584 
Q 2666 3584 2933 3390 
Q 3200 3197 3328 2828 
z
" transform="scale(0.015625)"/>
       <path id="DejaVuSans-61" d="M 2194 1759 
Q 1497 1759 1228 1600 
Q 959 1441 959 1056 
Q 959 750 1161 570 
Q 1363 391 1709 391 
Q 2188 391 2477 730 
Q 2766 1069 2766 1631 
L 2766 1759 
L 2194 1759 
z
M 3341 1997 
L 3341 0 
L 2766 0 
L 2766 531 
Q 2569 213 2275 61 
Q 1981 -91 1556 -91 
Q 1019 -91 701 211 
Q 384 513 384 1019 
Q 384 1609 779 1909 
Q 1175 2209 1959 2209 
L 2766 2209 
L 2766 2266 
Q 2766 2663 2505 2880 
Q 2244 3097 1772 3097 
Q 1472 3097 1187 3025 
Q 903 2953 641 2809 
L 641 3341 
Q 956 3463 1253 3523 
Q 1550 3584 1831 3584 
Q 2591 3584 2966 3190 
Q 3341 2797 3341 1997 
z
" transform="scale(0.015625)"/>
      </defs>
      <use xlink:href="#DejaVuSans-4a"/>
      <use xlink:href="#DejaVuSans-50" x="29.492188"/>
      <use xlink:href="#DejaVuSans-44" x="89.794922"/>
      <use xlink:href="#DejaVuSans-41" x="165.046875"/>
      <use xlink:href="#DejaVuSans-20" x="233.455078"/>
      <use xlink:href="#DejaVuSans-65" x="265.242188"/>
      <use xlink:href="#DejaVuSans-73" x="326.765625"/>
      <use xlink:href="#DejaVuSans-74" x="378.865234"/>
      <use xlink:href="#DejaVuSans-69" x="418.074219"/>
      <use xlink:href="#DejaVuSans-6d" x="445.857422"/>
      <use xlink:href="#DejaVuSans-61" x="543.269531"/>
      <use xlink:href="#DejaVuSans-74" x="604.548828"/>
      <use xlink:href="#DejaVuSans-65" x="643.757812"/>
     </g>
    </g>
    <g id="line2d_35">
     <g>
      <use xlink:href="#m86b49a28cd" x="449.7675" y="107.735313" style="fill: #ff7f0e; fill-opacity: 0.8; stroke: #ff7f0e; stroke-opacity: 0.8; stroke-linejoin: bevel"/>
     </g>
    </g>
    <g id="text_23">
     <!-- JPDA* estimate -->
     <g transform="translate(474.9675 112.635313) scale(0.14 -0.14)">
      <defs>
       <path id="DejaVuSans-2a" d="M 3009 3897 
L 1888 3291 
L 3009 2681 
L 2828 2375 
L 1778 3009 
L 1778 1831 
L 1422 1831 
L 1422 3009 
L 372 2375 
L 191 2681 
L 1313 3291 
L 191 3897 
L 372 4206 
L 1422 3572 
L 1422 4750 
L 1778 4750 
L 1778 3572 
L 2828 4206 
L 3009 3897 
z
" transform="scale(0.015625)"/>
      </defs>
      <use xlink:href="#DejaVuSans-4a"/>
      <use xlink:href="#DejaVuSans-50" x="29.492188"/>
      <use xlink:href="#DejaVuSans-44" x="89.794922"/>
      <use xlink:href="#DejaVuSans-41" x="165.046875"/>
      <use xlink:href="#DejaVuSans-2a" x="233.455078"/>
      <use xlink:href="#DejaVuSans-20" x="283.455078"/>
      <use xlink:href="#DejaVuSans-65" x="315.242188"/>
      <use xlink:href="#DejaVuSans-73" x="376.765625"/>
      <use xlink:href="#DejaVuSans-74" x="428.865234"/>
      <use xlink:href="#DejaVuSans-69" x="468.074219"/>
      <use xlink:href="#DejaVuSans-6d" x="495.857422"/>
      <use xlink:href="#DejaVuSans-61" x="593.269531"/>
      <use xlink:href="#DejaVuSans-74" x="654.548828"/>
      <use xlink:href="#DejaVuSans-65" x="693.757812"/>
     </g>
    </g>
    <g id="line2d_36">
     <g>
      <use xlink:href="#m3d3400d013" x="449.7675" y="128.284688" style="fill: #2ca02c; fill-opacity: 0.8; stroke: #2ca02c; stroke-opacity: 0.8; stroke-linejoin: miter"/>
     </g>
    </g>
    <g id="text_24">
     <!-- Ours estimate -->
     <g transform="translate(474.9675 133.184688) scale(0.14 -0.14)">
      <defs>
       <path id="DejaVuSans-4f" d="M 2522 4238 
Q 1834 4238 1429 3725 
Q 1025 3213 1025 2328 
Q 1025 1447 1429 934 
Q 1834 422 2522 422 
Q 3209 422 3611 934 
Q 4013 1447 4013 2328 
Q 4013 3213 3611 3725 
Q 3209 4238 2522 4238 
z
M 2522 4750 
Q 3503 4750 4090 4092 
Q 4678 3434 4678 2328 
Q 4678 1225 4090 567 
Q 3503 -91 2522 -91 
Q 1538 -91 948 565 
Q 359 1222 359 2328 
Q 359 3434 948 4092 
Q 1538 4750 2522 4750 
z
" transform="scale(0.015625)"/>
       <path id="DejaVuSans-75" d="M 544 1381 
L 544 3500 
L 1119 3500 
L 1119 1403 
Q 1119 906 1312 657 
Q 1506 409 1894 409 
Q 2359 409 2629 706 
Q 2900 1003 2900 1516 
L 2900 3500 
L 3475 3500 
L 3475 0 
L 2900 0 
L 2900 538 
Q 2691 219 2414 64 
Q 2138 -91 1772 -91 
Q 1169 -91 856 284 
Q 544 659 544 1381 
z
M 1991 3584 
L 1991 3584 
z
" transform="scale(0.015625)"/>
       <path id="DejaVuSans-72" d="M 2631 2963 
Q 2534 3019 2420 3045 
Q 2306 3072 2169 3072 
Q 1681 3072 1420 2755 
Q 1159 2438 1159 1844 
L 1159 0 
L 581 0 
L 581 3500 
L 1159 3500 
L 1159 2956 
Q 1341 3275 1631 3429 
Q 1922 3584 2338 3584 
Q 2397 3584 2469 3576 
Q 2541 3569 2628 3553 
L 2631 2963 
z
" transform="scale(0.015625)"/>
      </defs>
      <use xlink:href="#DejaVuSans-4f"/>
      <use xlink:href="#DejaVuSans-75" x="78.710938"/>
      <use xlink:href="#DejaVuSans-72" x="142.089844"/>
      <use xlink:href="#DejaVuSans-73" x="183.203125"/>
      <use xlink:href="#DejaVuSans-20" x="235.302734"/>
      <use xlink:href="#DejaVuSans-65" x="267.089844"/>
      <use xlink:href="#DejaVuSans-73" x="328.613281"/>
      <use xlink:href="#DejaVuSans-74" x="380.712891"/>
      <use xlink:href="#DejaVuSans-69" x="419.921875"/>
      <use xlink:href="#DejaVuSans-6d" x="447.705078"/>
      <use xlink:href="#DejaVuSans-61" x="545.117188"/>
      <use xlink:href="#DejaVuSans-74" x="606.396484"/>
      <use xlink:href="#DejaVuSans-65" x="645.605469"/>
     </g>
    </g>
   </g>
  </g>
 </g>
 <defs>
  <clipPath id="p944dea1e42">
   <rect x="35.304688" y="7.2" width="558" height="554.4"/>
  </clipPath>
 </defs>
</svg>
